{
  "values": [
    "paradisemod:volcanic_field",
    "paradisemod:underground_desert",
    "paradisemod:underground_savanna",
    "paradisemod:dark_volanic_field",
    "paradisemod:dark_desert",
    "#paradisemod:rocky_deserts",
    "#paradisemod:salt"
  ]
}