{
  "values": [
    "paradisemod:underground_grassland",
    "paradisemod:white_roseland",
    "paradisemod:orange_roseland",
    "paradisemod:magenta_roseland",
    "paradisemod:light_blue_roseland",
    "paradisemod:yellow_roseland",
    "paradisemod:lime_roseland",
    "paradisemod:pink_roseland",
    "paradisemod:gray_roseland",
    "paradisemod:light_gray_roseland",
    "paradisemod:cyan_roseland",
    "paradisemod:purple_roseland",
    "paradisemod:blue_roseland",
    "paradisemod:brown_roseland",
    "paradisemod:green_roseland",
    "paradisemod:red_roseland",
    "paradisemod:black_roseland",
    "#paradisemod:rose_fields"
  ]
}