{
  "parent": "paradisemod:paradisemod/root",
  "criteria": {
    "black": {
      "conditions": {
        "player": [
          {
            "condition": "minecraft:entity_properties",
            "entity": "this",
            "predicate": {
              "location": {
                "biome": "paradisemod:black_rose_field"
              }
            }
          }
        ]
      },
      "trigger": "minecraft:location"
    },
    "blue": {
      "conditions": {
        "player": [
          {
            "condition": "minecraft:entity_properties",
            "entity": "this",
            "predicate": {
              "location": {
                "biome": "paradisemod:blue_rose_field"
              }
            }
          }
        ]
      },
      "trigger": "minecraft:location"
    },
    "brown": {
      "conditions": {
        "player": [
          {
            "condition": "minecraft:entity_properties",
            "entity": "this",
            "predicate": {
              "location": {
                "biome": "paradisemod:brown_rose_field"
              }
            }
          }
        ]
      },
      "trigger": "minecraft:location"
    },
    "cyan": {
      "conditions": {
        "player": [
          {
            "condition": "minecraft:entity_properties",
            "entity": "this",
            "predicate": {
              "location": {
                "biome": "paradisemod:cyan_rose_field"
              }
            }
          }
        ]
      },
      "trigger": "minecraft:location"
    },
    "gray": {
      "conditions": {
        "player": [
          {
            "condition": "minecraft:entity_properties",
            "entity": "this",
            "predicate": {
              "location": {
                "biome": "paradisemod:gray_rose_field"
              }
            }
          }
        ]
      },
      "trigger": "minecraft:location"
    },
    "green": {
      "conditions": {
        "player": [
          {
            "condition": "minecraft:entity_properties",
            "entity": "this",
            "predicate": {
              "location": {
                "biome": "paradisemod:green_rose_field"
              }
            }
          }
        ]
      },
      "trigger": "minecraft:location"
    },
    "light_blue": {
      "conditions": {
        "player": [
          {
            "condition": "minecraft:entity_properties",
            "entity": "this",
            "predicate": {
              "location": {
                "biome": "paradisemod:light_blue_rose_field"
              }
            }
          }
        ]
      },
      "trigger": "minecraft:location"
    },
    "light_gray": {
      "conditions": {
        "player": [
          {
            "condition": "minecraft:entity_properties",
            "entity": "this",
            "predicate": {
              "location": {
                "biome": "paradisemod:light_gray_rose_field"
              }
            }
          }
        ]
      },
      "trigger": "minecraft:location"
    },
    "lime": {
      "conditions": {
        "player": [
          {
            "condition": "minecraft:entity_properties",
            "entity": "this",
            "predicate": {
              "location": {
                "biome": "paradisemod:lime_rose_field"
              }
            }
          }
        ]
      },
      "trigger": "minecraft:location"
    },
    "magenta": {
      "conditions": {
        "player": [
          {
            "condition": "minecraft:entity_properties",
            "entity": "this",
            "predicate": {
              "location": {
                "biome": "paradisemod:magenta_rose_field"
              }
            }
          }
        ]
      },
      "trigger": "minecraft:location"
    },
    "orange": {
      "conditions": {
        "player": [
          {
            "condition": "minecraft:entity_properties",
            "entity": "this",
            "predicate": {
              "location": {
                "biome": "paradisemod:orange_rose_field"
              }
            }
          }
        ]
      },
      "trigger": "minecraft:location"
    },
    "pink": {
      "conditions": {
        "player": [
          {
            "condition": "minecraft:entity_properties",
            "entity": "this",
            "predicate": {
              "location": {
                "biome": "paradisemod:pink_rose_field"
              }
            }
          }
        ]
      },
      "trigger": "minecraft:location"
    },
    "purple": {
      "conditions": {
        "player": [
          {
            "condition": "minecraft:entity_properties",
            "entity": "this",
            "predicate": {
              "location": {
                "biome": "paradisemod:purple_rose_field"
              }
            }
          }
        ]
      },
      "trigger": "minecraft:location"
    },
    "red": {
      "conditions": {
        "player": [
          {
            "condition": "minecraft:entity_properties",
            "entity": "this",
            "predicate": {
              "location": {
                "biome": "paradisemod:red_rose_field"
              }
            }
          }
        ]
      },
      "trigger": "minecraft:location"
    },
    "white": {
      "conditions": {
        "player": [
          {
            "condition": "minecraft:entity_properties",
            "entity": "this",
            "predicate": {
              "location": {
                "biome": "paradisemod:white_rose_field"
              }
            }
          }
        ]
      },
      "trigger": "minecraft:location"
    },
    "yellow": {
      "conditions": {
        "player": [
          {
            "condition": "minecraft:entity_properties",
            "entity": "this",
            "predicate": {
              "location": {
                "biome": "paradisemod:yellow_rose_field"
              }
            }
          }
        ]
      },
      "trigger": "minecraft:location"
    }
  },
  "display": {
    "announce_to_chat": true,
    "description": {
      "translate": "advancement.paradisemod.self.rose_field.desc"
    },
    "frame": "task",
    "hidden": false,
    "icon": {
      "item": "paradisemod:red_rose"
    },
    "show_toast": true,
    "title": {
      "translate": "advancement.paradisemod.self.rose_field"
    }
  },
  "requirements": [
    [
      "white",
      "orange",
      "magenta",
      "light_blue",
      "yellow",
      "lime",
      "pink",
      "gray",
      "light_gray",
      "cyan",
      "purple",
      "blue",
      "brown",
      "green",
      "red",
      "black"
    ]
  ],
  "sends_telemetry_event": true
}