{
  "values": [
    "paradisemod:cactus_fence_gate",
    "paradisemod:palo_verde_fence_gate",
    "paradisemod:mesquite_fence_gate",
    "paradisemod:blackened_oak_fence_gate",
    "paradisemod:blackened_spruce_fence_gate",
    "paradisemod:glowing_oak_fence_gate",
    "paradisemod:glowing_cactus_fence_gate"
  ]
}