{
  "values": [
    "paradisemod:darkstone",
    "minecraft:stone",
    "minecraft:end_stone",
    "minecraft:granite",
    "minecraft:diorite",
    "minecraft:andesite",
    "minecraft:dripstone_block",
    "minecraft:calcite",
    "minecraft:tuff",
    "minecraft:deepslate",
    "minecraft:cobbled_deepslate"
  ]
}