{
  "values": [
    "paradisemod:cactus_button",
    "paradisemod:palo_verde_button",
    "paradisemod:mesquite_button",
    "paradisemod:blackened_oak_button",
    "paradisemod:blackened_spruce_button",
    "paradisemod:glowing_oak_button",
    "paradisemod:glowing_cactus_button"
  ]
}