{
  "values": [
    "paradisemod:cactus_stairs",
    "paradisemod:palo_verde_stairs",
    "paradisemod:mesquite_stairs",
    "paradisemod:blackened_oak_stairs",
    "paradisemod:blackened_spruce_stairs",
    "paradisemod:glowing_oak_stairs",
    "paradisemod:glowing_cactus_stairs"
  ]
}