{
  "values": [
    "paradisemod:cactus_pressure_plate",
    "paradisemod:palo_verde_pressure_plate",
    "paradisemod:mesquite_pressure_plate",
    "paradisemod:blackened_oak_pressure_plate",
    "paradisemod:blackened_spruce_pressure_plate",
    "paradisemod:glowing_oak_pressure_plate",
    "paradisemod:glowing_cactus_pressure_plate"
  ]
}