{
  "values": [
    "paradisemod:cactus_door",
    "paradisemod:palo_verde_door",
    "paradisemod:mesquite_door",
    "paradisemod:blackened_oak_door",
    "paradisemod:blackened_spruce_door",
    "paradisemod:glowing_oak_door",
    "paradisemod:glowing_cactus_door"
  ]
}