{
  "parent": "minecraft:block/slab",
  "textures": {
    "bottom": "paradisemod:block/blackened_spruce_planks",
    "side": "paradisemod:block/blackened_spruce_planks",
    "top": "paradisemod:block/blackened_spruce_planks"
  }
}