{
  "parent": "minecraft:block/slab_top",
  "textures": {
    "bottom": "paradisemod:block/cactus_block",
    "side": "paradisemod:block/cactus_block",
    "top": "paradisemod:block/cactus_block"
  }
}