{
  "parent": "minecraft:block/slab",
  "textures": {
    "bottom": "paradisemod:block/blackened_sandstone_top",
    "side": "paradisemod:block/cut_blackened_sandstone",
    "top": "paradisemod:block/blackened_sandstone_top"
  }
}