{
  "parent": "minecraft:block/slab_top",
  "textures": {
    "bottom": "paradisemod:block/glowing_obsidian/green",
    "side": "paradisemod:block/glowing_obsidian/green_slab",
    "top": "paradisemod:block/glowing_obsidian/green"
  }
}