{
  "parent": "minecraft:block/slab_top",
  "textures": {
    "bottom": "paradisemod:block/mesquite_planks",
    "side": "paradisemod:block/mesquite_planks",
    "top": "paradisemod:block/mesquite_planks"
  }
}