{
  "parent": "minecraft:block/slab_top",
  "textures": {
    "bottom": "paradisemod:block/glowing_obsidian/orange",
    "side": "paradisemod:block/glowing_obsidian/orange_slab",
    "top": "paradisemod:block/glowing_obsidian/orange"
  }
}