{
  "parent": "minecraft:block/slab_top",
  "textures": {
    "bottom": "paradisemod:block/polished_dripstone",
    "side": "paradisemod:block/polished_dripstone_slab",
    "top": "paradisemod:block/polished_dripstone"
  }
}