{
  "parent": "minecraft:block/slab_top",
  "textures": {
    "bottom": "paradisemod:block/polished_calcite",
    "side": "paradisemod:block/polished_calcite_slab",
    "top": "paradisemod:block/polished_calcite"
  }
}