{
  "parent": "minecraft:block/slab_top",
  "textures": {
    "bottom": "paradisemod:block/glowing_obsidian/red",
    "side": "paradisemod:block/glowing_obsidian/red_slab",
    "top": "paradisemod:block/glowing_obsidian/red"
  }
}