{
  "parent": "minecraft:block/slab_top",
  "textures": {
    "bottom": "paradisemod:block/glowing_obsidian/silver",
    "side": "paradisemod:block/glowing_obsidian/silver_slab",
    "top": "paradisemod:block/glowing_obsidian/silver"
  }
}