{
  "parent": "minecraft:block/cube_bottom_top",
  "textures": {
    "bottom": "paradisemod:block/barrel/cactus_bottom",
    "side": "paradisemod:block/barrel/cactus_side",
    "top": "paradisemod:block/barrel/cactus_top_open"
  }
}