{
  "parent": "minecraft:block/cube_bottom_top",
  "textures": {
    "bottom": "paradisemod:block/barrel/dark_oak_bottom",
    "side": "paradisemod:block/barrel/dark_oak_side",
    "top": "paradisemod:block/barrel/dark_oak_top"
  }
}