{
    "sea_level": 63,
    "disable_mob_generation": false,
    "aquifers_enabled": true,
    "ore_veins_enabled": true,
    "legacy_random_source": true,
    "default_block": {
        "Name": "minecraft:stone"
    },
    "default_fluid": {
        "Name": "minecraft:water",
        "Properties": {
            "level": "0"
        }
    },
    "noise": {
        "min_y": -64,
        "height": 384,
        "size_horizontal": 1,
        "size_vertical": 2
    },
    "noise_router": {
        "barrier": 0,
        "fluid_level_floodedness": 0,
        "fluid_level_spread": 0,
        "lava": 0,
        "temperature": {
            "type": "minecraft:shifted_noise",
            "noise": "minecraft:temperature",
            "xz_scale": 0.25,
            "y_scale": 0,
            "shift_x": "minecraft:shift_x",
            "shift_y": 0,
            "shift_z": "minecraft:shift_z"
        },
        "vegetation": {
            "type": "minecraft:shifted_noise",
            "noise": "minecraft:vegetation",
            "xz_scale": 0.25,
            "y_scale": 0,
            "shift_x": "minecraft:shift_x",
            "shift_y": 0,
            "shift_z": "minecraft:shift_z"
        },
        "continents": 0,
        "erosion": 0,
        "depth": 0,
        "ridges": 0,
        "initial_density_without_jaggedness": 0,
        "final_density": {
            "type": "minecraft:squeeze",
            "argument": {
                "type": "minecraft:mul",
                "argument1": 0.64,
                "argument2": {
                    "type": "minecraft:interpolated",
                    "argument": {
                        "type": "minecraft:blend_density",
                        "argument": {
                            "type": "minecraft:add",
                            "argument1": 2.5,
                            "argument2": {
                                "type": "minecraft:mul",
                                "argument1": {
                                    "type": "minecraft:y_clamped_gradient",
                                    "from_y": -64,
                                    "to_y": 24,
                                    "from_value": 0,
                                    "to_value": 1
                                },
                                "argument2": {
                                    "type": "minecraft:add",
                                    "argument1": -2.5,
                                    "argument2": {
                                        "type": "minecraft:add",
                                        "argument1": 0.9375,
                                        "argument2": {
                                            "type": "minecraft:mul",
                                            "argument1": {
                                                "type": "minecraft:y_clamped_gradient",
                                                "from_y": 224,
                                                "to_y": 500,
                                                "from_value": 1,
                                                "to_value": 0
                                            },
                                            "argument2": {
                                                "type": "minecraft:add",
                                                "argument1": -0.9375,
                                                "argument2": "minecraft:nether/base_3d_noise"
                                            }
                                        }
                                    }
                                }
                            }
                        }
                    }
                }
            }
        },
        "vein_toggle": 0,
        "vein_ridged": 0,
        "vein_gap": 0
    },
    "surface_rule": {
        "type": "minecraft:condition",
        "if_true": {
            "type": "minecraft:stone_depth",
            "offset": 0,
            "surface_type": "floor",
            "add_surface_depth": false,
            "secondary_depth_range": 0
        },
        "then_run": {
            "type": "minecraft:condition",
            "if_true": {
                "type": "minecraft:stone_depth",
                "offset": 0,
                "surface_type": "ceiling",
                "add_surface_depth": false,
                "secondary_depth_range": 0
            },
            "then_run": {
                "type": "minecraft:block",
                "result_state": {
                    "Name": "minecraft:stone"
                }
            }
        }
    },
    "spawn_target": [
        {
            "erosion": [
                -1,
                1
            ],
            "depth": 0,
            "weirdness": [
                -1,
                -0.16
            ],
            "offset": 0,
            "temperature": [
                -1,
                1
            ],
            "humidity": [
                -1,
                1
            ],
            "continentalness": [
                -0.11,
                1
            ]
        },
        {
            "erosion": [
                -1,
                1
            ],
            "depth": 0,
            "weirdness": [
                0.16,
                1
            ],
            "offset": 0,
            "temperature": [
                -1,
                1
            ],
            "humidity": [
                -1,
                1
            ],
            "continentalness": [
                -0.11,
                1
            ]
        }
    ]
}
