{
  "feature": "paradisemod:christmas_lanterns",
  "placement": [
    {
      "type": "minecraft:in_square"
    },
    {
      "type": "minecraft:count",
      "count": 10
    },
    {
      "type": "minecraft:biome"
    }
  ]
}