{
	"credit": "Made with Blockbench",
	"ambientocclusion": false,
	"textures": {
		"particle": "paradisemod:block/door/cactus_top"
	},
	"elements": [
		{
			"from": [0, 0, 0],
			"to": [3, 4, 16],
			"faces": {
				"north": {"uv": [3, 12, 0, 16], "texture": "#particle"},
				"east": {"uv": [16, 12, 0, 16], "texture": "#particle"},
				"south": {"uv": [0, 12, 3, 16], "texture": "#particle"},
				"west": {"uv": [0, 12, 16, 16], "texture": "#particle"},
				"up": {"uv": [13, 0, 16, 16], "texture": "#particle"}
			}
		},
		{
			"from": [0, 4, 0],
			"to": [3, 8, 6],
			"faces": {
				"north": {"uv": [3, 8, 0, 12], "texture": "#particle"},
				"east": {"uv": [6, 8, 0, 12], "texture": "#particle"},
				"south": {"uv": [13, 0, 16, 4], "texture": "#particle"},
				"west": {"uv": [0, 8, 6, 12], "texture": "#particle"},
				"up": {"uv": [13, 0, 16, 6], "texture": "#particle"}
			}
		},
		{
			"from": [0, 4, 10],
			"to": [3, 8, 16],
			"faces": {
				"north": {"uv": [13, 0, 16, 4], "texture": "#particle"},
				"east": {"uv": [16, 8, 10, 12], "texture": "#particle"},
				"south": {"uv": [0, 8, 3, 12], "texture": "#particle"},
				"west": {"uv": [10, 8, 16, 12], "texture": "#particle"},
				"up": {"uv": [13, 10, 16, 16], "texture": "#particle"}
			}
		},
		{
			"from": [0, 4, 6],
			"to": [3, 5, 7],
			"faces": {
				"east": {"uv": [6, 11, 7, 12], "texture": "#particle"},
				"south": {"uv": [0, 1, 3, 2], "texture": "#particle"},
				"west": {"uv": [6, 11, 7, 12], "texture": "#particle"},
				"up": {"uv": [0, 0, 3, 1], "texture": "#particle"}
			}
		},
		{
			"from": [0, 4, 9],
			"to": [3, 5, 10],
			"faces": {
				"north": {"uv": [13, 1, 16, 2], "texture": "#particle"},
				"east": {"uv": [9, 11, 10, 12], "texture": "#particle"},
				"west": {"uv": [9, 11, 10, 12], "texture": "#particle"},
				"up": {"uv": [13, 1, 16, 2], "texture": "#particle"}
			}
		},
		{
			"from": [0, 6, 6],
			"to": [3, 8, 10],
			"faces": {
				"east": {"uv": [10, 8, 6, 10], "texture": "#particle"},
				"west": {"uv": [6, 8, 10, 10], "texture": "#particle"},
				"up": {"uv": [13, 6, 16, 10], "texture": "#particle"},
				"down": {"uv": [0, 0, 3, 4], "texture": "#particle"}
			}
		},
		{
			"from": [0, 8, 0],
			"to": [3, 11, 4],
			"faces": {
				"north": {"uv": [3, 5, 0, 8], "texture": "#particle"},
				"east": {"uv": [4, 5, 0, 8], "texture": "#particle"},
				"south": {"uv": [0, 6, 3, 9], "texture": "#particle"},
				"west": {"uv": [0, 5, 4, 8], "texture": "#particle"}
			}
		},
		{
			"from": [0, 8, 12],
			"to": [3, 11, 16],
			"faces": {
				"north": {"uv": [13, 6, 16, 9], "texture": "#particle"},
				"east": {"uv": [16, 5, 12, 8], "texture": "#particle"},
				"south": {"uv": [0, 5, 3, 8], "texture": "#particle"},
				"west": {"uv": [12, 5, 16, 8], "texture": "#particle"}
			}
		},
		{
			"from": [0, 11, 11],
			"to": [3, 16, 16],
			"faces": {
				"north": {"uv": [13, 0, 16, 5], "texture": "#particle"},
				"east": {"uv": [16, 0, 11, 5], "texture": "#particle"},
				"south": {"uv": [0, 0, 3, 5], "texture": "#particle"},
				"west": {"uv": [11, 0, 16, 5], "texture": "#particle"},
				"up": {"uv": [13, 11, 16, 16], "texture": "#particle"},
				"down": {"uv": [13, 0, 16, 5], "texture": "#particle"}
			}
		},
		{
			"from": [0, 11, 0],
			"to": [3, 16, 5],
			"faces": {
				"north": {"uv": [3, 0, 0, 5], "texture": "#particle"},
				"east": {"uv": [5, 0, 0, 5], "texture": "#particle"},
				"south": {"uv": [13, 0, 16, 5], "texture": "#particle"},
				"west": {"uv": [0, 0, 5, 5], "texture": "#particle"},
				"up": {"uv": [13, 0, 16, 5], "texture": "#particle"},
				"down": {"uv": [13, 0, 16, 5], "texture": "#particle"}
			}
		},
		{
			"from": [0, 12, 5],
			"to": [3, 16, 7],
			"faces": {
				"east": {"uv": [6, 0, 4, 4], "texture": "#particle"},
				"south": {"uv": [13, 0, 16, 4], "texture": "#particle"},
				"west": {"uv": [5, 0, 7, 4], "texture": "#particle"},
				"up": {"uv": [13, 5, 16, 7], "texture": "#particle"},
				"down": {"uv": [0, 0, 3, 2], "texture": "#particle"}
			}
		},
		{
			"from": [0, 12, 9],
			"to": [3, 16, 11],
			"faces": {
				"north": {"uv": [13, 0, 16, 4], "texture": "#particle"},
				"east": {"uv": [11, 0, 9, 4], "texture": "#particle"},
				"west": {"uv": [9, 0, 11, 4], "texture": "#particle"},
				"up": {"uv": [13, 9, 16, 11], "texture": "#particle"},
				"down": {"uv": [0, 0, 3, 2], "texture": "#particle"}
			}
		},
		{
			"from": [0, 8, 6],
			"to": [3, 12, 7],
			"faces": {
				"north": {"uv": [0, 0, 3, 4], "texture": "#particle"},
				"east": {"uv": [7, 4, 6, 8], "texture": "#particle"},
				"south": {"uv": [13, 4, 16, 8], "texture": "#particle"},
				"west": {"uv": [6, 4, 7, 8], "texture": "#particle"}
			}
		},
		{
			"from": [0, 13, 7],
			"to": [3, 16, 9],
			"faces": {
				"east": {"uv": [9, 0, 7, 3], "texture": "#particle"},
				"west": {"uv": [7, 0, 9, 3], "texture": "#particle"},
				"up": {"uv": [13, 7, 16, 9], "texture": "#particle"},
				"down": {"uv": [7, 0, 10, 2], "texture": "#particle"}
			}
		},
		{
			"from": [0, 8, 9],
			"to": [3, 12, 10],
			"faces": {
				"north": {"uv": [13, 5, 16, 9], "texture": "#particle"},
				"east": {"uv": [10, 4, 9, 8], "texture": "#particle"},
				"south": {"uv": [13, 5, 16, 9], "texture": "#particle"},
				"west": {"uv": [9, 4, 10, 8], "texture": "#particle"}
			}
		}
	]
}
