{
  "carvers": {
    "air": [
      "paradisemod:deep_dark_caves",
      "paradisemod:deep_dark_canyons"
    ]
  },
  "downfall": 1.0,
  "effects": {
    "fog_color": 334625,
    "mood_sound": {
      "block_search_extent": 8,
      "offset": 2.0,
      "sound": "minecraft:ambient.cave",
      "tick_delay": 6000
    },
    "music": {
      "max_delay": 24000,
      "min_delay": 12000,
      "replace_current_music": false,
      "sound": "minecraft:music.overworld.deep_dark"
    },
    "sky_color": 334625,
    "water_color": 2836811,
    "water_fog_color": 2836811
  },
  "features": [
    [],
    [
      "paradisemod:lake/deep_dark_lava",
      "paradisemod:lake/deep_dark_lava_underground",
      "paradisemod:lake/dark_lava",
      "paradisemod:lake/dark_lava_underground",
      "paradisemod:lake/glowing_water",
      "paradisemod:lake/glowing_water_underground",
      "paradisemod:lake/water",
      "paradisemod:lake/water_underground",
      "paradisemod:lake/psychedelic",
      "paradisemod:lake/psychedelic_underground"
    ],
    [],
    [],
    [
      "paradisemod:small_structure/small_dark_dungeon",
      "paradisemod:small_structure/deep_dark_black_cross",
      "paradisemod:small_structure/deep_dark_gold_cross",
      "paradisemod:small_structure/home"
    ],
    [],
    [
      "paradisemod:regen_stone_blob",
      "paradisemod:deepslate_blob"
    ],
    [],
    [
      "paradisemod:spring/glowing_water",
      "paradisemod:spring/deep_dark_water",
      "paradisemod:spring/deep_dark_lava",
      "paradisemod:spring/dark_lava",
      "paradisemod:spring/salt"
    ],
    [
      "paradisemod:glowing_foliage",
      "paradisemod:large_glowing_foliage",
      "paradisemod:crystal_forest_crystals"
    ]
  ],
  "has_precipitation": true,
  "spawn_costs": {},
  "spawners": {
    "ambient": [
      {
        "type": "minecraft:bat",
        "maxCount": 8,
        "minCount": 8,
        "weight": 10
      }
    ],
    "axolotls": [],
    "creature": [],
    "misc": [],
    "monster": [
      {
        "type": "minecraft:wither_skeleton",
        "maxCount": 5,
        "minCount": 2,
        "weight": 100
      },
      {
        "type": "minecraft:spider",
        "maxCount": 4,
        "minCount": 4,
        "weight": 100
      },
      {
        "type": "minecraft:zombie",
        "maxCount": 4,
        "minCount": 4,
        "weight": 95
      },
      {
        "type": "minecraft:zombie_villager",
        "maxCount": 1,
        "minCount": 1,
        "weight": 5
      },
      {
        "type": "minecraft:skeleton",
        "maxCount": 4,
        "minCount": 4,
        "weight": 100
      },
      {
        "type": "minecraft:creeper",
        "maxCount": 4,
        "minCount": 4,
        "weight": 100
      },
      {
        "type": "minecraft:slime",
        "maxCount": 4,
        "minCount": 4,
        "weight": 100
      },
      {
        "type": "minecraft:enderman",
        "maxCount": 4,
        "minCount": 1,
        "weight": 10
      },
      {
        "type": "minecraft:witch",
        "maxCount": 1,
        "minCount": 1,
        "weight": 5
      }
    ],
    "underground_water_creature": [
      {
        "type": "minecraft:glow_squid",
        "maxCount": 6,
        "minCount": 4,
        "weight": 10
      }
    ],
    "water_ambient": [],
    "water_creature": []
  },
  "temperature": 0.25
}