{
  "parent": "minecraft:block/stairs",
  "textures": {
    "bottom": "paradisemod:block/blackened_oak_planks",
    "side": "paradisemod:block/blackened_oak_planks",
    "top": "paradisemod:block/blackened_oak_planks"
  }
}