{
  "parent": "minecraft:block/inner_stairs",
  "textures": {
    "bottom": "paradisemod:block/glowing_obsidian/black",
    "side": "paradisemod:block/glowing_obsidian/black",
    "top": "paradisemod:block/glowing_obsidian/black"
  }
}