{
  "parent": "minecraft:block/outer_stairs",
  "textures": {
    "bottom": "paradisemod:block/cactus_block",
    "side": "paradisemod:block/cactus_block",
    "top": "paradisemod:block/cactus_block"
  }
}