{
  "parent": "minecraft:block/outer_stairs",
  "textures": {
    "bottom": "paradisemod:block/glowing_obsidian/gold",
    "side": "paradisemod:block/glowing_obsidian/gold",
    "top": "paradisemod:block/glowing_obsidian/gold"
  }
}