{
  "parent": "minecraft:block/stairs",
  "textures": {
    "bottom": "paradisemod:block/palo_verde_planks",
    "side": "paradisemod:block/palo_verde_planks",
    "top": "paradisemod:block/palo_verde_planks"
  }
}