{
  "parent": "minecraft:block/stairs",
  "textures": {
    "bottom": "paradisemod:block/polished_end_stone",
    "side": "paradisemod:block/polished_end_stone",
    "top": "paradisemod:block/polished_end_stone"
  }
}