{
  "parent": "minecraft:block/inner_stairs",
  "textures": {
    "bottom": "paradisemod:block/polished_darkstone",
    "side": "paradisemod:block/polished_darkstone",
    "top": "paradisemod:block/polished_darkstone"
  }
}