{
  "parent": "minecraft:block/outer_stairs",
  "textures": {
    "bottom": "paradisemod:block/polished_asphalt",
    "side": "paradisemod:block/polished_asphalt",
    "top": "paradisemod:block/polished_asphalt"
  }
}