{
  "parent": "minecraft:block/inner_stairs",
  "textures": {
    "bottom": "paradisemod:block/polished_tuff",
    "side": "paradisemod:block/polished_tuff",
    "top": "paradisemod:block/polished_tuff"
  }
}