{
  "parent": "minecraft:block/inner_stairs",
  "textures": {
    "bottom": "paradisemod:block/polished_asphalt_bricks",
    "side": "paradisemod:block/polished_asphalt_bricks",
    "top": "paradisemod:block/polished_asphalt_bricks"
  }
}