{
  "parent": "minecraft:block/stairs",
  "textures": {
    "bottom": "paradisemod:block/glowing_obsidian/silver",
    "side": "paradisemod:block/glowing_obsidian/silver",
    "top": "paradisemod:block/glowing_obsidian/silver"
  }
}