{
  "parent": "minecraft:block/inner_stairs",
  "textures": {
    "bottom": "paradisemod:block/blackened_sandstone_top",
    "side": "paradisemod:block/blackened_sandstone_top",
    "top": "paradisemod:block/blackened_sandstone_top"
  }
}