{
  "parent": "minecraft:block/inner_stairs",
  "textures": {
    "bottom": "paradisemod:block/glowing_obsidian/violet",
    "side": "paradisemod:block/glowing_obsidian/violet",
    "top": "paradisemod:block/glowing_obsidian/violet"
  }
}