{
  "type": "minecraft:ore",
  "config": {
    "discard_chance_on_air_exposure": 0.0,
    "size": 9,
    "targets": [
      {
        "state": {
          "Name": "paradisemod:darkstone_silver_ore"
        },
        "target": {
          "block": "paradisemod:darkstone",
          "predicate_type": "minecraft:block_match"
        }
      }
    ]
  }
}