{
  "values": [
    "paradisemod:white_antenna",
    "paradisemod:orange_antenna",
    "paradisemod:magenta_antenna",
    "paradisemod:light_blue_antenna",
    "paradisemod:yellow_antenna",
    "paradisemod:lime_antenna",
    "paradisemod:pink_antenna",
    "paradisemod:gray_antenna",
    "paradisemod:light_gray_antenna",
    "paradisemod:cyan_antenna",
    "paradisemod:purple_antenna",
    "paradisemod:blue_antenna",
    "paradisemod:brown_antenna",
    "paradisemod:green_antenna",
    "paradisemod:red_antenna",
    "paradisemod:black_antenna"
  ]
}