{
  "values": [
    "paradisemod:enderite_ingot",
    "paradisemod:ruby",
    "paradisemod:rusted_iron_ingot",
    "paradisemod:silver_ingot",
    "paradisemod:emerald_helmet",
    "paradisemod:emerald_chestplate",
    "paradisemod:emerald_leggings",
    "paradisemod:emerald_boots",
    "paradisemod:ruby_helmet",
    "paradisemod:ruby_chestplate",
    "paradisemod:ruby_leggings",
    "paradisemod:ruby_boots",
    "paradisemod:obsidian_helmet",
    "paradisemod:obsidian_chestplate",
    "paradisemod:obsidian_leggings",
    "paradisemod:obsidian_boots",
    "paradisemod:redstone_helmet",
    "paradisemod:redstone_chestplate",
    "paradisemod:redstone_leggings",
    "paradisemod:redstone_boots",
    "paradisemod:rusted_iron_helmet",
    "paradisemod:rusted_iron_chestplate",
    "paradisemod:rusted_iron_leggings",
    "paradisemod:rusted_iron_boots",
    "paradisemod:silver_helmet",
    "paradisemod:silver_chestplate",
    "paradisemod:silver_leggings",
    "paradisemod:silver_boots",
    "paradisemod:enderite_helmet",
    "paradisemod:enderite_chestplate",
    "paradisemod:enderite_leggings",
    "paradisemod:enderite_boots",
    "paradisemod:emerald_sword",
    "paradisemod:emerald_pickaxe",
    "paradisemod:emerald_axe",
    "paradisemod:emerald_shovel",
    "paradisemod:emerald_hoe",
    "paradisemod:ruby_sword",
    "paradisemod:ruby_pickaxe",
    "paradisemod:ruby_axe",
    "paradisemod:ruby_shovel",
    "paradisemod:ruby_hoe",
    "paradisemod:obsidian_sword",
    "paradisemod:obsidian_pickaxe",
    "paradisemod:obsidian_axe",
    "paradisemod:obsidian_shovel",
    "paradisemod:obsidian_hoe",
    "paradisemod:redstone_sword",
    "paradisemod:redstone_pickaxe",
    "paradisemod:redstone_axe",
    "paradisemod:redstone_shovel",
    "paradisemod:redstone_hoe",
    "paradisemod:rusted_iron_sword",
    "paradisemod:rusted_iron_pickaxe",
    "paradisemod:rusted_iron_axe",
    "paradisemod:rusted_iron_shovel",
    "paradisemod:rusted_iron_hoe",
    "paradisemod:silver_sword",
    "paradisemod:silver_pickaxe",
    "paradisemod:silver_axe",
    "paradisemod:silver_shovel",
    "paradisemod:silver_hoe",
    "paradisemod:enderite_sword",
    "paradisemod:enderite_pickaxe",
    "paradisemod:enderite_axe",
    "paradisemod:enderite_shovel",
    "paradisemod:enderite_hoe",
    "minecraft:obsidian",
    "minecraft:redstone",
    "minecraft:netherite_sword",
    "minecraft:netherite_pickaxe",
    "minecraft:netherite_axe",
    "minecraft:netherite_shovel",
    "minecraft:netherite_hoe",
    "minecraft:netherite_ingot",
    "minecraft:diamond_sword",
    "minecraft:diamond_pickaxe",
    "minecraft:diamond_axe",
    "minecraft:diamond_shovel",
    "minecraft:diamond_hoe",
    "minecraft:diamond",
    "minecraft:golden_sword",
    "minecraft:golden_pickaxe",
    "minecraft:golden_axe",
    "minecraft:golden_shovel",
    "minecraft:golden_hoe",
    "minecraft:gold_ingot",
    "minecraft:iron_sword",
    "minecraft:iron_pickaxe",
    "minecraft:iron_axe",
    "minecraft:iron_shovel",
    "minecraft:iron_hoe",
    "minecraft:iron_ingot",
    "minecraft:diamond_helmet",
    "minecraft:diamond_chestplate",
    "minecraft:diamond_leggings",
    "minecraft:diamond_boots",
    "minecraft:iron_helmet",
    "minecraft:iron_chestplate",
    "minecraft:iron_leggings",
    "minecraft:iron_boots",
    "minecraft:golden_helmet",
    "minecraft:golden_chestplate",
    "minecraft:golden_leggings",
    "minecraft:golden_boots",
    "minecraft:trident",
    "minecraft:heart_of_the_sea",
    "minecraft:conduit"
  ]
}