{
	"render_type":"cutout",
	"credit": "Made with Blockbench",
	"ambientocclusion": false,
	"texture_size": [18, 18],
	"textures": {
		"slab": "block/smooth_stone",
		"particle": "paradisemod:block/pulse_extender_repeater",
		"top": "paradisemod:block/pulse_extender_repeater",
		"lock": "block/bedrock"
	},
	"elements": [
		{
			"from": [0, 0, 0],
			"to": [16, 2, 16],
			"faces": {
				"north": {"uv": [0, 14, 16, 16], "texture": "#slab", "cullface": "north"},
				"east": {"uv": [0, 14, 16, 16], "texture": "#slab", "cullface": "east"},
				"south": {"uv": [0, 14, 16, 16], "texture": "#slab", "cullface": "south"},
				"west": {"uv": [0, 14, 16, 16], "texture": "#slab", "cullface": "west"},
				"up": {"uv": [0, 0, 14.22222, 14.22222], "texture": "#top"},
				"down": {"uv": [0, 0, 16, 16], "texture": "#slab", "cullface": "down"}
			}
		},
		{
			"from": [2, 2, 8],
			"to": [14, 4, 10],
			"faces": {
				"north": {"uv": [2, 7, 14, 9], "texture": "#lock"},
				"east": {"uv": [6, 7, 8, 9], "texture": "#lock"},
				"south": {"uv": [2, 7, 14, 9], "texture": "#lock"},
				"west": {"uv": [6, 7, 8, 9], "texture": "#lock"},
				"up": {"uv": [7, 2, 9, 14], "rotation": 90, "texture": "#lock"},
				"down": {"uv": [7, 2, 9, 14], "rotation": 90, "texture": "#lock"}
			}
		},
		{
			"from": [7, 2, 2],
			"to": [9, 7, 4],
			"faces": {
				"north": {"uv": [14.22222, 5.33333, 16, 10.66667], "texture": "#top"},
				"east": {"uv": [14.22222, 5.33333, 16, 10.66667], "texture": "#top"},
				"south": {"uv": [14.22222, 5.33333, 16, 10.66667], "texture": "#top"},
				"west": {"uv": [14.22222, 5.33333, 16, 10.66667], "texture": "#top"},
				"up": {"uv": [14.22222, 5.33333, 16, 7.11111], "texture": "#top"}
			}
		}
	]
}
