{
  "values": [
    "paradisemod:soul_pumpkin",
    "paradisemod:carved_soul_pumpkin",
    "paradisemod:soul_jack_o_lantern",
    "paradisemod:cactus_bookshelf",
    "paradisemod:bamboo_bookshelf",
    "paradisemod:palo_verde_bookshelf",
    "paradisemod:mesquite_bookshelf",
    "paradisemod:blackened_oak_bookshelf",
    "paradisemod:blackened_spruce_bookshelf",
    "paradisemod:glowing_oak_bookshelf",
    "paradisemod:glowing_cactus_bookshelf",
    "paradisemod:acacia_barrel",
    "paradisemod:birch_barrel",
    "paradisemod:cherry_barrel",
    "paradisemod:crimson_barrel",
    "paradisemod:dark_oak_barrel",
    "paradisemod:jungle_barrel",
    "paradisemod:mangrove_barrel",
    "paradisemod:spruce_barrel",
    "paradisemod:warped_barrel",
    "paradisemod:bamboo_barrel",
    "paradisemod:cactus_barrel",
    "paradisemod:palo_verde_barrel",
    "paradisemod:mesquite_barrel",
    "paradisemod:glowing_cactus_barrel",
    "paradisemod:blackened_oak_barrel",
    "paradisemod:blackened_spruce_barrel",
    "paradisemod:glowing_oak_barrel",
    "paradisemod:dummy1_chest",
    "paradisemod:trapped_dummy1_chest",
    "paradisemod:dummy2_chest",
    "paradisemod:trapped_dummy2_chest",
    "paradisemod:dummy3_chest",
    "paradisemod:trapped_dummy3_chest",
    "paradisemod:cactus_chest",
    "paradisemod:trapped_cactus_chest",
    "paradisemod:palo_verde_chest",
    "paradisemod:trapped_palo_verde_chest",
    "paradisemod:mesquite_chest",
    "paradisemod:trapped_mesquite_chest",
    "paradisemod:blackened_oak_chest",
    "paradisemod:trapped_blackened_oak_chest",
    "paradisemod:blackened_spruce_chest",
    "paradisemod:trapped_blackened_spruce_chest",
    "paradisemod:glowing_oak_chest",
    "paradisemod:trapped_glowing_oak_chest",
    "paradisemod:glowing_cactus_chest",
    "paradisemod:trapped_glowing_cactus_chest",
    "paradisemod:acacia_crafting_table",
    "paradisemod:birch_crafting_table",
    "paradisemod:cactus_crafting_table",
    "paradisemod:bamboo_crafting_table",
    "paradisemod:crimson_crafting_table",
    "paradisemod:dark_oak_crafting_table",
    "paradisemod:jungle_crafting_table",
    "paradisemod:palo_verde_crafting_table",
    "paradisemod:mesquite_crafting_table",
    "paradisemod:spruce_crafting_table",
    "paradisemod:warped_crafting_table",
    "paradisemod:cherry_crafting_table",
    "paradisemod:mangrove_crafting_table",
    "paradisemod:blackened_oak_crafting_table",
    "paradisemod:blackened_spruce_crafting_table",
    "paradisemod:glowing_oak_crafting_table",
    "paradisemod:glowing_cactus_crafting_table"
  ]
}