{
  "placement": {
    "type": "minecraft:random_spread",
    "salt": 255582930,
    "separation": 32,
    "spacing": 64
  },
  "structures": [
    {
      "structure": "paradisemod:brick_pyramid",
      "weight": 1
    }
  ]
}