{
  "placement": {
    "type": "minecraft:random_spread",
    "salt": 2082373326,
    "separation": 16,
    "spacing": 32
  },
  "structures": [
    {
      "structure": "paradisemod:conduit",
      "weight": 1
    }
  ]
}