{
  "placement": {
    "type": "minecraft:random_spread",
    "salt": 1040282652,
    "separation": 8,
    "spacing": 32
  },
  "structures": [
    {
      "structure": "paradisemod:large_dark_dungeon",
      "weight": 1
    },
    {
      "structure": "paradisemod:medium_dark_dungeon",
      "weight": 2
    },
    {
      "structure": "paradisemod:dark_tower",
      "weight": 3
    }
  ]
}