{
  "placement": {
    "type": "minecraft:random_spread",
    "salt": 1960239404,
    "separation": 8,
    "spacing": 16
  },
  "structures": [
    {
      "structure": "paradisemod:trader_tent",
      "weight": 1
    }
  ]
}