{
  "type": "minecraft:random_selector",
  "config": {
    "default": "paradisemod:tree/blackened_spruce",
    "features": [
      {
        "chance": 1.0,
        "feature": "paradisemod:tree/blackened_spruce"
      }
    ]
  }
}