{
  "type": "minecraft:random_selector",
  "config": {
    "default": "paradisemod:tree/mesquite",
    "features": [
      {
        "chance": 0.25,
        "feature": "paradisemod:tree/mesquite"
      },
      {
        "chance": 0.25,
        "feature": "minecraft:spruce_checked"
      },
      {
        "chance": 0.25,
        "feature": "minecraft:mega_spruce_checked"
      },
      {
        "chance": 0.25,
        "feature": "minecraft:mega_pine_checked"
      }
    ]
  }
}