{
  "type": "minecraft:huge_red_mushroom",
  "config": {
    "cap_provider": {
      "type": "minecraft:simple_state_provider",
      "state": {
        "Name": "paradisemod:glowshroom_block",
        "Properties": {
          "down": "false",
          "east": "true",
          "north": "true",
          "south": "true",
          "up": "true",
          "west": "true"
        }
      }
    },
    "foliage_radius": 2,
    "stem_provider": {
      "type": "minecraft:simple_state_provider",
      "state": {
        "Name": "paradisemod:glowshroom_stem",
        "Properties": {
          "down": "false",
          "east": "true",
          "north": "true",
          "south": "true",
          "up": "false",
          "west": "true"
        }
      }
    }
  }
}