{
  "type": "minecraft:random_selector",
  "config": {
    "default": "paradisemod:tree/glowing_oak",
    "features": [
      {
        "chance": 0.5,
        "feature": "paradisemod:tree/glowing_oak"
      },
      {
        "chance": 0.5,
        "feature": "paradisemod:tree/fancy_glowing_oak"
      },
      {
        "chance": 0.1,
        "feature": "paradisemod:tree/blackened_oak"
      },
      {
        "chance": 0.1,
        "feature": {
          "feature": "paradisemod:huge_glowshroom",
          "placement": []
        }
      },
      {
        "chance": 0.1,
        "feature": {
          "feature": "minecraft:huge_red_mushroom",
          "placement": []
        }
      },
      {
        "chance": 0.1,
        "feature": {
          "feature": "minecraft:huge_brown_mushroom",
          "placement": []
        }
      }
    ]
  }
}