{
  "type": "minecraft:ore",
  "config": {
    "discard_chance_on_air_exposure": 0.0,
    "size": 33,
    "targets": [
      {
        "state": {
          "Name": "minecraft:tuff"
        },
        "target": {
          "block": "minecraft:deepslate",
          "predicate_type": "minecraft:block_match"
        }
      }
    ]
  }
}