{
  "variants": {
    "facing=east": {
      "model": "paradisemod:block/attached_soul_pumpkin_stem",
      "y": 90
    },
    "facing=north": {
      "model": "paradisemod:block/attached_soul_pumpkin_stem"
    },
    "facing=south": {
      "model": "paradisemod:block/attached_soul_pumpkin_stem",
      "y": 180
    },
    "facing=west": {
      "model": "paradisemod:block/attached_soul_pumpkin_stem",
      "y": 270
    }
  }
}