{
  "variants": {
    "axis=x": {
      "model": "paradisemod:block/blackened_oak_log_horizontal",
      "x": 90,
      "y": 90
    },
    "axis=y": {
      "model": "paradisemod:block/blackened_oak_log"
    },
    "axis=z": {
      "model": "paradisemod:block/blackened_oak_log_horizontal",
      "x": 90
    }
  }
}