{
  "variants": {
    "powered=false": {
      "model": "paradisemod:block/plate/blackened_sandstone"
    },
    "powered=true": {
      "model": "paradisemod:block/plate/blackened_sandstone_down"
    }
  }
}