{
  "variants": {
    "type=bottom": {
      "model": "paradisemod:block/slab/copper_glowing_obsidian"
    },
    "type=double": {
      "model": "paradisemod:block/glowing_obsidian/copper"
    },
    "type=top": {
      "model": "paradisemod:block/slab/copper_glowing_obsidian_top"
    }
  }
}