{
  "multipart": [
    {
      "apply": {
        "model": "paradisemod:block/tinted_blastproof_glass_pane/cyan_post"
      }
    },
    {
      "apply": {
        "model": "paradisemod:block/tinted_blastproof_glass_pane/cyan_side"
      },
      "when": {
        "north": "true"
      }
    },
    {
      "apply": {
        "model": "paradisemod:block/tinted_blastproof_glass_pane/cyan_noside"
      },
      "when": {
        "north": "false"
      }
    },
    {
      "apply": {
        "model": "paradisemod:block/tinted_blastproof_glass_pane/cyan_side_alt"
      },
      "when": {
        "south": "true"
      }
    },
    {
      "apply": {
        "model": "paradisemod:block/tinted_blastproof_glass_pane/cyan_noside_alt",
        "y": 90
      },
      "when": {
        "south": "false"
      }
    },
    {
      "apply": {
        "model": "paradisemod:block/tinted_blastproof_glass_pane/cyan_side_alt",
        "y": 90
      },
      "when": {
        "west": "true"
      }
    },
    {
      "apply": {
        "model": "paradisemod:block/tinted_blastproof_glass_pane/cyan_noside",
        "y": 270
      },
      "when": {
        "west": "false"
      }
    },
    {
      "apply": {
        "model": "paradisemod:block/tinted_blastproof_glass_pane/cyan_side",
        "y": 90
      },
      "when": {
        "east": "true"
      }
    },
    {
      "apply": {
        "model": "paradisemod:block/tinted_blastproof_glass_pane/cyan_noside_alt"
      },
      "when": {
        "east": "false"
      }
    }
  ]
}