{
  "variants": {
    "type=bottom": {
      "model": "paradisemod:block/slab/glowing_oak"
    },
    "type=double": {
      "model": "paradisemod:block/glowing_oak_planks"
    },
    "type=top": {
      "model": "paradisemod:block/slab/glowing_oak_top"
    }
  }
}