{
  "variants": {
    "type=bottom": {
      "model": "paradisemod:block/slab/glowing_cactus"
    },
    "type=double": {
      "model": "paradisemod:block/glowing_cactus_block"
    },
    "type=top": {
      "model": "paradisemod:block/slab/glowing_cactus_top"
    }
  }
}