{
  "variants": {
    "facing=east,powered=false,receiver=false": {
      "model": "paradisemod:block/transmitter/gray",
      "y": 90
    },
    "facing=east,powered=false,receiver=true": {
      "model": "paradisemod:block/transmitter/gray_receiver",
      "y": 90
    },
    "facing=east,powered=true,receiver=false": {
      "model": "paradisemod:block/transmitter/gray_on",
      "y": 90
    },
    "facing=east,powered=true,receiver=true": {
      "model": "paradisemod:block/transmitter/gray_receiver_on",
      "y": 90
    },
    "facing=north,powered=false,receiver=false": {
      "model": "paradisemod:block/transmitter/gray"
    },
    "facing=north,powered=false,receiver=true": {
      "model": "paradisemod:block/transmitter/gray_receiver"
    },
    "facing=north,powered=true,receiver=false": {
      "model": "paradisemod:block/transmitter/gray_on"
    },
    "facing=north,powered=true,receiver=true": {
      "model": "paradisemod:block/transmitter/gray_receiver_on"
    },
    "facing=south,powered=false,receiver=false": {
      "model": "paradisemod:block/transmitter/gray",
      "y": 180
    },
    "facing=south,powered=false,receiver=true": {
      "model": "paradisemod:block/transmitter/gray_receiver",
      "y": 180
    },
    "facing=south,powered=true,receiver=false": {
      "model": "paradisemod:block/transmitter/gray_on",
      "y": 180
    },
    "facing=south,powered=true,receiver=true": {
      "model": "paradisemod:block/transmitter/gray_receiver_on",
      "y": 180
    },
    "facing=west,powered=false,receiver=false": {
      "model": "paradisemod:block/transmitter/gray",
      "y": 270
    },
    "facing=west,powered=false,receiver=true": {
      "model": "paradisemod:block/transmitter/gray_receiver",
      "y": 270
    },
    "facing=west,powered=true,receiver=false": {
      "model": "paradisemod:block/transmitter/gray_on",
      "y": 270
    },
    "facing=west,powered=true,receiver=true": {
      "model": "paradisemod:block/transmitter/gray_receiver_on",
      "y": 270
    }
  }
}