{
  "variants": {
    "powered=false": {
      "model": "paradisemod:block/plate/iron_glowing_obsidian"
    },
    "powered=true": {
      "model": "paradisemod:block/plate/iron_glowing_obsidian_down"
    }
  }
}