{
  "variants": {
    "inverted=false,size=large": {
      "model": "paradisemod:block/large_formation/tuff_large"
    },
    "inverted=false,size=medium": {
      "model": "paradisemod:block/large_formation/tuff_medium"
    },
    "inverted=false,size=small": {
      "model": "paradisemod:block/large_formation/tuff_small"
    },
    "inverted=true,size=large": {
      "model": "paradisemod:block/large_formation/tuff_large"
    },
    "inverted=true,size=medium": {
      "model": "paradisemod:block/large_formation/tuff_medium"
    },
    "inverted=true,size=small": {
      "model": "paradisemod:block/large_formation/tuff_small"
    }
  }
}