{
  "variants": {
    "facing=east,powered=false,receiver=false": {
      "model": "paradisemod:block/transmitter/light_blue",
      "y": 90
    },
    "facing=east,powered=false,receiver=true": {
      "model": "paradisemod:block/transmitter/light_blue_receiver",
      "y": 90
    },
    "facing=east,powered=true,receiver=false": {
      "model": "paradisemod:block/transmitter/light_blue_on",
      "y": 90
    },
    "facing=east,powered=true,receiver=true": {
      "model": "paradisemod:block/transmitter/light_blue_receiver_on",
      "y": 90
    },
    "facing=north,powered=false,receiver=false": {
      "model": "paradisemod:block/transmitter/light_blue"
    },
    "facing=north,powered=false,receiver=true": {
      "model": "paradisemod:block/transmitter/light_blue_receiver"
    },
    "facing=north,powered=true,receiver=false": {
      "model": "paradisemod:block/transmitter/light_blue_on"
    },
    "facing=north,powered=true,receiver=true": {
      "model": "paradisemod:block/transmitter/light_blue_receiver_on"
    },
    "facing=south,powered=false,receiver=false": {
      "model": "paradisemod:block/transmitter/light_blue",
      "y": 180
    },
    "facing=south,powered=false,receiver=true": {
      "model": "paradisemod:block/transmitter/light_blue_receiver",
      "y": 180
    },
    "facing=south,powered=true,receiver=false": {
      "model": "paradisemod:block/transmitter/light_blue_on",
      "y": 180
    },
    "facing=south,powered=true,receiver=true": {
      "model": "paradisemod:block/transmitter/light_blue_receiver_on",
      "y": 180
    },
    "facing=west,powered=false,receiver=false": {
      "model": "paradisemod:block/transmitter/light_blue",
      "y": 270
    },
    "facing=west,powered=false,receiver=true": {
      "model": "paradisemod:block/transmitter/light_blue_receiver",
      "y": 270
    },
    "facing=west,powered=true,receiver=false": {
      "model": "paradisemod:block/transmitter/light_blue_on",
      "y": 270
    },
    "facing=west,powered=true,receiver=true": {
      "model": "paradisemod:block/transmitter/light_blue_receiver_on",
      "y": 270
    }
  }
}