{
  "variants": {
    "powered=false": {
      "model": "paradisemod:block/plate/mossy_cobblestone"
    },
    "powered=true": {
      "model": "paradisemod:block/plate/mossy_cobblestone_down"
    }
  }
}