{
  "variants": {
    "type=bottom": {
      "model": "paradisemod:block/slab/obsidian"
    },
    "type=double": {
      "model": "minecraft:block/obsidian"
    },
    "type=top": {
      "model": "paradisemod:block/slab/obsidian_top"
    }
  }
}