{
  "variants": {
    "type=bottom": {
      "model": "paradisemod:block/slab/orange_glowing_obsidian"
    },
    "type=double": {
      "model": "paradisemod:block/glowing_obsidian/orange"
    },
    "type=top": {
      "model": "paradisemod:block/slab/orange_glowing_obsidian_top"
    }
  }
}