{
  "variants": {
    "type=bottom": {
      "model": "paradisemod:block/slab/polished_dripstone_bricks"
    },
    "type=double": {
      "model": "paradisemod:block/polished_dripstone_bricks"
    },
    "type=top": {
      "model": "paradisemod:block/slab/polished_dripstone_bricks_top"
    }
  }
}