{
  "variants": {
    "type=bottom": {
      "model": "paradisemod:block/slab/polished_tuff"
    },
    "type=double": {
      "model": "paradisemod:block/polished_tuff"
    },
    "type=top": {
      "model": "paradisemod:block/slab/polished_tuff_top"
    }
  }
}