{
  "variants": {
    "type=bottom": {
      "model": "paradisemod:block/slab/polished_asphalt"
    },
    "type=double": {
      "model": "paradisemod:block/polished_asphalt"
    },
    "type=top": {
      "model": "paradisemod:block/slab/polished_asphalt_top"
    }
  }
}