{
  "variants": {
    "powered=false": {
      "model": "paradisemod:block/plate/polished_dripstone"
    },
    "powered=true": {
      "model": "paradisemod:block/plate/polished_dripstone_down"
    }
  }
}