{
  "variants": {
    "age=0": {
      "model": "paradisemod:block/soul_pumpkin_stem0"
    },
    "age=1": {
      "model": "paradisemod:block/soul_pumpkin_stem1"
    },
    "age=2": {
      "model": "paradisemod:block/soul_pumpkin_stem2"
    },
    "age=3": {
      "model": "paradisemod:block/soul_pumpkin_stem3"
    },
    "age=4": {
      "model": "paradisemod:block/soul_pumpkin_stem4"
    },
    "age=5": {
      "model": "paradisemod:block/soul_pumpkin_stem5"
    },
    "age=6": {
      "model": "paradisemod:block/soul_pumpkin_stem6"
    },
    "age=7": {
      "model": "paradisemod:block/soul_pumpkin_stem7"
    }
  }
}