{
  "variants": {
    "facing=east,half=bottom,open=false": {
      "model": "paradisemod:block/trapdoor/stone_bottom",
      "y": 90
    },
    "facing=east,half=bottom,open=true": {
      "model": "paradisemod:block/trapdoor/stone_open",
      "y": 90
    },
    "facing=east,half=top,open=false": {
      "model": "paradisemod:block/trapdoor/stone_top",
      "y": 90
    },
    "facing=east,half=top,open=true": {
      "model": "paradisemod:block/trapdoor/stone_open",
      "x": 180,
      "y": 270
    },
    "facing=north,half=bottom,open=false": {
      "model": "paradisemod:block/trapdoor/stone_bottom"
    },
    "facing=north,half=bottom,open=true": {
      "model": "paradisemod:block/trapdoor/stone_open"
    },
    "facing=north,half=top,open=false": {
      "model": "paradisemod:block/trapdoor/stone_top"
    },
    "facing=north,half=top,open=true": {
      "model": "paradisemod:block/trapdoor/stone_open",
      "x": 180,
      "y": 180
    },
    "facing=south,half=bottom,open=false": {
      "model": "paradisemod:block/trapdoor/stone_bottom",
      "y": 180
    },
    "facing=south,half=bottom,open=true": {
      "model": "paradisemod:block/trapdoor/stone_open",
      "y": 180
    },
    "facing=south,half=top,open=false": {
      "model": "paradisemod:block/trapdoor/stone_top",
      "y": 180
    },
    "facing=south,half=top,open=true": {
      "model": "paradisemod:block/trapdoor/stone_open",
      "x": 180
    },
    "facing=west,half=bottom,open=false": {
      "model": "paradisemod:block/trapdoor/stone_bottom",
      "y": 270
    },
    "facing=west,half=bottom,open=true": {
      "model": "paradisemod:block/trapdoor/stone_open",
      "y": 270
    },
    "facing=west,half=top,open=false": {
      "model": "paradisemod:block/trapdoor/stone_top",
      "y": 270
    },
    "facing=west,half=top,open=true": {
      "model": "paradisemod:block/trapdoor/stone_open",
      "x": 180,
      "y": 90
    }
  }
}