{
  "variants": {
    "axis=x": {
      "model": "paradisemod:block/stripped_palo_verde_wood",
      "x": 90,
      "y": 90
    },
    "axis=y": {
      "model": "paradisemod:block/stripped_palo_verde_wood"
    },
    "axis=z": {
      "model": "paradisemod:block/stripped_palo_verde_wood",
      "x": 90
    }
  }
}