{
  "variants": {
    "axis=x": {
      "model": "paradisemod:block/mesquite_log_horizontal",
      "x": 90,
      "y": 90
    },
    "axis=y": {
      "model": "paradisemod:block/stripped_mesquite_log"
    },
    "axis=z": {
      "model": "paradisemod:block/mesquite_log_horizontal",
      "x": 90
    }
  }
}