{
  "variants": {
    "type=bottom": {
      "model": "paradisemod:block/slab/tuff"
    },
    "type=double": {
      "model": "minecraft:block/tuff"
    },
    "type=top": {
      "model": "paradisemod:block/slab/tuff_top"
    }
  }
}