{
	"credit": "Made with Blockbench",
	"textures": {
		"particle": "paradisemod:block/trapdoor/cactus"
	},
	"elements": [
		{
			"from": [13, 0, 9],
			"to": [16, 3, 16],
			"rotation": {"angle": 0, "axis": "y", "origin": [8, 2, 7]},
			"faces": {
				"east": {"uv": [0, 0, 7, 3], "texture": "#particle"},
				"south": {"uv": [13, 0, 16, 3], "texture": "#particle"},
				"west": {"uv": [9, 0, 16, 3], "texture": "#particle"},
				"up": {"uv": [0, 0, 3, 7], "rotation": 180, "texture": "#particle"},
				"down": {"uv": [0, 7, 3, 0], "rotation": 180, "texture": "#particle"}
			}
		},
		{
			"from": [0, 0, 9],
			"to": [3, 3, 16],
			"rotation": {"angle": 0, "axis": "y", "origin": [8, 1.5, 7.20588]},
			"faces": {
				"east": {"uv": [0, 0, 7, 3], "texture": "#particle"},
				"south": {"uv": [0, 0, 3, 3], "texture": "#particle"},
				"west": {"uv": [9, 0, 16, 3], "texture": "#particle"},
				"up": {"uv": [13, 0, 16, 7], "rotation": 180, "texture": "#particle"},
				"down": {"uv": [13, 7, 16, 0], "rotation": 180, "texture": "#particle"}
			}
		},
		{
			"from": [12, 0, 0],
			"to": [16, 3, 9],
			"rotation": {"angle": 0, "axis": "y", "origin": [8, 1.5, 7.20588]},
			"faces": {
				"north": {"uv": [0, 0, 4, 3], "texture": "#particle"},
				"east": {"uv": [7, 0, 16, 3], "texture": "#particle"},
				"south": {"uv": [12, 1, 16, 4], "texture": "#particle"},
				"west": {"uv": [0, 0, 9, 3], "texture": "#particle"},
				"up": {"uv": [0, 7, 4, 16], "rotation": 180, "texture": "#particle"},
				"down": {"uv": [0, 16, 4, 7], "rotation": 180, "texture": "#particle"}
			}
		},
		{
			"from": [0, 0, 0],
			"to": [4, 3, 9],
			"rotation": {"angle": 0, "axis": "y", "origin": [8, 1.5, 7.20588]},
			"faces": {
				"north": {"uv": [12, 0, 16, 3], "texture": "#particle"},
				"east": {"uv": [7, 0, 16, 3], "texture": "#particle"},
				"south": {"uv": [1, 1, 5, 4], "texture": "#particle"},
				"west": {"uv": [0, 0, 9, 3], "texture": "#particle"},
				"up": {"uv": [12, 7, 16, 16], "rotation": 180, "texture": "#particle"},
				"down": {"uv": [12, 16, 16, 7], "rotation": 180, "texture": "#particle"}
			}
		},
		{
			"from": [4, 0, 0],
			"to": [12, 3, 4],
			"rotation": {"angle": 0, "axis": "y", "origin": [8, 1.5, 7.20588]},
			"faces": {
				"north": {"uv": [4, 0, 12, 3], "texture": "#particle"},
				"south": {"uv": [4, 0, 12, 3], "texture": "#particle"},
				"up": {"uv": [4, 12, 12, 16], "rotation": 180, "texture": "#particle"},
				"down": {"uv": [4, 16, 12, 12], "rotation": 180, "texture": "#particle"}
			}
		},
		{
			"from": [3, 0, 13],
			"to": [13, 3, 16],
			"rotation": {"angle": 0, "axis": "y", "origin": [8, 1.5, 7.20588]},
			"faces": {
				"north": {"uv": [3, 0, 13, 3], "texture": "#particle"},
				"south": {"uv": [3, 0, 13, 3], "texture": "#particle"},
				"up": {"uv": [3, 0, 13, 3], "rotation": 180, "texture": "#particle"},
				"down": {"uv": [3, 3, 13, 0], "rotation": 180, "texture": "#particle"}
			}
		},
		{
			"from": [12, 0, 11],
			"to": [13, 3, 13],
			"rotation": {"angle": 0, "axis": "y", "origin": [8, 1.5, 7.20588]},
			"faces": {
				"north": {"uv": [0, 0, 1, 3], "texture": "#particle"},
				"west": {"uv": [1, 0, 3, 3], "texture": "#particle"},
				"up": {"uv": [3, 3, 4, 5], "rotation": 180, "texture": "#particle"},
				"down": {"uv": [3, 5, 4, 3], "rotation": 180, "texture": "#particle"}
			}
		},
		{
			"from": [11, 0, 12],
			"to": [12, 3, 13],
			"rotation": {"angle": 0, "axis": "y", "origin": [8, 1.5, 7.20588]},
			"faces": {
				"north": {"uv": [0, 0, 1, 3], "texture": "#particle"},
				"west": {"uv": [1, 0, 2, 3], "texture": "#particle"},
				"up": {"uv": [4, 3, 5, 4], "rotation": 180, "texture": "#particle"},
				"down": {"uv": [4, 3, 5, 4], "rotation": 180, "texture": "#particle"}
			}
		},
		{
			"from": [4, 2, 7],
			"to": [12, 3, 9],
			"rotation": {"angle": 0, "axis": "y", "origin": [8, 1.5, 7.20588]},
			"faces": {
				"north": {"uv": [14, 8, 15, 16], "rotation": 90, "texture": "#particle"},
				"south": {"uv": [1, 7, 2, 15], "rotation": 90, "texture": "#particle"},
				"up": {"uv": [4, 7, 12, 9], "rotation": 180, "texture": "#particle"},
				"down": {"uv": [4, 9, 12, 7], "rotation": 180, "texture": "#particle"}
			}
		},
		{
			"from": [3, 0, 11],
			"to": [4, 3, 13],
			"rotation": {"angle": 0, "axis": "y", "origin": [8, 1.5, 7.20588]},
			"faces": {
				"north": {"uv": [0, 0, 1, 3], "texture": "#particle"},
				"east": {"uv": [0, 0, 2, 3], "texture": "#particle"},
				"up": {"uv": [12, 3, 13, 5], "rotation": 180, "texture": "#particle"},
				"down": {"uv": [12, 5, 13, 3], "rotation": 180, "texture": "#particle"}
			}
		},
		{
			"from": [4, 0, 12],
			"to": [5, 3, 13],
			"rotation": {"angle": 0, "axis": "y", "origin": [8, 1.5, 7.20588]},
			"faces": {
				"north": {"uv": [2, 0, 3, 3], "texture": "#particle"},
				"east": {"uv": [1, 0, 2, 3], "texture": "#particle"},
				"up": {"uv": [11, 3, 12, 4], "rotation": 180, "texture": "#particle"},
				"down": {"uv": [11, 3, 12, 4], "rotation": 180, "texture": "#particle"}
			}
		},
		{
			"from": [9, 2, 9],
			"to": [10, 3, 13],
			"rotation": {"angle": 0, "axis": "y", "origin": [8, 1.5, 7.20588]},
			"faces": {
				"east": {"uv": [11, 1, 15, 2], "texture": "#particle"},
				"west": {"uv": [11, 1, 15, 2], "texture": "#particle"},
				"up": {"uv": [6, 3, 7, 7], "rotation": 180, "texture": "#particle"},
				"down": {"uv": [6, 7, 7, 3], "rotation": 180, "texture": "#particle"}
			}
		},
		{
			"from": [6, 2, 9],
			"to": [7, 3, 13],
			"rotation": {"angle": 0, "axis": "y", "origin": [8, 1.5, 7.20588]},
			"faces": {
				"east": {"uv": [1, 1, 5, 2], "texture": "#particle"},
				"west": {"uv": [1, 1, 5, 2], "texture": "#particle"},
				"up": {"uv": [9, 3, 10, 7], "rotation": 180, "texture": "#particle"},
				"down": {"uv": [9, 7, 10, 3], "rotation": 180, "texture": "#particle"}
			}
		},
		{
			"from": [9, 2, 4],
			"to": [10, 3, 7],
			"rotation": {"angle": 0, "axis": "y", "origin": [8, 1.5, 7.20588]},
			"faces": {
				"east": {"uv": [1, 1, 4, 2], "texture": "#particle"},
				"west": {"uv": [1, 1, 4, 2], "texture": "#particle"},
				"up": {"uv": [0, 0, 1, 3], "rotation": 180, "texture": "#particle"},
				"down": {"uv": [6, 12, 7, 9], "rotation": 180, "texture": "#particle"}
			}
		},
		{
			"from": [6, 2, 4],
			"to": [7, 3, 7],
			"rotation": {"angle": 0, "axis": "y", "origin": [8, 1.5, 7.20588]},
			"faces": {
				"east": {"uv": [1, 1, 4, 2], "texture": "#particle"},
				"west": {"uv": [1, 1, 4, 2], "texture": "#particle"},
				"up": {"uv": [0, 0, 1, 3], "rotation": 180, "texture": "#particle"},
				"down": {"uv": [9, 12, 10, 9], "rotation": 180, "texture": "#particle"}
			}
		},
		{
			"from": [11, 0, 4],
			"to": [12, 3, 5],
			"rotation": {"angle": 0, "axis": "y", "origin": [8, 1.5, 6.5]},
			"faces": {
				"south": {"uv": [15, 0, 16, 3], "texture": "#particle"},
				"west": {"uv": [14, 0, 15, 3], "texture": "#particle"},
				"up": {"uv": [4, 11, 5, 12], "rotation": 180, "texture": "#particle"},
				"down": {"uv": [4, 11, 5, 12], "rotation": 180, "texture": "#particle"}
			}
		},
		{
			"from": [4, 0, 4],
			"to": [5, 3, 5],
			"rotation": {"angle": 0, "axis": "y", "origin": [8, 1.5, 6.5]},
			"faces": {
				"east": {"uv": [1, 0, 2, 3], "texture": "#particle"},
				"south": {"uv": [0, 0, 1, 3], "texture": "#particle"},
				"up": {"uv": [11, 11, 12, 12], "rotation": 180, "texture": "#particle"},
				"down": {"uv": [11, 11, 12, 12], "rotation": 180, "texture": "#particle"}
			}
		}
	],
	"display": {
		"thirdperson_righthand": {
			"rotation": [75, 45, 0],
			"translation": [0, 2.5, 0],
			"scale": [0.375, 0.375, 0.375]
		},
		"thirdperson_lefthand": {
			"rotation": [75, 45, 0],
			"translation": [0, 2.5, 0],
			"scale": [0.375, 0.375, 0.375]
		},
		"firstperson_righthand": {
			"rotation": [0, 45, 0],
			"scale": [0.4, 0.4, 0.4]
		},
		"firstperson_lefthand": {
			"rotation": [0, 225, 0],
			"scale": [0.4, 0.4, 0.4]
		},
		"ground": {
			"translation": [0, 3, 0],
			"scale": [0.25, 0.25, 0.25]
		},
		"gui": {
			"rotation": [30, 225, 0],
			"scale": [0.625, 0.625, 0.625]
		},
		"fixed": {
			"scale": [0.5, 0.5, 0.5]
		}
	},
	"groups": [
		{
			"name": "group",
			"origin": [8, 1.5, 6.5],
			"children": [0, 1, 2, 3, 4, 5, 6, 7, 8, 9, 10, 11, 12, 13, 14, 15, 16]
		}
	]
}
