{
  "values": [
    "paradisemod:acacia_barrel",
    "paradisemod:birch_barrel",
    "paradisemod:cherry_barrel",
    "paradisemod:crimson_barrel",
    "paradisemod:dark_oak_barrel",
    "paradisemod:jungle_barrel",
    "paradisemod:mangrove_barrel",
    "paradisemod:spruce_barrel",
    "paradisemod:warped_barrel",
    "paradisemod:bamboo_barrel",
    "paradisemod:cactus_barrel",
    "paradisemod:palo_verde_barrel",
    "paradisemod:mesquite_barrel",
    "paradisemod:glowing_cactus_barrel",
    "paradisemod:blackened_oak_barrel",
    "paradisemod:blackened_spruce_barrel",
    "paradisemod:glowing_oak_barrel"
  ]
}