{
  "type": "minecraft:chest",
  "pools": [
    {
      "bonus_rolls": {
        "type": "minecraft:uniform",
        "max": 6.0,
        "min": 0.0
      },
      "entries": [
        {
          "type": "minecraft:item",
          "name": "minecraft:wooden_pickaxe",
          "weight": 5
        },
        {
          "type": "minecraft:item",
          "name": "minecraft:wooden_shovel",
          "weight": 5
        },
        {
          "type": "minecraft:item",
          "name": "minecraft:wooden_axe",
          "weight": 5
        },
        {
          "type": "minecraft:item",
          "name": "minecraft:wooden_hoe",
          "weight": 5
        },
        {
          "type": "minecraft:item",
          "name": "minecraft:wooden_sword",
          "weight": 5
        },
        {
          "type": "minecraft:item",
          "name": "minecraft:apple",
          "weight": 5
        },
        {
          "type": "minecraft:item",
          "name": "minecraft:wheat",
          "weight": 5
        },
        {
          "type": "minecraft:item",
          "name": "minecraft:cod",
          "weight": 5
        },
        {
          "type": "minecraft:item",
          "name": "minecraft:salmon",
          "weight": 5
        },
        {
          "type": "minecraft:item",
          "name": "minecraft:beef",
          "weight": 5
        },
        {
          "type": "minecraft:item",
          "name": "minecraft:chicken",
          "weight": 5
        },
        {
          "type": "minecraft:item",
          "name": "minecraft:porkchop",
          "weight": 5
        },
        {
          "type": "minecraft:item",
          "name": "minecraft:rabbit",
          "weight": 5
        },
        {
          "type": "minecraft:item",
          "name": "minecraft:mutton",
          "weight": 5
        },
        {
          "type": "minecraft:item",
          "name": "minecraft:oak_planks",
          "weight": 5
        },
        {
          "type": "minecraft:item",
          "name": "minecraft:oak_sapling",
          "weight": 5
        },
        {
          "type": "minecraft:item",
          "name": "minecraft:cobblestone",
          "weight": 6
        },
        {
          "type": "minecraft:item",
          "name": "minecraft:sand",
          "weight": 6
        },
        {
          "type": "minecraft:item",
          "name": "minecraft:dirt",
          "weight": 6
        },
        {
          "type": "minecraft:item",
          "name": "minecraft:stick",
          "weight": 5
        },
        {
          "type": "minecraft:item",
          "name": "minecraft:oak_door",
          "weight": 5
        },
        {
          "type": "minecraft:item",
          "name": "minecraft:birch_door",
          "weight": 5
        },
        {
          "type": "minecraft:item",
          "name": "minecraft:acacia_door",
          "weight": 5
        },
        {
          "type": "minecraft:item",
          "name": "minecraft:spruce_door",
          "weight": 5
        },
        {
          "type": "minecraft:item",
          "name": "minecraft:jungle_door",
          "weight": 5
        },
        {
          "type": "minecraft:item",
          "name": "minecraft:dark_oak_door",
          "weight": 5
        },
        {
          "type": "minecraft:item",
          "name": "paradisemod:cactus_door",
          "weight": 5
        },
        {
          "type": "minecraft:item",
          "name": "paradisemod:palo_verde_door",
          "weight": 5
        },
        {
          "type": "minecraft:item",
          "name": "paradisemod:mesquite_door",
          "weight": 5
        },
        {
          "type": "minecraft:item",
          "name": "minecraft:bamboo_door",
          "weight": 5
        }
      ],
      "name": "starter_chest",
      "rolls": {
        "type": "minecraft:uniform",
        "max": 10.0,
        "min": 1.0
      }
    }
  ],
  "random_sequence": "paradisemod:chests/starter_chest"
}