{
  "type": "minecraft:block",
  "pools": [
    {
      "bonus_rolls": 0.0,
      "conditions": [
        {
          "condition": "minecraft:survives_explosion"
        }
      ],
      "entries": [
        {
          "type": "minecraft:item",
          "name": "paradisemod:bedrock_trapdoor"
        }
      ],
      "rolls": 1.0
    }
  ],
  "random_sequence": "paradisemod:blocks/bedrock_trapdoor"
}