{
  "type": "minecraft:block",
  "pools": [
    {
      "bonus_rolls": 0.0,
      "conditions": [
        {
          "condition": "minecraft:survives_explosion"
        }
      ],
      "entries": [
        {
          "type": "minecraft:item",
          "conditions": [
            {
              "block": "paradisemod:copper_glowing_obsidian_door",
              "condition": "minecraft:block_state_property",
              "properties": {
                "half": "lower"
              }
            }
          ],
          "name": "paradisemod:copper_glowing_obsidian_door"
        }
      ],
      "rolls": 1.0
    }
  ],
  "random_sequence": "paradisemod:blocks/copper_glowing_obsidian_door"
}