{
  "parent": "minecraft:block/template_glass_pane_side",
  "render_type": "minecraft:translucent",
  "textures": {
    "edge": "paradisemod:block/blastproof_glass",
    "pane": "paradisemod:block/blastproof_glass"
  }
}