{
  "parent": "minecraft:block/orientable",
  "textures": {
    "front": "paradisemod:block/carved_soul_pumpkin",
    "side": "paradisemod:block/soul_pumpkin_side",
    "top": "paradisemod:block/soul_pumpkin_top"
  }
}