{
  "parent": "minecraft:block/cube_bottom_top",
  "textures": {
    "bottom": "paradisemod:block/darkstone",
    "side": "paradisemod:block/overgrown_darkstone_side",
    "top": "paradisemod:block/overgrown_darkstone_top"
  }
}