{
  "parent": "minecraft:block/template_cauldron_full",
  "textures": {
    "bottom": "minecraft:block/cauldron_bottom",
    "content": "paradisemod:block/fluid/lava_like",
    "inside": "minecraft:block/cauldron_inner",
    "particle": "minecraft:block/cauldron_side",
    "side": "minecraft:block/cauldron_side",
    "top": "minecraft:block/cauldron_top"
  }
}