{
  "parent": "minecraft:block/cube_bottom_top",
  "render_type": "minecraft:cutout",
  "textures": {
    "bottom": "paradisemod:block/darkstone",
    "side": "paradisemod:block/snowy_overgrown_darkstone_side",
    "top": "minecraft:block/grass_block_top"
  }
}