{
  "parent": "minecraft:block/cube_bottom_top",
  "textures": {
    "bottom": "paradisemod:block/soul_pumpkin_top",
    "side": "paradisemod:block/soul_pumpkin_side",
    "top": "paradisemod:block/soul_pumpkin_top"
  }
}