{
	"credit": "Made with Blockbench",
	"ambientocclusion": false,
	"textures": {
		"1": "block/acacia_door_bottom",
		"particle": "#1"
	},
	"elements": [
		{
			"from": [0, 0, 0],
			"to": [3, 3, 16],
			"faces": {
				"north": {"uv": [3, 13, 0, 16], "texture": "#1"},
				"east": {"uv": [0, 13, 16, 16], "texture": "#1"},
				"south": {"uv": [0, 13, 3, 16], "texture": "#1"},
				"west": {"uv": [16, 13, 0, 16], "texture": "#1"},
				"up": {"uv": [16, 0, 13, 16], "texture": "#1"},
				"down": {"uv": [13, 0, 16, 16], "texture": "#1"}
			}
		},
		{
			"from": [0, 15, 0],
			"to": [3, 16, 16],
			"faces": {
				"north": {"uv": [3, 0, 0, 1], "texture": "#1"},
				"east": {"uv": [0, 0, 16, 1], "texture": "#1"},
				"south": {"uv": [0, 0, 3, 1], "texture": "#1"},
				"west": {"uv": [16, 0, 0, 1], "texture": "#1"},
				"down": {"uv": [13, 0, 16, 16], "texture": "#1"}
			}
		},
		{
			"from": [0, 3, 0],
			"to": [3, 15, 3],
			"faces": {
				"north": {"uv": [3, 1, 0, 13], "texture": "#1"},
				"east": {"uv": [13, 1, 16, 13], "texture": "#1"},
				"south": {"uv": [13, 1, 16, 13], "rotation": 180, "texture": "#1"},
				"west": {"uv": [16, 1, 13, 13], "texture": "#1"}
			}
		},
		{
			"from": [0, 3, 13],
			"to": [3, 15, 16],
			"faces": {
				"north": {"uv": [13, 1, 16, 13], "rotation": 180, "texture": "#1"},
				"east": {"uv": [0, 1, 3, 13], "texture": "#1"},
				"south": {"uv": [0, 1, 3, 13], "texture": "#1"},
				"west": {"uv": [3, 1, 0, 13], "texture": "#1"}
			}
		},
		{
			"from": [0, 3, 5],
			"to": [3, 15, 7],
			"faces": {
				"north": {"uv": [13, 1, 16, 13], "rotation": 180, "texture": "#1"},
				"east": {"uv": [9, 1, 11, 13], "texture": "#1"},
				"south": {"uv": [13, 1, 16, 13], "rotation": 180, "texture": "#1"},
				"west": {"uv": [11, 1, 9, 13], "texture": "#1"}
			}
		},
		{
			"from": [0, 3, 9],
			"to": [3, 15, 11],
			"faces": {
				"north": {"uv": [13, 1, 16, 13], "rotation": 180, "texture": "#1"},
				"east": {"uv": [5, 1, 7, 13], "texture": "#1"},
				"south": {"uv": [13, 1, 16, 13], "rotation": 180, "texture": "#1"},
				"west": {"uv": [7, 1, 5, 13], "texture": "#1"}
			}
		}
	]
}
