{
	"credit": "Made with Blockbench",
	"textures": {
		"2": "minecraft:block/cherry_trapdoor",
		"particle": "#2"
	},
	"elements": [
		{
			"from": [0, 0, 13],
			"to": [4, 16, 16],
			"rotation": {"angle": 0, "axis": "x", "origin": [8, 8, 14.5]},
			"faces": {
				"north": {"uv": [0, 0, 4, 16], "rotation": 180, "texture": "#2"},
				"east": {"uv": [0, 12, 16, 15], "rotation": 90, "texture": "#2"},
				"south": {"uv": [16, 16, 12, 0], "texture": "#2"},
				"west": {"uv": [0, 0, 16, 3], "rotation": 270, "texture": "#2"},
				"up": {"uv": [0, 0, 4, 3], "texture": "#2"},
				"down": {"uv": [12, 0, 16, 3], "rotation": 180, "texture": "#2"}
			}
		},
		{
			"from": [12, 0, 13],
			"to": [16, 16, 16],
			"rotation": {"angle": 0, "axis": "x", "origin": [8, 8, 14.5]},
			"faces": {
				"north": {"uv": [12, 0, 16, 16], "rotation": 180, "texture": "#2"},
				"east": {"uv": [0, 0, 16, 3], "rotation": 90, "texture": "#2"},
				"south": {"uv": [4, 0, 0, 16], "texture": "#2"},
				"west": {"uv": [0, 12, 16, 15], "rotation": 270, "texture": "#2"},
				"up": {"uv": [12, 0, 16, 3], "texture": "#2"},
				"down": {"uv": [0, 0, 4, 3], "rotation": 180, "texture": "#2"}
			}
		},
		{
			"from": [4, 12, 13],
			"to": [12, 16, 16],
			"rotation": {"angle": 0, "axis": "x", "origin": [8, 8, 14.5]},
			"faces": {
				"north": {"uv": [4, 12, 12, 16], "rotation": 180, "texture": "#2"},
				"south": {"uv": [12, 16, 4, 12], "texture": "#2"},
				"up": {"uv": [4, 0, 12, 3], "texture": "#2"},
				"down": {"uv": [3, 12, 13, 15], "rotation": 180, "texture": "#2"}
			}
		},
		{
			"from": [4, 0, 13],
			"to": [12, 4, 16],
			"rotation": {"angle": 0, "axis": "x", "origin": [8, 8, 14.5]},
			"faces": {
				"north": {"uv": [4, 0, 12, 4], "rotation": 180, "texture": "#2"},
				"south": {"uv": [4, 4, 12, 0], "texture": "#2"},
				"up": {"uv": [4, 12, 12, 15], "texture": "#2"},
				"down": {"uv": [4, 0, 12, 3], "rotation": 180, "texture": "#2"}
			}
		},
		{
			"from": [9, 10, 14],
			"to": [10, 12, 15],
			"rotation": {"angle": 0, "axis": "x", "origin": [8, 8, 14.5]},
			"faces": {
				"north": {"uv": [6, 4, 7, 6], "rotation": 180, "texture": "#2"},
				"east": {"uv": [6, 4, 7, 6], "rotation": 180, "texture": "#2"},
				"south": {"uv": [6, 4, 7, 6], "texture": "#2"},
				"west": {"uv": [6, 4, 7, 6], "texture": "#2"}
			}
		},
		{
			"from": [9, 7, 14],
			"to": [10, 9, 15],
			"rotation": {"angle": 0, "axis": "x", "origin": [8, 8, 14.5]},
			"faces": {
				"north": {"uv": [6, 7, 7, 9], "rotation": 180, "texture": "#2"},
				"east": {"uv": [6, 7, 7, 9], "rotation": 180, "texture": "#2"},
				"south": {"uv": [6, 7, 7, 9], "texture": "#2"},
				"west": {"uv": [6, 7, 7, 9], "texture": "#2"}
			}
		},
		{
			"from": [9, 4, 14],
			"to": [10, 6, 15],
			"rotation": {"angle": 0, "axis": "x", "origin": [8, 8, 14.5]},
			"faces": {
				"north": {"uv": [6, 10, 7, 12], "rotation": 180, "texture": "#2"},
				"east": {"uv": [6, 10, 7, 12], "rotation": 180, "texture": "#2"},
				"south": {"uv": [6, 10, 7, 12], "texture": "#2"},
				"west": {"uv": [6, 10, 7, 12], "texture": "#2"}
			}
		},
		{
			"from": [4, 6, 14],
			"to": [12, 7, 15],
			"rotation": {"angle": 0, "axis": "x", "origin": [8, 8, 14.5]},
			"faces": {
				"north": {"uv": [4, 9, 12, 10], "rotation": 180, "texture": "#2"},
				"south": {"uv": [4, 9, 12, 10], "texture": "#2"},
				"up": {"uv": [4, 9, 12, 10], "texture": "#2"},
				"down": {"uv": [4, 9, 12, 10], "rotation": 180, "texture": "#2"}
			}
		},
		{
			"from": [4, 9, 14],
			"to": [12, 10, 15],
			"rotation": {"angle": 0, "axis": "x", "origin": [8, 8, 14.5]},
			"faces": {
				"north": {"uv": [4, 6, 12, 7], "rotation": 180, "texture": "#2"},
				"south": {"uv": [4, 6, 12, 7], "texture": "#2"},
				"up": {"uv": [4, 6, 12, 7], "texture": "#2"},
				"down": {"uv": [4, 6, 12, 7], "rotation": 180, "texture": "#2"}
			}
		},
		{
			"from": [6, 4, 14],
			"to": [7, 6, 15],
			"rotation": {"angle": 0, "axis": "x", "origin": [8, 8, 14.5]},
			"faces": {
				"north": {"uv": [9, 10, 10, 12], "rotation": 180, "texture": "#2"},
				"east": {"uv": [9, 10, 10, 12], "rotation": 180, "texture": "#2"},
				"south": {"uv": [9, 10, 10, 12], "texture": "#2"},
				"west": {"uv": [9, 10, 10, 12], "texture": "#2"}
			}
		},
		{
			"from": [6, 7, 14],
			"to": [7, 9, 15],
			"rotation": {"angle": 0, "axis": "x", "origin": [8, 8, 14.5]},
			"faces": {
				"north": {"uv": [9, 7, 10, 9], "rotation": 180, "texture": "#2"},
				"east": {"uv": [9, 7, 10, 9], "rotation": 180, "texture": "#2"},
				"south": {"uv": [9, 7, 10, 9], "texture": "#2"},
				"west": {"uv": [9, 7, 10, 9], "texture": "#2"}
			}
		},
		{
			"from": [6, 10, 14],
			"to": [7, 12, 15],
			"rotation": {"angle": 0, "axis": "x", "origin": [8, 8, 14.5]},
			"faces": {
				"north": {"uv": [9, 4, 10, 6], "rotation": 180, "texture": "#2"},
				"east": {"uv": [9, 4, 10, 6], "rotation": 180, "texture": "#2"},
				"south": {"uv": [9, 4, 10, 6], "texture": "#2"},
				"west": {"uv": [9, 4, 10, 6], "texture": "#2"}
			}
		}
	],
	"display": {
		"thirdperson_righthand": {
			"rotation": [75, 45, 0],
			"translation": [0, 2.5, 0],
			"scale": [0.375, 0.375, 0.375]
		},
		"thirdperson_lefthand": {
			"rotation": [75, 45, 0],
			"translation": [0, 2.5, 0],
			"scale": [0.375, 0.375, 0.375]
		},
		"firstperson_righthand": {
			"rotation": [0, 45, 0],
			"scale": [0.4, 0.4, 0.4]
		},
		"firstperson_lefthand": {
			"rotation": [0, 225, 0],
			"scale": [0.4, 0.4, 0.4]
		},
		"ground": {
			"translation": [0, 3, 0],
			"scale": [0.25, 0.25, 0.25]
		},
		"gui": {
			"rotation": [30, 225, 0],
			"scale": [0.625, 0.625, 0.625]
		},
		"fixed": {
			"scale": [0.5, 0.5, 0.5]
		}
	}
}
