{
	"credit": "Made with Blockbench",
	"textures": {
		"2": "minecraft:block/cherry_trapdoor",
		"particle": "#2"
	},
	"elements": [
		{
			"from": [0, 0, 0],
			"to": [4, 3, 16],
			"faces": {
				"north": {"uv": [12, 0, 16, 3], "texture": "#2"},
				"east": {"uv": [0, 12, 16, 15], "texture": "#2"},
				"south": {"uv": [0, 0, 4, 3], "texture": "#2"},
				"west": {"uv": [0, 0, 16, 3], "texture": "#2"},
				"up": {"uv": [0, 0, 4, 16], "texture": "#2"},
				"down": {"uv": [16, 16, 12, 0], "texture": "#2"}
			}
		},
		{
			"from": [12, 0, 0],
			"to": [16, 3, 16],
			"rotation": {"angle": 0, "axis": "y", "origin": [13, 0, 0]},
			"faces": {
				"north": {"uv": [0, 0, 4, 3], "texture": "#2"},
				"east": {"uv": [0, 0, 16, 3], "texture": "#2"},
				"south": {"uv": [12, 0, 16, 3], "texture": "#2"},
				"west": {"uv": [0, 12, 16, 15], "texture": "#2"},
				"up": {"uv": [12, 0, 16, 16], "texture": "#2"},
				"down": {"uv": [4, 0, 0, 16], "texture": "#2"}
			}
		},
		{
			"from": [4, 0, 12],
			"to": [12, 3, 16],
			"rotation": {"angle": 0, "axis": "y", "origin": [3, 0, 13]},
			"faces": {
				"north": {"uv": [3, 12, 13, 15], "texture": "#2"},
				"south": {"uv": [4, 0, 12, 3], "texture": "#2"},
				"up": {"uv": [4, 12, 12, 16], "texture": "#2"},
				"down": {"uv": [12, 16, 4, 12], "texture": "#2"}
			}
		},
		{
			"from": [4, 0, 0],
			"to": [12, 3, 4],
			"rotation": {"angle": 0, "axis": "y", "origin": [3, 0, 0]},
			"faces": {
				"north": {"uv": [4, 0, 12, 3], "texture": "#2"},
				"south": {"uv": [4, 12, 12, 15], "texture": "#2"},
				"up": {"uv": [4, 0, 12, 4], "texture": "#2"},
				"down": {"uv": [4, 4, 12, 0], "texture": "#2"}
			}
		},
		{
			"from": [9, 1, 10],
			"to": [10, 2, 12],
			"rotation": {"angle": 0, "axis": "y", "origin": [9, 0, 10]},
			"faces": {
				"east": {"uv": [6, 4, 7, 6], "rotation": 90, "texture": "#2"},
				"west": {"uv": [6, 4, 7, 6], "rotation": 90, "texture": "#2"},
				"up": {"uv": [6, 4, 7, 6], "texture": "#2"},
				"down": {"uv": [6, 4, 7, 6], "texture": "#2"}
			}
		},
		{
			"from": [9, 1, 7],
			"to": [10, 2, 9],
			"rotation": {"angle": 0, "axis": "y", "origin": [9, 0, 7]},
			"faces": {
				"east": {"uv": [6, 7, 7, 9], "rotation": 90, "texture": "#2"},
				"west": {"uv": [6, 7, 7, 9], "rotation": 90, "texture": "#2"},
				"up": {"uv": [6, 7, 7, 9], "texture": "#2"},
				"down": {"uv": [6, 7, 7, 9], "texture": "#2"}
			}
		},
		{
			"from": [9, 1, 4],
			"to": [10, 2, 6],
			"rotation": {"angle": 0, "axis": "y", "origin": [9, 0, 4]},
			"faces": {
				"east": {"uv": [6, 10, 7, 12], "rotation": 90, "texture": "#2"},
				"west": {"uv": [6, 10, 7, 12], "rotation": 90, "texture": "#2"},
				"up": {"uv": [6, 10, 7, 12], "texture": "#2"},
				"down": {"uv": [6, 10, 7, 12], "texture": "#2"}
			}
		},
		{
			"from": [6, 1, 10],
			"to": [7, 2, 12],
			"rotation": {"angle": 0, "axis": "y", "origin": [6, 0, 10]},
			"faces": {
				"east": {"uv": [9, 4, 10, 6], "rotation": 90, "texture": "#2"},
				"west": {"uv": [9, 4, 10, 6], "rotation": 90, "texture": "#2"},
				"up": {"uv": [9, 4, 10, 6], "texture": "#2"},
				"down": {"uv": [9, 4, 10, 6], "texture": "#2"}
			}
		},
		{
			"from": [6, 1, 7],
			"to": [7, 2, 9],
			"rotation": {"angle": 0, "axis": "y", "origin": [6, 0, 7]},
			"faces": {
				"east": {"uv": [9, 7, 10, 9], "rotation": 90, "texture": "#2"},
				"west": {"uv": [9, 7, 10, 9], "rotation": 90, "texture": "#2"},
				"up": {"uv": [9, 7, 10, 9], "texture": "#2"},
				"down": {"uv": [9, 7, 10, 9], "texture": "#2"}
			}
		},
		{
			"from": [6, 1, 4],
			"to": [7, 2, 6],
			"rotation": {"angle": 0, "axis": "y", "origin": [6, 0, 4]},
			"faces": {
				"east": {"uv": [9, 10, 10, 12], "rotation": 90, "texture": "#2"},
				"west": {"uv": [9, 10, 10, 12], "rotation": 90, "texture": "#2"},
				"up": {"uv": [9, 10, 10, 12], "texture": "#2"},
				"down": {"uv": [9, 10, 10, 12], "texture": "#2"}
			}
		},
		{
			"from": [4, 1, 6],
			"to": [12, 2, 7],
			"rotation": {"angle": 0, "axis": "y", "origin": [6, 0, 6]},
			"faces": {
				"north": {"uv": [4, 9, 12, 10], "texture": "#2"},
				"south": {"uv": [4, 9, 12, 10], "texture": "#2"},
				"up": {"uv": [4, 9, 12, 10], "texture": "#2"},
				"down": {"uv": [4, 9, 12, 10], "texture": "#2"}
			}
		},
		{
			"from": [4, 1, 9],
			"to": [12, 2, 10],
			"rotation": {"angle": 0, "axis": "y", "origin": [6, 0, 9]},
			"faces": {
				"north": {"uv": [4, 6, 12, 7], "texture": "#2"},
				"south": {"uv": [4, 6, 12, 7], "texture": "#2"},
				"up": {"uv": [4, 6, 12, 7], "texture": "#2"},
				"down": {"uv": [4, 6, 12, 7], "texture": "#2"}
			}
		}
	],
	"display": {
		"thirdperson_righthand": {
			"rotation": [75, 45, 0],
			"translation": [0, 2.5, 0],
			"scale": [0.375, 0.375, 0.375]
		},
		"thirdperson_lefthand": {
			"rotation": [75, 45, 0],
			"translation": [0, 2.5, 0],
			"scale": [0.375, 0.375, 0.375]
		},
		"firstperson_righthand": {
			"rotation": [0, 45, 0],
			"scale": [0.4, 0.4, 0.4]
		},
		"firstperson_lefthand": {
			"rotation": [0, 225, 0],
			"scale": [0.4, 0.4, 0.4]
		},
		"ground": {
			"translation": [0, 3, 0],
			"scale": [0.25, 0.25, 0.25]
		},
		"gui": {
			"rotation": [30, 225, 0],
			"scale": [0.625, 0.625, 0.625]
		},
		"fixed": {
			"scale": [0.5, 0.5, 0.5]
		}
	}
}
