{
	"credit": "Made with Blockbench",
	"textures": {
		"0": "block/end_portal_frame_side",
		"1": "block/end_portal_frame_top",
		"2": "block/end_stone",
		"particle": "block/end_portal_frame_side"
	},
	"elements": [
		{
			"from": [0, 0, 0],
			"to": [16, 9, 16],
			"faces": {
				"north": {"uv": [0, 7, 16, 16], "texture": "#0"},
				"east": {"uv": [0, 7, 16, 16], "texture": "#0"},
				"south": {"uv": [0, 7, 16, 16], "texture": "#0"},
				"west": {"uv": [0, 7, 16, 16], "texture": "#0"},
				"up": {"uv": [0, 0, 16, 16], "texture": "#1"},
				"down": {"uv": [0, 0, 16, 16], "texture": "#2"}
			}
		},
		{
			"from": [0, 9, 0],
			"to": [5, 13, 16],
			"faces": {
				"north": {"uv": [11, 3, 16, 7], "texture": "#0"},
				"east": {"uv": [0, 7, 16, 11], "texture": "#1"},
				"south": {"uv": [0, 3, 5, 7], "texture": "#0"},
				"west": {"uv": [0, 3, 16, 7], "texture": "#0"},
				"up": {"uv": [0, 0, 5, 16], "texture": "#1"}
			}
		},
		{
			"from": [11, 9, 0],
			"to": [16, 13, 16],
			"faces": {
				"north": {"uv": [0, 3, 5, 7], "texture": "#0"},
				"east": {"uv": [0, 3, 16, 7], "texture": "#0"},
				"south": {"uv": [11, 3, 16, 7], "texture": "#0"},
				"west": {"uv": [0, 7, 16, 11], "texture": "#1"},
				"up": {"uv": [11, 0, 16, 16], "texture": "#1"}
			}
		},
		{
			"from": [5, 9, 0],
			"to": [11, 13, 5],
			"faces": {
				"north": {"uv": [5, 3, 11, 7], "texture": "#0"},
				"south": {"uv": [5, 5, 11, 9], "texture": "#1"},
				"up": {"uv": [5, 0, 11, 5], "texture": "#1"}
			}
		},
		{
			"from": [5, 9, 11],
			"to": [11, 13, 16],
			"faces": {
				"north": {"uv": [5, 5, 11, 9], "texture": "#1"},
				"south": {"uv": [5, 3, 11, 7], "texture": "#0"},
				"up": {"uv": [5, 11, 11, 16], "texture": "#1"}
			}
		}
	],
	"display": {
		"thirdperson_righthand": {
			"rotation": [75, 45, 0],
			"translation": [0, 2.5, 0],
			"scale": [0.375, 0.375, 0.375]
		},
		"thirdperson_lefthand": {
			"rotation": [75, 45, 0],
			"translation": [0, 2.5, 0],
			"scale": [0.375, 0.375, 0.375]
		},
		"firstperson_righthand": {
			"rotation": [0, 45, 0],
			"scale": [0.4, 0.4, 0.4]
		},
		"firstperson_lefthand": {
			"rotation": [0, 225, 0],
			"scale": [0.4, 0.4, 0.4]
		},
		"ground": {
			"translation": [0, 3, 0],
			"scale": [0.25, 0.25, 0.25]
		},
		"gui": {
			"rotation": [30, 225, 0],
			"scale": [0.625, 0.625, 0.625]
		},
		"fixed": {
			"scale": [0.5, 0.5, 0.5]
		}
	}
}