{
	"credit": "Made with Blockbench",
	"textures": {
		"0": "block/furnace_front_on",
		"1": "block/furnace_side",
		"2": "block/furnace_top",
		"particle": "block/furnace_front_on"
	},
	"elements": [
		{
			"from": [0, 0, 8],
			"to": [16, 16, 16],
			"faces": {
				"north": {"uv": [0, 0, 16, 16], "texture": "#0"},
				"east": {"uv": [0, 0, 8, 16], "texture": "#1"},
				"south": {"uv": [0, 0, 16, 16], "texture": "#1"},
				"west": {"uv": [8, 0, 16, 16], "texture": "#1"},
				"up": {"uv": [0, 8, 16, 16], "texture": "#2"},
				"down": {"uv": [0, 0, 16, 8], "texture": "#2"}
			}
		},
		{
			"from": [0, 5, 0],
			"to": [16, 9, 8],
			"faces": {
				"north": {"uv": [0, 7, 16, 11], "texture": "#0"},
				"east": {"uv": [8, 7, 16, 11], "texture": "#1"},
				"west": {"uv": [0, 7, 8, 11], "texture": "#1"},
				"up": {"uv": [0, 6, 16, 7], "texture": "#0"},
				"down": {"uv": [0, 11, 16, 12], "texture": "#0"}
			}
		},
		{
			"from": [0, 13, 0],
			"to": [16, 16, 8],
			"faces": {
				"north": {"uv": [0, 0, 16, 3], "texture": "#0"},
				"east": {"uv": [8, 0, 16, 3], "texture": "#1"},
				"west": {"uv": [0, 0, 8, 3], "texture": "#1"},
				"up": {"uv": [0, 0, 16, 8], "texture": "#2"},
				"down": {"uv": [0, 3, 16, 4], "texture": "#0"}
			}
		},
		{
			"from": [0, 0, 0],
			"to": [2, 5, 8],
			"faces": {
				"north": {"uv": [14, 11, 16, 16], "texture": "#0"},
				"east": {"uv": [13, 11, 14, 16], "texture": "#0"},
				"west": {"uv": [0, 11, 8, 16], "texture": "#1"},
				"down": {"uv": [0, 8, 2, 16], "texture": "#2"}
			}
		},
		{
			"from": [14, 0, 0],
			"to": [16, 5, 8],
			"faces": {
				"north": {"uv": [0, 11, 2, 16], "texture": "#0"},
				"east": {"uv": [8, 11, 16, 16], "texture": "#1"},
				"west": {"uv": [2, 11, 3, 16], "texture": "#0"},
				"down": {"uv": [14, 8, 16, 16], "texture": "#2"}
			}
		},
		{
			"from": [13, 9, 0],
			"to": [16, 13, 8],
			"faces": {
				"north": {"uv": [0, 3, 3, 7], "texture": "#0"},
				"east": {"uv": [8, 3, 16, 7], "texture": "#1"},
				"west": {"uv": [3, 3, 4, 7], "texture": "#0"}
			}
		},
		{
			"from": [0, 9, 0],
			"to": [3, 13, 8],
			"faces": {
				"north": {"uv": [13, 3, 16, 7], "texture": "#0"},
				"east": {"uv": [12, 3, 13, 7], "texture": "#0"},
				"west": {"uv": [0, 3, 8, 7], "texture": "#1"}
			}
		},
		{
			"from": [3, 12, 0],
			"to": [4, 13, 8],
			"faces": {
				"north": {"uv": [12, 3, 13, 4], "texture": "#0"},
				"east": {"uv": [11, 3, 12, 4], "texture": "#0"},
				"down": {"uv": [12, 4, 13, 5], "texture": "#0"}
			}
		},
		{
			"from": [12, 12, 0],
			"to": [13, 13, 8],
			"faces": {
				"north": {"uv": [3, 3, 4, 4], "texture": "#0"},
				"west": {"uv": [4, 3, 5, 4], "texture": "#0"},
				"down": {"uv": [3, 4, 4, 5], "texture": "#0"}
			}
		},
		{
			"from": [12, 3, 0],
			"to": [14, 5, 8],
			"faces": {
				"north": {"uv": [2, 11, 4, 13], "texture": "#0"},
				"west": {"uv": [5, 10, 6, 12], "texture": "#0"},
				"down": {"uv": [0, 0, 2, 0], "texture": "#0"}
			}
		},
		{
			"from": [2, 3, 0],
			"to": [4, 5, 8],
			"faces": {
				"north": {"uv": [12, 11, 14, 13], "texture": "#0"},
				"east": {"uv": [11, 11, 12, 13], "texture": "#0"},
				"down": {"uv": [12, 12, 14, 13], "texture": "#0"}
			}
		},
		{
			"from": [2, 1, 0],
			"to": [3, 3, 8],
			"faces": {
				"north": {"uv": [13, 13, 14, 15], "texture": "#0"},
				"east": {"uv": [12, 13, 13, 15], "texture": "#0"}
			}
		},
		{
			"from": [13, 1, 0],
			"to": [14, 3, 8],
			"faces": {
				"north": {"uv": [2, 13, 3, 15], "texture": "#0"},
				"west": {"uv": [3, 13, 4, 15], "texture": "#0"},
				"down": {"uv": [3, 15, 4, 16], "texture": "#0"}
			}
		},
		{
			"from": [11, 4, 0],
			"to": [12, 5, 8],
			"faces": {
				"north": {"uv": [4, 11, 5, 12], "texture": "#0"},
				"west": {"uv": [5, 11, 6, 12], "texture": "#0"},
				"down": {"uv": [5, 11, 6, 12], "texture": "#0"}
			}
		},
		{
			"from": [4, 4, 0],
			"to": [5, 5, 8],
			"faces": {
				"north": {"uv": [11, 11, 12, 12], "texture": "#0"},
				"east": {"uv": [11, 11, 12, 12], "texture": "#0"},
				"down": {"uv": [12, 12, 13, 13], "texture": "#0"}
			}
		},
		{
			"from": [2, 0, 0],
			"to": [14, 1, 8],
			"faces": {
				"north": {"uv": [2, 15, 14, 16], "texture": "#0"},
				"up": {"uv": [2, 15, 14, 16], "texture": "#0"},
				"down": {"uv": [2, 8, 14, 16], "texture": "#2"}
			}
		}
	]
}
