{
	"credit": "Made with Blockbench",
	"ambientocclusion": false,
	"textures": {
		"2": "block/iron_door_top",
		"particle": "block/iron_door_top"
	},
	"elements": [
		{
			"from": [0, 0, 0],
			"to": [3, 5, 16],
			"faces": {
				"north": {"uv": [3, 11, 0, 16], "texture": "#2"},
				"east": {"uv": [16, 11, 0, 16], "texture": "#2"},
				"south": {"uv": [0, 11, 3, 16], "texture": "#2"},
				"west": {"uv": [0, 11, 16, 16], "texture": "#2"},
				"up": {"uv": [13, 0, 16, 16], "texture": "#2"}
			}
		},
		{
			"from": [0, 5, 0],
			"to": [3, 16, 3],
			"faces": {
				"north": {"uv": [3, 0, 0, 11], "texture": "#2"},
				"east": {"uv": [3, 0, 0, 11], "texture": "#2"},
				"south": {"uv": [13, 3, 16, 14], "texture": "#2"},
				"west": {"uv": [0, 0, 3, 11], "texture": "#2"},
				"up": {"uv": [13, 0, 16, 3], "texture": "#2"}
			}
		},
		{
			"from": [0, 5, 13],
			"to": [3, 16, 16],
			"faces": {
				"north": {"uv": [13, 3, 16, 14], "texture": "#2"},
				"east": {"uv": [16, 0, 13, 11], "texture": "#2"},
				"south": {"uv": [0, 0, 3, 11], "texture": "#2"},
				"west": {"uv": [13, 0, 16, 11], "texture": "#2"},
				"up": {"uv": [13, 13, 16, 16], "texture": "#2"}
			}
		},
		{
			"from": [0, 13, 3],
			"to": [3, 16, 13],
			"faces": {
				"east": {"uv": [13, 0, 3, 3], "texture": "#2"},
				"west": {"uv": [3, 0, 13, 3], "texture": "#2"},
				"up": {"uv": [13, 3, 16, 13], "texture": "#2"},
				"down": {"uv": [13, 2, 16, 12], "texture": "#2"}
			}
		},
		{
			"from": [0, 5, 7],
			"to": [3, 13, 9],
			"faces": {
				"north": {"uv": [13, 3, 16, 11], "texture": "#2"},
				"east": {"uv": [9, 3, 7, 11], "texture": "#2"},
				"south": {"uv": [13, 3, 16, 11], "texture": "#2"},
				"west": {"uv": [7, 3, 9, 11], "texture": "#2"}
			}
		},
		{
			"from": [0, 8, 3],
			"to": [3, 10, 7],
			"faces": {
				"east": {"uv": [7, 6, 3, 8], "texture": "#2"},
				"west": {"uv": [3, 6, 7, 8], "texture": "#2"},
				"up": {"uv": [0, 0, 3, 4], "texture": "#2"},
				"down": {"uv": [0, 0, 3, 4], "texture": "#2"}
			}
		},
		{
			"from": [0, 8, 9],
			"to": [3, 10, 13],
			"faces": {
				"east": {"uv": [13, 6, 9, 8], "texture": "#2"},
				"west": {"uv": [9, 6, 13, 8], "texture": "#2"},
				"up": {"uv": [0, 0, 3, 4], "texture": "#2"},
				"down": {"uv": [0, 0, 3, 4], "texture": "#2"}
			}
		}
	]
}