{
	"credit": "Made with Blockbench",
	"textures": {
		"1": "block/oak_trapdoor",
		"particle": "block/oak_trapdoor"
	},
	"elements": [
		{
			"from": [0, 0, 13],
			"to": [3, 16, 16],
			"faces": {
				"north": {"uv": [0, 0, 3, 16], "rotation": 180, "texture": "#1"},
				"east": {"uv": [0, 0, 16, 3], "rotation": 90, "texture": "#1"},
				"south": {"uv": [0, 0, 3, 16], "texture": "#1"},
				"west": {"uv": [0, 0, 16, 3], "rotation": 270, "texture": "#1"},
				"up": {"uv": [0, 0, 3, 3], "texture": "#1"},
				"down": {"uv": [13, 0, 16, 3], "rotation": 180, "texture": "#1"}
			}
		},
		{
			"from": [13, 0, 13],
			"to": [16, 16, 16],
			"faces": {
				"north": {"uv": [13, 0, 16, 16], "rotation": 180, "texture": "#1"},
				"east": {"uv": [0, 0, 16, 3], "rotation": 90, "texture": "#1"},
				"south": {"uv": [13, 0, 16, 16], "texture": "#1"},
				"west": {"uv": [0, 0, 16, 3], "rotation": 270, "texture": "#1"},
				"up": {"uv": [13, 0, 16, 3], "texture": "#1"},
				"down": {"uv": [0, 0, 3, 3], "rotation": 180, "texture": "#1"}
			}
		},
		{
			"from": [3, 0, 13],
			"to": [13, 3, 16],
			"faces": {
				"north": {"uv": [3, 0, 13, 3], "rotation": 180, "texture": "#1"},
				"south": {"uv": [3, 3, 13, 0], "texture": "#1"},
				"up": {"uv": [3, 0, 13, 3], "texture": "#1"},
				"down": {"uv": [3, 0, 13, 3], "rotation": 180, "texture": "#1"}
			}
		},
		{
			"from": [3, 13, 13],
			"to": [13, 16, 16],
			"faces": {
				"north": {"uv": [3, 13, 13, 16], "rotation": 180, "texture": "#1"},
				"south": {"uv": [3, 0, 13, 3], "texture": "#1"},
				"up": {"uv": [3, 0, 13, 3], "texture": "#1"},
				"down": {"uv": [3, 0, 13, 3], "rotation": 180, "texture": "#1"}
			}
		},
		{
			"from": [6, 3, 13],
			"to": [10, 13, 16],
			"faces": {
				"north": {"uv": [6, 3, 10, 13], "rotation": 180, "texture": "#1"},
				"east": {"uv": [3, 0, 13, 3], "rotation": 90, "texture": "#1"},
				"south": {"uv": [6, 3, 10, 13], "texture": "#1"},
				"west": {"uv": [3, 0, 13, 3], "rotation": 270, "texture": "#1"}
			}
		},
		{
			"from": [3, 6, 13],
			"to": [6, 10, 16],
			"faces": {
				"north": {"uv": [3, 6, 6, 10], "rotation": 180, "texture": "#1"},
				"south": {"uv": [10, 6, 13, 10], "texture": "#1"},
				"up": {"uv": [3, 0, 6, 3], "texture": "#1"},
				"down": {"uv": [10, 0, 13, 3], "rotation": 180, "texture": "#1"}
			}
		},
		{
			"from": [10, 6, 13],
			"to": [13, 10, 16],
			"faces": {
				"north": {"uv": [10, 6, 13, 10], "rotation": 180, "texture": "#1"},
				"south": {"uv": [3, 6, 6, 10], "texture": "#1"},
				"up": {"uv": [10, 0, 13, 3], "texture": "#1"},
				"down": {"uv": [3, 0, 6, 3], "rotation": 180, "texture": "#1"}
			}
		}
	]
}