{
	"credit": "Made with Blockbench",
	"parent": "minecraft:block/pointed_dripstone",
	"textures": {
		"texture": "block/pointed_dripstone_up_frustum",
		"particle": "block/dripstone_block"
	},
	"elements": [
		{
			"from": [2, 0, 2],
			"to": [14, 5, 14],
			"faces": {
				"north": {"uv": [2, 11, 14, 16], "texture": "#texture"},
				"east": {"uv": [2, 11, 14, 16], "texture": "#texture"},
				"south": {"uv": [2, 11, 14, 16], "texture": "#texture"},
				"west": {"uv": [2, 11, 14, 16], "texture": "#texture"},
				"up": {"uv": [2, 2, 14, 14], "texture": "#particle"},
				"down": {"uv": [2, 2, 14, 14], "texture": "#particle"}
			}
		},
		{
			"from": [2, 5, 2],
			"to": [13, 8, 13],
			"faces": {
				"north": {"uv": [3, 8, 14, 11], "texture": "#texture"},
				"east": {"uv": [3, 8, 14, 11], "texture": "#texture"},
				"south": {"uv": [3, 8, 14, 11], "texture": "#texture"},
				"west": {"uv": [3, 8, 14, 11], "texture": "#texture"},
				"up": {"uv": [2, 2, 13, 13], "texture": "#particle"}
			}
		},
		{
			"from": [3, 8, 2],
			"to": [13, 11, 12],
			"faces": {
				"north": {"uv": [3, 5, 13, 8], "texture": "#texture"},
				"east": {"uv": [3, 5, 13, 8], "texture": "#texture"},
				"south": {"uv": [3, 5, 13, 8], "texture": "#texture"},
				"west": {"uv": [3, 5, 13, 8], "texture": "#texture"},
				"up": {"uv": [3, 3, 13, 13], "texture": "#particle"}
			}
		},
		{
			"from": [3, 11, 3],
			"to": [12, 14, 12],
			"faces": {
				"north": {"uv": [4, 2, 13, 5], "texture": "#texture"},
				"east": {"uv": [4, 2, 13, 5], "texture": "#texture"},
				"south": {"uv": [4, 2, 13, 5], "texture": "#texture"},
				"west": {"uv": [4, 2, 13, 5], "texture": "#texture"},
				"up": {"uv": [4, 4, 13, 13], "texture": "#particle"}
			}
		},
		{
			"from": [4, 14, 4],
			"to": [12, 16, 12],
			"faces": {
				"north": {"uv": [4, 0, 12, 2], "texture": "#texture"},
				"east": {"uv": [4, 0, 12, 2], "texture": "#texture"},
				"south": {"uv": [4, 0, 12, 2], "texture": "#texture"},
				"west": {"uv": [4, 0, 12, 2], "texture": "#texture"},
				"up": {"uv": [4, 4, 12, 12], "texture": "#particle"}
			}
		}
	]
}
