{
	"credit": "Made with Blockbench",
	"textures": {
		"1": "block/red_mushroom",
		"particle": "block/brown_mushroom"
	},
	"elements": [
		{
			"from": [7, 0, 7],
			"to": [9, 3, 9],
			"faces": {
				"north": {"uv": [7, 13, 9, 16], "texture": "#1"},
				"east": {"uv": [7, 13, 9, 16], "texture": "#1"},
				"south": {"uv": [7, 13, 9, 16], "texture": "#1"},
				"west": {"uv": [7, 13, 9, 16], "texture": "#1"},
				"up": {"uv": [0, 0, 2, 2], "texture": "#1"},
				"down": {"uv": [0, 0, 0, 0], "texture": "#1"}
			}
		},
		{
			"from": [4, 3, 4],
			"to": [6, 5, 12],
			"faces": {
				"north": {"uv": [10, 11, 12, 13], "texture": "#1"},
				"south": {"uv": [4, 11, 6, 13], "texture": "#1"},
				"west": {"uv": [4, 11, 12, 13], "texture": "#1"},
				"up": {"uv": [4, 11, 12, 13], "rotation": 270, "texture": "#1"},
				"down": {"uv": [4, 11, 12, 13], "rotation": 270, "texture": "#1"}
			}
		},
		{
			"from": [6, 3, 4],
			"to": [8, 5, 12],
			"faces": {
				"north": {"uv": [8, 11, 10, 13], "texture": "#1"},
				"south": {"uv": [6, 11, 8, 13], "texture": "#1"},
				"up": {"uv": [4, 11, 12, 13], "rotation": 90, "texture": "#1"},
				"down": {"uv": [4, 11, 12, 13], "rotation": 90, "texture": "#1"}
			}
		},
		{
			"from": [8, 3, 4],
			"to": [10, 5, 12],
			"faces": {
				"north": {"uv": [6, 11, 8, 13], "texture": "#1"},
				"south": {"uv": [8, 11, 10, 13], "texture": "#1"},
				"up": {"uv": [4, 11, 12, 13], "rotation": 270, "texture": "#1"},
				"down": {"uv": [4, 11, 12, 13], "rotation": 270, "texture": "#1"}
			}
		},
		{
			"from": [10, 3, 4],
			"to": [12, 5, 12],
			"faces": {
				"north": {"uv": [4, 11, 6, 13], "texture": "#1"},
				"east": {"uv": [4, 11, 12, 13], "texture": "#1"},
				"south": {"uv": [10, 11, 12, 13], "texture": "#1"},
				"up": {"uv": [4, 11, 12, 13], "rotation": 90, "texture": "#1"},
				"down": {"uv": [4, 11, 12, 13], "rotation": 90, "texture": "#1"}
			}
		},
		{
			"from": [5, 5, 5],
			"to": [7, 6, 11],
			"faces": {
				"north": {"uv": [9, 10, 11, 11], "texture": "#1"},
				"south": {"uv": [5, 10, 7, 11], "texture": "#1"},
				"west": {"uv": [5, 10, 11, 11], "rotation": 180, "texture": "#1"},
				"up": {"uv": [5, 10, 11, 12], "rotation": 90, "texture": "#1"}
			}
		},
		{
			"from": [7, 5, 5],
			"to": [9, 6, 11],
			"faces": {
				"north": {"uv": [7, 10, 9, 11], "texture": "#1"},
				"south": {"uv": [7, 10, 9, 11], "texture": "#1"},
				"up": {"uv": [5, 10, 11, 12], "rotation": 270, "texture": "#1"}
			}
		},
		{
			"from": [9, 5, 5],
			"to": [11, 6, 11],
			"faces": {
				"north": {"uv": [5, 10, 7, 11], "texture": "#1"},
				"east": {"uv": [5, 10, 11, 11], "rotation": 180, "texture": "#1"},
				"south": {"uv": [9, 10, 11, 11], "texture": "#1"},
				"up": {"uv": [5, 10, 11, 12], "rotation": 90, "texture": "#1"}
			}
		},
		{
			"from": [6, 6, 6],
			"to": [7, 7, 10],
			"faces": {
				"north": {"uv": [6, 9, 7, 10], "texture": "#1"},
				"south": {"uv": [9, 9, 10, 10], "texture": "#1"},
				"west": {"uv": [6, 9, 10, 10], "texture": "#1"},
				"up": {"uv": [6, 9, 10, 10], "rotation": 90, "texture": "#1"}
			}
		},
		{
			"from": [7, 6, 6],
			"to": [8, 7, 10],
			"faces": {
				"north": {"uv": [7, 9, 8, 10], "texture": "#1"},
				"south": {"uv": [8, 9, 9, 10], "texture": "#1"},
				"up": {"uv": [6, 9, 10, 10], "rotation": 270, "texture": "#1"}
			}
		},
		{
			"from": [8, 6, 6],
			"to": [9, 7, 10],
			"faces": {
				"north": {"uv": [8, 9, 9, 10], "texture": "#1"},
				"south": {"uv": [7, 9, 8, 10], "texture": "#1"},
				"up": {"uv": [6, 9, 10, 10], "rotation": 90, "texture": "#1"}
			}
		},
		{
			"from": [9, 6, 6],
			"to": [10, 7, 10],
			"faces": {
				"north": {"uv": [9, 9, 10, 10], "texture": "#1"},
				"east": {"uv": [6, 9, 10, 10], "texture": "#1"},
				"south": {"uv": [6, 9, 7, 10], "texture": "#1"},
				"up": {"uv": [6, 9, 10, 10], "rotation": 270, "texture": "#1"}
			}
		}
	]
}