{
	"credit": "Made with Blockbench",
	"textures": {
		"0": "block/warped_fungus",
		"particle": "block/warped_fungus"
	},
	"elements": [
		{
			"from": [3, 5, 3],
			"to": [7, 9, 13],
			"faces": {
				"north": {"uv": [9, 7, 13, 11], "texture": "#0"},
				"south": {"uv": [3, 7, 7, 11], "texture": "#0"},
				"west": {"uv": [3, 7, 13, 11], "texture": "#0"},
				"up": {"uv": [3, 7, 13, 11], "rotation": 90, "texture": "#0"},
				"down": {"uv": [3, 7, 13, 11], "rotation": 90, "texture": "#0"}
			}
		},
		{
			"from": [7, 5, 3],
			"to": [11, 9, 13],
			"faces": {
				"north": {"uv": [5, 7, 9, 11], "texture": "#0"},
				"south": {"uv": [7, 7, 11, 11], "texture": "#0"},
				"up": {"uv": [3, 7, 13, 11], "rotation": 270, "texture": "#0"},
				"down": {"uv": [3, 7, 13, 11], "rotation": 270, "texture": "#0"}
			}
		},
		{
			"from": [11, 5, 3],
			"to": [13, 9, 13],
			"faces": {
				"north": {"uv": [3, 7, 5, 11], "texture": "#0"},
				"east": {"uv": [3, 7, 13, 11], "texture": "#0"},
				"south": {"uv": [11, 7, 13, 11], "texture": "#0"},
				"up": {"uv": [3, 9, 13, 11], "rotation": 90, "texture": "#0"},
				"down": {"uv": [3, 9, 13, 11], "rotation": 90, "texture": "#0"}
			}
		},
		{
			"from": [7, 0, 7],
			"to": [9, 5, 9],
			"faces": {
				"north": {"uv": [7, 11, 9, 16], "texture": "#0"},
				"east": {"uv": [7, 11, 9, 16], "texture": "#0"},
				"south": {"uv": [7, 11, 9, 16], "texture": "#0"},
				"west": {"uv": [7, 11, 9, 16], "texture": "#0"}
			}
		}
	]
}