{
  "type": "minecraft:crafting_shaped",
  "category": "redstone",
  "key": {
    "#": {
      "item": "minecraft:bedrock"
    }
  },
  "pattern": [
    "##",
    "##",
    "##"
  ],
  "result": {
    "count": 3,
    "item": "paradisemod:bedrock_door"
  },
  "show_notification": true
}