{
  "type": "minecraft:crafting_shaped",
  "category": "misc",
  "key": {
    "P": {
      "item": "paradisemod:blackened_spruce_planks"
    },
    "S": {
      "item": "minecraft:stick"
    }
  },
  "pattern": [
    "PSP",
    "PSP"
  ],
  "result": {
    "count": 3,
    "item": "paradisemod:blackened_spruce_fence"
  },
  "show_notification": true
}