{
  "type": "minecraft:crafting_shaped",
  "category": "misc",
  "key": {
    "p": {
      "item": "paradisemod:blackened_oak_planks"
    }
  },
  "pattern": [
    "pp",
    "pp"
  ],
  "result": {
    "item": "paradisemod:blackened_oak_crafting_table"
  },
  "show_notification": true
}