{
  "type": "minecraft:crafting_shaped",
  "category": "building",
  "key": {
    "b": {
      "item": "minecraft:book"
    },
    "p": {
      "item": "paradisemod:blackened_oak_planks"
    }
  },
  "pattern": [
    "ppp",
    "bbb",
    "ppp"
  ],
  "result": {
    "item": "paradisemod:blackened_oak_bookshelf"
  },
  "show_notification": true
}