{
  "type": "minecraft:crafting_shaped",
  "category": "misc",
  "key": {
    "d": {
      "item": "minecraft:black_dye"
    },
    "g": {
      "item": "paradisemod:blastproof_glass_pane"
    }
  },
  "pattern": [
    "ggg",
    "gdg",
    "ggg"
  ],
  "result": {
    "count": 8,
    "item": "paradisemod:black_tinted_blastproof_glass_pane"
  },
  "show_notification": true
}