{
  "type": "minecraft:crafting_shaped",
  "category": "misc",
  "key": {
    "g": {
      "item": "minecraft:glass"
    },
    "o": {
      "item": "minecraft:obsidian"
    }
  },
  "pattern": [
    "ooo",
    "ogo",
    "ooo"
  ],
  "result": {
    "count": 8,
    "item": "paradisemod:blastproof_glass"
  },
  "show_notification": true
}