{
  "type": "minecraft:crafting_shaped",
  "category": "redstone",
  "key": {
    "I": {
      "item": "paradisemod:cactus_block"
    }
  },
  "pattern": [
    "II"
  ],
  "result": {
    "item": "paradisemod:cactus_pressure_plate"
  },
  "show_notification": true
}