{
  "type": "minecraft:crafting_shaped",
  "category": "misc",
  "key": {
    "#": {
      "item": "minecraft:spruce_sapling"
    },
    "B": {
      "item": "paradisemod:blue_glowing_obsidian"
    },
    "G": {
      "item": "paradisemod:green_glowing_obsidian"
    },
    "R": {
      "item": "paradisemod:red_glowing_obsidian"
    },
    "Y": {
      "item": "paradisemod:yellow_glowing_obsidian"
    }
  },
  "pattern": [
    " R ",
    "Y#G",
    " B "
  ],
  "result": {
    "item": "paradisemod:christmas_tree_sapling"
  },
  "show_notification": true
}