{
  "type": "minecraft:crafting_shapeless",
  "category": "redstone",
  "ingredients": [
    {
      "item": "minecraft:cobbled_deepslate"
    }
  ],
  "result": {
    "item": "paradisemod:cobbled_deepslate_button"
  }
}