{
  "type": "minecraft:crafting_shaped",
  "category": "misc",
  "key": {
    "i": {
      "item": "paradisemod:salt"
    }
  },
  "pattern": [
    "iii",
    "iii",
    "iii"
  ],
  "result": {
    "item": "paradisemod:compact_salt_block"
  },
  "show_notification": true
}