{
  "type": "minecraft:crafting_shaped",
  "category": "redstone",
  "key": {
    "d": {
      "item": "minecraft:cyan_dye"
    },
    "l": {
      "item": "minecraft:redstone_lamp"
    }
  },
  "pattern": [
    "lll",
    "ldl",
    "lll"
  ],
  "result": {
    "count": 8,
    "item": "paradisemod:cyan_redstone_lamp"
  },
  "show_notification": true
}