{
  "type": "minecraft:crafting_shaped",
  "category": "equipment",
  "key": {
    "x": {
      "item": "paradisemod:enderite_ingot"
    }
  },
  "pattern": [
    "xxx",
    "x x"
  ],
  "result": {
    "item": "paradisemod:enderite_helmet"
  },
  "show_notification": true
}