{
  "type": "minecraft:crafting_shaped",
  "category": "equipment",
  "key": {
    "x": {
      "item": "paradisemod:enderite_ingot"
    },
    "y": {
      "item": "minecraft:diamond"
    }
  },
  "pattern": [
    "xxx",
    " y ",
    " y "
  ],
  "result": {
    "item": "paradisemod:enderite_pickaxe"
  },
  "show_notification": true
}