{
  "type": "minecraft:crafting_shaped",
  "category": "misc",
  "key": {
    "C": {
      "item": "minecraft:chain"
    },
    "P": {
      "item": "paradisemod:glowing_oak_planks"
    }
  },
  "pattern": [
    "C C",
    "PPP",
    "PPP"
  ],
  "result": {
    "count": 6,
    "item": "paradisemod:glowing_oak_hanging_sign"
  },
  "show_notification": true
}