{
  "type": "minecraft:crafting_shaped",
  "category": "redstone",
  "key": {
    "A": {
      "tag": "paradisemod:antennas"
    },
    "D": {
      "item": "minecraft:green_dye"
    }
  },
  "pattern": [
    "AAA",
    "ADA",
    "AAA"
  ],
  "result": {
    "count": 8,
    "item": "paradisemod:green_antenna"
  },
  "show_notification": true
}