{
  "type": "minecraft:crafting_shaped",
  "category": "misc",
  "key": {
    "g": {
      "item": "minecraft:gold_ingot"
    },
    "p": {
      "item": "minecraft:paper"
    }
  },
  "pattern": [
    " g ",
    "gpg",
    " g "
  ],
  "result": {
    "item": "paradisemod:ictus_pattern"
  },
  "show_notification": true
}