{
  "type": "minecraft:crafting_shaped",
  "category": "building",
  "key": {
    "L": {
      "tag": "paradisemod:mesquite_logs"
    }
  },
  "pattern": [
    "LL",
    "LL"
  ],
  "result": {
    "count": 4,
    "item": "paradisemod:mesquite_planks"
  },
  "show_notification": true
}