{
  "type": "minecraft:crafting_shaped",
  "category": "redstone",
  "key": {
    "#": {
      "item": "paradisemod:mesquite_planks"
    }
  },
  "pattern": [
    "##",
    "##",
    "##"
  ],
  "result": {
    "count": 3,
    "item": "paradisemod:mesquite_door"
  },
  "show_notification": true
}