{
  "type": "minecraft:crafting_shaped",
  "category": "redstone",
  "key": {
    "#": {
      "item": "minecraft:mossy_cobblestone"
    }
  },
  "pattern": [
    "###",
    "###"
  ],
  "result": {
    "count": 2,
    "item": "paradisemod:mossy_cobblestone_trapdoor"
  },
  "show_notification": true
}