{
  "type": "minecraft:crafting_shaped",
  "category": "equipment",
  "key": {
    "x": {
      "item": "minecraft:obsidian"
    },
    "y": {
      "item": "minecraft:diamond"
    }
  },
  "pattern": [
    " xx",
    " yx",
    " y "
  ],
  "result": {
    "item": "paradisemod:obsidian_axe"
  },
  "show_notification": true
}