{
  "type": "minecraft:crafting_shaped",
  "category": "building",
  "key": {
    "I": {
      "item": "paradisemod:orange_glowing_obsidian"
    }
  },
  "pattern": [
    "III"
  ],
  "result": {
    "count": 6,
    "item": "paradisemod:orange_glowing_obsidian_slab"
  },
  "show_notification": true
}