{
  "type": "minecraft:crafting_shapeless",
  "category": "redstone",
  "ingredients": [
    {
      "item": "paradisemod:orange_glowing_obsidian"
    }
  ],
  "result": {
    "item": "paradisemod:orange_glowing_obsidian_button"
  }
}