{
  "type": "minecraft:crafting_shaped",
  "category": "redstone",
  "key": {
    "#": {
      "item": "paradisemod:orange_glowing_obsidian"
    }
  },
  "pattern": [
    "###",
    "###"
  ],
  "result": {
    "count": 2,
    "item": "paradisemod:orange_glowing_obsidian_trapdoor"
  },
  "show_notification": true
}