{
  "type": "minecraft:crafting_shapeless",
  "category": "redstone",
  "ingredients": [
    {
      "item": "paradisemod:palo_verde_planks"
    }
  ],
  "result": {
    "item": "paradisemod:palo_verde_button"
  }
}