{
  "type": "minecraft:crafting_shaped",
  "category": "misc",
  "key": {
    "x": {
      "item": "paradisemod:palo_verde_planks"
    }
  },
  "pattern": [
    "xxx",
    "x x",
    "xxx"
  ],
  "result": {
    "item": "paradisemod:palo_verde_chest"
  },
  "show_notification": true
}