{
  "type": "minecraft:crafting_shaped",
  "category": "building",
  "key": {
    "r": {
      "item": "paradisemod:darkstone"
    }
  },
  "pattern": [
    "rr",
    "rr"
  ],
  "result": {
    "item": "paradisemod:polished_darkstone"
  },
  "show_notification": true
}