{
  "type": "minecraft:crafting_shapeless",
  "category": "redstone",
  "ingredients": [
    {
      "item": "paradisemod:polished_calcite"
    }
  ],
  "result": {
    "item": "paradisemod:polished_calcite_button"
  }
}