{
  "type": "minecraft:crafting_shaped",
  "category": "redstone",
  "key": {
    "#": {
      "item": "minecraft:redstone_torch"
    },
    "I": {
      "tag": "forge:stone"
    },
    "Q": {
      "item": "minecraft:quartz"
    },
    "X": {
      "item": "minecraft:redstone"
    }
  },
  "pattern": [
    " X ",
    "#Q#",
    "III"
  ],
  "result": {
    "item": "paradisemod:pulse_extender_repeater"
  },
  "show_notification": true
}