{
  "type": "minecraft:crafting_shaped",
  "category": "redstone",
  "key": {
    "D": {
      "item": "minecraft:red_dye"
    },
    "T": {
      "tag": "paradisemod:transmitters"
    }
  },
  "pattern": [
    "TTT",
    "TDT",
    "TTT"
  ],
  "result": {
    "count": 8,
    "item": "paradisemod:red_transmitter"
  },
  "show_notification": true
}