{
  "type": "minecraft:crafting_shaped",
  "category": "equipment",
  "key": {
    "x": {
      "item": "minecraft:redstone"
    },
    "y": {
      "item": "minecraft:redstone_torch"
    }
  },
  "pattern": [
    " xx",
    " y ",
    " y "
  ],
  "result": {
    "item": "paradisemod:redstone_hoe"
  },
  "show_notification": true
}