{
  "type": "minecraft:crafting_shaped",
  "category": "redstone",
  "key": {
    "G": {
      "tag": "forge:ingots/gold"
    },
    "R": {
      "item": "minecraft:redstone"
    }
  },
  "pattern": [
    "GRG",
    "GRG",
    "GRG"
  ],
  "result": {
    "count": 16,
    "item": "paradisemod:redstone_wire"
  },
  "show_notification": true
}