{
  "type": "minecraft:crafting_shaped",
  "category": "redstone",
  "group": "metal_trapdoors",
  "key": {
    "#": {
      "item": "paradisemod:ruby"
    }
  },
  "pattern": [
    "##",
    "##"
  ],
  "result": {
    "item": "paradisemod:ruby_trapdoor"
  },
  "show_notification": true
}