{
  "type": "minecraft:crafting_shaped",
  "category": "equipment",
  "key": {
    "x": {
      "item": "paradisemod:ruby"
    },
    "y": {
      "item": "minecraft:iron_ingot"
    }
  },
  "pattern": [
    " x ",
    " x ",
    " y "
  ],
  "result": {
    "item": "paradisemod:ruby_sword"
  },
  "show_notification": true
}