{
  "type": "minecraft:crafting_shaped",
  "category": "equipment",
  "key": {
    "x": {
      "item": "paradisemod:ruby"
    }
  },
  "pattern": [
    "x x",
    "xxx",
    "xxx"
  ],
  "result": {
    "item": "paradisemod:ruby_chestplate"
  },
  "show_notification": true
}