{
  "type": "minecraft:crafting_shapeless",
  "category": "redstone",
  "ingredients": [
    {
      "item": "paradisemod:rusted_iron_ingot"
    }
  ],
  "result": {
    "item": "paradisemod:rusted_iron_button"
  }
}