{
  "type": "minecraft:crafting_shaped",
  "category": "misc",
  "key": {
    "i": {
      "item": "paradisemod:rusted_iron_ingot"
    }
  },
  "pattern": [
    "iii",
    "iii"
  ],
  "result": {
    "count": 16,
    "item": "paradisemod:rusted_iron_bars"
  },
  "show_notification": true
}