{
  "type": "minecraft:crafting_shaped",
  "category": "redstone",
  "key": {
    "P": {
      "item": "paradisemod:silver_block"
    },
    "S": {
      "item": "paradisemod:silver_ingot"
    }
  },
  "pattern": [
    "SPS",
    "SPS"
  ],
  "result": {
    "item": "paradisemod:silver_fence_gate"
  },
  "show_notification": true
}