{
  "type": "minecraft:crafting_shaped",
  "category": "redstone",
  "key": {
    "D": {
      "item": "minecraft:diamond"
    },
    "I": {
      "tag": "forge:ingots/iron"
    },
    "O": {
      "item": "minecraft:obsidian"
    },
    "R": {
      "item": "minecraft:redstone"
    }
  },
  "pattern": [
    "III",
    "ODO",
    "ORO"
  ],
  "result": {
    "item": "paradisemod:super_piston"
  },
  "show_notification": true
}