{
  "type": "minecraft:crafting_shaped",
  "category": "building",
  "key": {
    "I": {
      "item": "paradisemod:violet_glowing_obsidian"
    }
  },
  "pattern": [
    "I  ",
    "II ",
    "III"
  ],
  "result": {
    "count": 4,
    "item": "paradisemod:violet_glowing_obsidian_stairs"
  },
  "show_notification": true
}