{
  "type": "minecraft:crafting_shaped",
  "category": "misc",
  "key": {
    "P": {
      "item": "minecraft:warped_planks"
    },
    "S": {
      "item": "minecraft:warped_slab"
    }
  },
  "pattern": [
    "PSP",
    "P P",
    "PSP"
  ],
  "result": {
    "item": "paradisemod:warped_barrel"
  },
  "show_notification": true
}