{
    "carvers": {
        "air": [
            "paradisemod:deep_dark_caves",
            "paradisemod:deep_dark_canyons"
        ]
    },
    "downfall": 0.4,
    "effects": {
        "fog_color": 0,
        "mood_sound": {
            "block_search_extent": 8,
            "offset": 2.0,
            "sound": "minecraft:ambient.cave",
            "tick_delay": 6000
        },
        "music": {
            "max_delay": 24000,
            "min_delay": 12000,
            "replace_current_music": false,
            "sound": "minecraft:music.overworld.deep_dark"
        },
        "sky_color": 0,
        "water_color": 2836811,
        "water_fog_color": 2836811
    },
    "features": [
        [],
        [
            "paradisemod:lake/deep_dark_lava",
            "paradisemod:lake/deep_dark_lava_underground",
            "paradisemod:lake/dark_lava",
            "paradisemod:lake/dark_lava_underground",
            "paradisemod:lake/glowing_water",
            "paradisemod:lake/glowing_water_underground",
            "paradisemod:lake/water",
            "paradisemod:lake/water_underground"
        ],
        [],
        [],
        [
            "paradisemod:small_structure/small_dark_dungeon",
            "paradisemod:small_structure/deep_dark_black_cross",
            "paradisemod:small_structure/deep_dark_gold_cross"
        ],
        [],
        [
            "paradisemod:regen_stone_blob",
            "paradisemod:deepslate_blob"
        ],
        [
            "minecraft:sculk_vein",
            "minecraft:sculk_patch_deep_dark"
        ],
        [
            "paradisemod:spring/glowing_water",
            "paradisemod:spring/deep_dark_water",
            "paradisemod:spring/deep_dark_lava",
            "paradisemod:spring/dark_lava"
        ],
        [],
        []
    ],
    "has_precipitation": true,
    "spawn_costs": {},
    "spawners": {
    "ambient": [],
    "axolotls": [],
    "creature": [],
    "misc": [],
    "monster": [],
    "underground_water_creature": [],
    "water_ambient": [],
    "water_creature": []
    },
    "temperature": 0.8
}
