{
  "feature": "paradisemod:crystals/end_random",
  "placement": [
    {
      "type": "minecraft:height_range",
      "height": {
        "type": "minecraft:uniform",
        "max_inclusive": {
          "absolute": 129
        },
        "min_inclusive": {
          "above_bottom": 0
        }
      }
    }
  ]
}