{
	"credit": "Made with Blockbench",
	"textures": {
		"particle": "paradisemod:block/emerald_rail"
	},
	"elements": [
		{
			"from": [2, 1, 0],
			"to": [4, 2, 16],
			"faces": {
				"north": {"uv": [12, 15, 14, 16], "texture": "#particle"},
				"east": {"uv": [12, 0, 13, 16], "rotation": 270, "texture": "#particle"},
				"south": {"uv": [2, 0, 4, 1], "texture": "#particle"},
				"west": {"uv": [13, 0, 14, 16], "rotation": 90, "texture": "#particle"},
				"up": {"uv": [2, 0, 4, 16], "texture": "#particle"},
				"down": {"uv": [2, 0, 4, 16], "texture": "#particle"}
			}
		},
		{
			"from": [12, 1, 0],
			"to": [14, 2, 16],
			"faces": {
				"north": {"uv": [2, 15, 4, 16], "texture": "#particle"},
				"east": {"uv": [2, 0, 3, 16], "rotation": 90, "texture": "#particle"},
				"south": {"uv": [12, 0, 14, 1], "texture": "#particle"},
				"west": {"uv": [3, 0, 4, 16], "rotation": 90, "texture": "#particle"},
				"up": {"uv": [12, 0, 14, 16], "texture": "#particle"},
				"down": {"uv": [12, 0, 14, 16], "texture": "#particle"}
			}
		},
		{
			"from": [4, 0, 13],
			"to": [12, 1, 15],
			"faces": {
				"north": {"uv": [4, 13, 12, 14], "texture": "#particle"},
				"east": {"uv": [0, 0, 0, 0], "texture": "#particle"},
				"south": {"uv": [4, 2, 12, 3], "texture": "#particle"},
				"west": {"uv": [0, 0, 0, 0], "texture": "#particle"},
				"up": {"uv": [4, 1, 12, 3], "texture": "#particle"},
				"down": {"uv": [4, 13, 12, 15], "rotation": 180, "texture": "#particle"}
			}
		},
		{
			"from": [4, 0, 9],
			"to": [12, 1, 11],
			"faces": {
				"north": {"uv": [4, 9, 12, 10], "texture": "#particle"},
				"east": {"uv": [0, 0, 0, 0], "texture": "#particle"},
				"south": {"uv": [4, 6, 12, 7], "texture": "#particle"},
				"west": {"uv": [0, 0, 0, 0], "texture": "#particle"},
				"up": {"uv": [4, 5, 12, 7], "texture": "#particle"},
				"down": {"uv": [4, 9, 12, 11], "rotation": 180, "texture": "#particle"}
			}
		},
		{
			"from": [4, 0, 5],
			"to": [12, 1, 7],
			"faces": {
				"north": {"uv": [4, 5, 12, 6], "texture": "#particle"},
				"east": {"uv": [0, 0, 0, 0], "texture": "#particle"},
				"south": {"uv": [4, 10, 12, 11], "texture": "#particle"},
				"west": {"uv": [0, 0, 0, 0], "texture": "#particle"},
				"up": {"uv": [4, 9, 12, 11], "texture": "#particle"},
				"down": {"uv": [4, 5, 12, 7], "rotation": 180, "texture": "#particle"}
			}
		},
		{
			"from": [4, 0, 1],
			"to": [12, 1, 3],
			"faces": {
				"north": {"uv": [4, 1, 12, 2], "texture": "#particle"},
				"east": {"uv": [0, 0, 0, 0], "texture": "#particle"},
				"south": {"uv": [4, 14, 12, 15], "texture": "#particle"},
				"west": {"uv": [0, 0, 0, 0], "texture": "#particle"},
				"up": {"uv": [4, 13, 12, 15], "texture": "#particle"},
				"down": {"uv": [4, 1, 12, 3], "rotation": 180, "texture": "#particle"}
			}
		},
		{
			"from": [2, 0, 9],
			"to": [4, 1, 11],
			"faces": {
				"north": {"uv": [7, 9, 9, 10], "texture": "#particle"},
				"east": {"uv": [0, 0, 0, 0], "texture": "#particle"},
				"south": {"uv": [7, 6, 9, 7], "texture": "#particle"},
				"west": {"uv": [0, 0, 0, 0], "texture": "#particle"},
				"up": {"uv": [0, 0, 2, 2], "texture": "#particle"},
				"down": {"uv": [7, 9, 9, 11], "rotation": 180, "texture": "#particle"}
			}
		},
		{
			"from": [2, 0, 13],
			"to": [4, 1, 15],
			"faces": {
				"north": {"uv": [7, 13, 9, 14], "texture": "#particle"},
				"east": {"uv": [0, 0, 0, 0], "texture": "#particle"},
				"south": {"uv": [7, 2, 9, 3], "texture": "#particle"},
				"west": {"uv": [0, 0, 0, 0], "texture": "#particle"},
				"up": {"uv": [0, 0, 2, 2], "texture": "#particle"},
				"down": {"uv": [7, 13, 10, 15], "rotation": 180, "texture": "#particle"}
			}
		},
		{
			"from": [2, 0, 5],
			"to": [4, 1, 7],
			"faces": {
				"north": {"uv": [7, 5, 9, 6], "texture": "#particle"},
				"east": {"uv": [0, 0, 0, 0], "texture": "#particle"},
				"south": {"uv": [7, 10, 9, 11], "texture": "#particle"},
				"west": {"uv": [0, 0, 0, 0], "texture": "#particle"},
				"up": {"uv": [0, 0, 2, 2], "texture": "#particle"},
				"down": {"uv": [7, 5, 9, 7], "rotation": 180, "texture": "#particle"}
			}
		},
		{
			"from": [2, 0, 1],
			"to": [4, 1, 3],
			"faces": {
				"north": {"uv": [7, 1, 9, 2], "texture": "#particle"},
				"east": {"uv": [0, 0, 0, 0], "texture": "#particle"},
				"south": {"uv": [7, 14, 9, 15], "texture": "#particle"},
				"west": {"uv": [0, 0, 0, 0], "texture": "#particle"},
				"up": {"uv": [0, 0, 2, 2], "texture": "#particle"},
				"down": {"uv": [7, 1, 9, 3], "rotation": 180, "texture": "#particle"}
			}
		},
		{
			"from": [12, 0, 9],
			"to": [14, 1, 11],
			"faces": {
				"north": {"uv": [6, 9, 8, 10], "texture": "#particle"},
				"east": {"uv": [0, 0, 0, 0], "texture": "#particle"},
				"south": {"uv": [6, 6, 8, 7], "texture": "#particle"},
				"west": {"uv": [0, 0, 0, 0], "texture": "#particle"},
				"up": {"uv": [0, 0, 2, 2], "texture": "#particle"},
				"down": {"uv": [6, 9, 8, 11], "rotation": 180, "texture": "#particle"}
			}
		},
		{
			"from": [12, 0, 5],
			"to": [14, 1, 7],
			"faces": {
				"north": {"uv": [6, 5, 8, 6], "texture": "#particle"},
				"east": {"uv": [0, 0, 0, 0], "texture": "#particle"},
				"south": {"uv": [6, 10, 8, 11], "texture": "#particle"},
				"west": {"uv": [0, 0, 0, 0], "texture": "#particle"},
				"up": {"uv": [0, 0, 2, 2], "texture": "#particle"},
				"down": {"uv": [6, 5, 8, 7], "rotation": 180, "texture": "#particle"}
			}
		},
		{
			"from": [12, 0, 1],
			"to": [14, 1, 3],
			"faces": {
				"north": {"uv": [6, 1, 8, 2], "texture": "#particle"},
				"east": {"uv": [0, 0, 0, 0], "texture": "#particle"},
				"south": {"uv": [6, 14, 8, 15], "texture": "#particle"},
				"west": {"uv": [0, 0, 0, 0], "texture": "#particle"},
				"up": {"uv": [0, 0, 2, 2], "texture": "#particle"},
				"down": {"uv": [6, 1, 8, 3], "rotation": 180, "texture": "#particle"}
			}
		},
		{
			"from": [12, 0, 13],
			"to": [14, 1, 15],
			"faces": {
				"north": {"uv": [6, 13, 8, 14], "texture": "#particle"},
				"east": {"uv": [0, 0, 0, 0], "texture": "#particle"},
				"south": {"uv": [6, 2, 8, 3], "texture": "#particle"},
				"west": {"uv": [0, 0, 0, 0], "texture": "#particle"},
				"up": {"uv": [0, 0, 2, 2], "texture": "#particle"},
				"down": {"uv": [6, 13, 8, 15], "rotation": 180, "texture": "#particle"}
			}
		},
		{
			"from": [14, 0, 9],
			"to": [15, 1, 11],
			"faces": {
				"north": {"uv": [1, 5, 2, 6], "texture": "#particle"},
				"east": {"uv": [7, 5, 9, 6], "texture": "#particle"},
				"south": {"uv": [1, 6, 2, 7], "texture": "#particle"},
				"west": {"uv": [0, 0, 0, 0], "texture": "#particle"},
				"up": {"uv": [1, 5, 2, 7], "texture": "#particle"},
				"down": {"uv": [1, 9, 2, 11], "rotation": 180, "texture": "#particle"}
			}
		},
		{
			"from": [14, 0, 5],
			"to": [15, 1, 7],
			"faces": {
				"north": {"uv": [1, 10, 2, 11], "texture": "#particle"},
				"east": {"uv": [7, 9, 9, 10], "texture": "#particle"},
				"south": {"uv": [1, 10, 2, 11], "texture": "#particle"},
				"west": {"uv": [0, 0, 0, 0], "texture": "#particle"},
				"up": {"uv": [1, 9, 2, 11], "texture": "#particle"},
				"down": {"uv": [1, 5, 2, 7], "rotation": 180, "texture": "#particle"}
			}
		},
		{
			"from": [14, 0, 1],
			"to": [15, 1, 3],
			"faces": {
				"north": {"uv": [1, 1, 2, 2], "texture": "#particle"},
				"east": {"uv": [7, 13, 9, 14], "texture": "#particle"},
				"south": {"uv": [14, 2, 15, 3], "texture": "#particle"},
				"west": {"uv": [0, 0, 0, 0], "texture": "#particle"},
				"up": {"uv": [1, 13, 2, 15], "texture": "#particle"},
				"down": {"uv": [1, 1, 2, 3], "rotation": 180, "texture": "#particle"}
			}
		},
		{
			"from": [14, 0, 13],
			"to": [15, 1, 15],
			"faces": {
				"north": {"uv": [1, 13, 2, 14], "texture": "#particle"},
				"east": {"uv": [7, 1, 9, 2], "texture": "#particle"},
				"south": {"uv": [1, 14, 2, 15], "texture": "#particle"},
				"west": {"uv": [0, 0, 0, 0], "texture": "#particle"},
				"up": {"uv": [1, 1, 2, 3], "texture": "#particle"},
				"down": {"uv": [1, 13, 2, 15], "rotation": 180, "texture": "#particle"}
			}
		},
		{
			"from": [1, 0, 9],
			"to": [2, 1, 11],
			"faces": {
				"north": {"uv": [14, 9, 15, 10], "texture": "#particle"},
				"east": {"uv": [0, 0, 0, 0], "texture": "#particle"},
				"south": {"uv": [14, 10, 15, 11], "texture": "#particle"},
				"west": {"uv": [7, 10, 9, 11], "texture": "#particle"},
				"up": {"uv": [14, 5, 15, 7], "texture": "#particle"},
				"down": {"uv": [14, 9, 15, 11], "rotation": 180, "texture": "#particle"}
			}
		},
		{
			"from": [1, 0, 5],
			"to": [2, 1, 7],
			"faces": {
				"north": {"uv": [14, 5, 15, 6], "texture": "#particle"},
				"east": {"uv": [0, 0, 0, 0], "texture": "#particle"},
				"south": {"uv": [14, 6, 15, 7], "texture": "#particle"},
				"west": {"uv": [7, 6, 9, 7], "texture": "#particle"},
				"up": {"uv": [14, 9, 15, 11], "texture": "#particle"},
				"down": {"uv": [14, 5, 15, 7], "rotation": 180, "texture": "#particle"}
			}
		},
		{
			"from": [1, 0, 1],
			"to": [2, 1, 3],
			"faces": {
				"north": {"uv": [14, 1, 15, 2], "texture": "#particle"},
				"east": {"uv": [0, 0, 0, 0], "texture": "#particle"},
				"south": {"uv": [14, 2, 15, 3], "texture": "#particle"},
				"west": {"uv": [7, 2, 9, 3], "texture": "#particle"},
				"up": {"uv": [14, 1, 15, 3], "texture": "#particle"},
				"down": {"uv": [14, 1, 15, 3], "rotation": 180, "texture": "#particle"}
			}
		},
		{
			"from": [1, 0, 13],
			"to": [2, 1, 15],
			"faces": {
				"north": {"uv": [14, 13, 15, 14], "texture": "#particle"},
				"east": {"uv": [0, 0, 0, 0], "texture": "#particle"},
				"south": {"uv": [14, 14, 15, 15], "texture": "#particle"},
				"west": {"uv": [7, 14, 9, 15], "texture": "#particle"},
				"up": {"uv": [14, 1, 15, 3], "texture": "#particle"},
				"down": {"uv": [14, 13, 15, 15], "rotation": 180, "texture": "#particle"}
			}
		}
	]
}
