{
	"credit": "Made with Blockbench",
	"texture_size": [20, 20],
	"textures": {
		"particle": "paradisemod:block/prickly_pear"
	},
	"elements": [
		{
			"from": [8.38312, 14.3658, 5],
			"to": [9.38312, 15.3658, 11],
			"rotation": {"angle": -45, "axis": "x", "origin": [8.88312, 7.11688, 8], "rescale": true},
			"faces": {
				"north": {"uv": [4, 2.4, 4.8, 4], "texture": "#particle"},
				"east": {"uv": [6.4, 4.8, 11.2, 5.6], "texture": "#particle"},
				"south": {"uv": [1.6, 2.4, 2.4, 3.2], "texture": "#particle"},
				"west": {"uv": [4, 5.6, 8.8, 6.4], "texture": "#particle"},
				"up": {"uv": [4.8, 6.4, 9.6, 7.2], "rotation": 270, "texture": "#particle"}
			}
		},
		{
			"from": [8.38312, 2.3658, 4],
			"to": [9.38312, 14.3658, 12],
			"rotation": {"angle": -45, "axis": "x", "origin": [8.88312, 7.11688, 8], "rescale": true},
			"faces": {
				"north": {"uv": [5.6, 0, 15.2, 0.8], "rotation": 90, "texture": "#particle"},
				"east": {"uv": [0, 0, 9.6, 6.4], "rotation": 90, "texture": "#particle"},
				"south": {"uv": [0, 0, 9.6, 0.8], "rotation": 90, "texture": "#particle"},
				"west": {"uv": [6.4, 0, 16, 6.4], "rotation": 90, "texture": "#particle"},
				"up": {"uv": [2.4, 4, 8.8, 4.8], "rotation": 270, "texture": "#particle"},
				"down": {"uv": [0, 0, 6.4, 0.8], "rotation": 90, "texture": "#particle"}
			}
		},
		{
			"from": [8.38312, -0.6342, 6],
			"to": [9.38312, 2.3658, 10],
			"rotation": {"angle": -45, "axis": "x", "origin": [8.88312, 7.11688, 8], "rescale": true},
			"faces": {
				"north": {"uv": [2.4, 4, 3.2, 6.4], "texture": "#particle"},
				"east": {"uv": [5.6, 5.6, 8.8, 8], "texture": "#particle"},
				"south": {"uv": [1.6, 5.6, 2.4, 8], "texture": "#particle"},
				"west": {"uv": [4, 4.8, 7.2, 7.2], "texture": "#particle"},
				"down": {"uv": [3.2, 4, 6.4, 4.8], "rotation": 90, "texture": "#particle"}
			}
		},
		{
			"from": [8.38312, -2.6342, 7],
			"to": [9.38312, -0.6342, 9],
			"rotation": {"angle": -45, "axis": "x", "origin": [8.88312, 7.11688, 8], "rescale": true},
			"faces": {
				"north": {"uv": [5.6, 4.92308, 6.4, 6.15385], "texture": "#particle"},
				"east": {"uv": [8, 6.4, 9.6, 8], "texture": "#particle"},
				"south": {"uv": [2.4, 2.4, 3.2, 4], "texture": "#particle"},
				"west": {"uv": [8, 6.4, 9.6, 8], "texture": "#particle"},
				"down": {"uv": [4.8, 4, 6.4, 4.8], "rotation": 90, "texture": "#particle"}
			}
		},
		{
			"from": [8.38312, 15.3658, 6],
			"to": [9.38312, 16.3658, 10],
			"rotation": {"angle": -45, "axis": "x", "origin": [8.88312, 7.11688, 8], "rescale": true},
			"faces": {
				"north": {"uv": [4, 2.4, 4.8, 3.2], "texture": "#particle"},
				"east": {"uv": [8.8, 7.2, 12, 8], "texture": "#particle"},
				"south": {"uv": [5.6, 5.6, 6.4, 6.4], "texture": "#particle"},
				"west": {"uv": [3.2, 6.4, 6.4, 7.2], "texture": "#particle"},
				"up": {"uv": [4, 7.2, 7.2, 8], "rotation": 270, "texture": "#particle"}
			}
		},
		{
			"from": [9.38312, 13.3658, 6],
			"to": [10.38312, 14.3658, 10],
			"rotation": {"angle": -45, "axis": "x", "origin": [8.88312, 7.11688, 8], "rescale": true},
			"faces": {
				"north": {"uv": [4, 0, 4.8, 0.8], "texture": "#particle"},
				"east": {"uv": [0, 0, 3.2, 0.8], "texture": "#particle"},
				"south": {"uv": [0, 0, 0.8, 0.8], "texture": "#particle"},
				"up": {"uv": [0, 0, 3.2, 0.8], "rotation": 270, "texture": "#particle"}
			}
		},
		{
			"from": [9.38312, 2.3658, 6],
			"to": [10.38312, 3.3658, 10],
			"rotation": {"angle": -45, "axis": "x", "origin": [8.88312, 7.11688, 8], "rescale": true},
			"faces": {
				"north": {"uv": [4, 2.4, 4.8, 3.2], "texture": "#particle"},
				"east": {"uv": [12.8, 0, 16, 0.8], "texture": "#particle"},
				"south": {"uv": [0, 0, 0.8, 0.8], "texture": "#particle"},
				"down": {"uv": [5.6, 7.2, 8.8, 8], "rotation": 90, "texture": "#particle"}
			}
		},
		{
			"from": [7.38312, 2.3658, 6],
			"to": [8.38312, 3.3658, 10],
			"rotation": {"angle": -45, "axis": "x", "origin": [8.88312, 7.11688, 8], "rescale": true},
			"faces": {
				"north": {"uv": [1.6, 2.46154, 2.4, 3.26154], "texture": "#particle"},
				"south": {"uv": [4.8, 4.8, 5.6, 5.6], "texture": "#particle"},
				"west": {"uv": [12.8, 0, 16, 0.8], "texture": "#particle"},
				"down": {"uv": [4, 4.8, 7.2, 5.6], "rotation": 90, "texture": "#particle"}
			}
		},
		{
			"from": [7.38312, 3.3658, 5],
			"to": [8.38312, 13.3658, 11],
			"rotation": {"angle": -45, "axis": "x", "origin": [8.88312, 7.11688, 8], "rescale": true},
			"faces": {
				"north": {"uv": [10.4, 0, 11.2, 8], "texture": "#particle"},
				"south": {"uv": [0, 0, 0.8, 8], "texture": "#particle"},
				"west": {"uv": [11.2, 0, 16, 8], "texture": "#particle"},
				"up": {"uv": [4, 6.4, 8.8, 7.2], "rotation": 270, "texture": "#particle"},
				"down": {"uv": [4.8, 4.8, 9.6, 5.6], "rotation": 90, "texture": "#particle"}
			}
		},
		{
			"from": [7.38312, 13.3658, 6],
			"to": [8.38312, 14.3658, 10],
			"rotation": {"angle": -45, "axis": "x", "origin": [8.88312, 7.11688, 8], "rescale": true},
			"faces": {
				"north": {"uv": [4, 6.4, 4.8, 7.2], "texture": "#particle"},
				"south": {"uv": [1.6, 4.92308, 2.4, 5.72308], "texture": "#particle"},
				"west": {"uv": [0, 0, 3.2, 0.8], "texture": "#particle"},
				"up": {"uv": [2.4, 4.8, 5.6, 5.6], "rotation": 270, "texture": "#particle"}
			}
		},
		{
			"from": [9.38312, 3.3658, 5],
			"to": [10.38312, 13.3658, 11],
			"rotation": {"angle": -45, "axis": "x", "origin": [8.88312, 7.11688, 8], "rescale": true},
			"faces": {
				"north": {"uv": [15.2, 0, 16, 8], "texture": "#particle"},
				"east": {"uv": [0, 0, 4.8, 8], "texture": "#particle"},
				"south": {"uv": [0, 0, 0.8, 8], "texture": "#particle"},
				"up": {"uv": [0, 0, 4.8, 0.8], "rotation": 270, "texture": "#particle"},
				"down": {"uv": [11.2, 0, 16, 0.8], "rotation": 90, "texture": "#particle"}
			}
		},
		{
			"from": [9.38312, 14.3658, 7],
			"to": [10.38312, 15.3658, 9],
			"rotation": {"angle": -45, "axis": "x", "origin": [8.88312, 7.11688, 8], "rescale": true},
			"faces": {
				"north": {"uv": [0, 0, 0.8, 0.8], "texture": "#particle"},
				"east": {"uv": [14.4, 0, 16, 0.8], "texture": "#particle"},
				"south": {"uv": [0, 0, 0.8, 0.8], "texture": "#particle"},
				"up": {"uv": [0, 0, 1.6, 0.8], "rotation": 270, "texture": "#particle"}
			}
		},
		{
			"from": [7.38312, 14.3658, 7],
			"to": [8.38312, 15.3658, 9],
			"rotation": {"angle": -45, "axis": "x", "origin": [8.88312, 7.11688, 8], "rescale": true},
			"faces": {
				"north": {"uv": [3.2, 6.4, 4, 7.2], "texture": "#particle"},
				"south": {"uv": [8, 4.8, 8.8, 5.6], "texture": "#particle"},
				"west": {"uv": [0, 0, 1.6, 0.8], "texture": "#particle"},
				"up": {"uv": [4, 6.4, 5.6, 7.2], "rotation": 270, "texture": "#particle"}
			}
		},
		{
			"from": [11.38312, 14.3658, 7],
			"to": [13.38312, 16.3658, 9],
			"rotation": {"angle": -45, "axis": "x", "origin": [8.88312, 7.11688, 8], "rescale": true},
			"faces": {
				"north": {"uv": [0.8, 8, 2.4, 9.6], "texture": "#particle"},
				"east": {"uv": [0, 8, 1.6, 9.6], "texture": "#particle"},
				"south": {"uv": [0, 8, 1.6, 9.6], "texture": "#particle"},
				"west": {"uv": [0, 8, 1.6, 9.6], "texture": "#particle"},
				"up": {"uv": [0.8, 8, 2.4, 9.6], "rotation": 270, "texture": "#particle"},
				"down": {"uv": [0, 8, 1.6, 9.6], "rotation": 90, "texture": "#particle"}
			}
		},
		{
			"from": [10.38312, 12.3658, 7],
			"to": [12.38312, 14.3658, 9],
			"rotation": {"angle": -45, "axis": "x", "origin": [8.88312, 7.11688, 8], "rescale": true},
			"faces": {
				"north": {"uv": [0, 8, 1.6, 9.6], "texture": "#particle"},
				"east": {"uv": [0, 8, 1.6, 9.6], "texture": "#particle"},
				"south": {"uv": [0, 8, 1.6, 9.6], "texture": "#particle"},
				"up": {"uv": [0.8, 8.8, 2.4, 10.4], "rotation": 270, "texture": "#particle"},
				"down": {"uv": [0, 8, 1.6, 9.6], "rotation": 90, "texture": "#particle"}
			}
		},
		{
			"from": [5.38312, 12.3658, 7],
			"to": [7.38312, 14.3658, 9],
			"rotation": {"angle": -45, "axis": "x", "origin": [8.88312, 7.11688, 8], "rescale": true},
			"faces": {
				"north": {"uv": [0, 8.8, 1.6, 10.4], "texture": "#particle"},
				"south": {"uv": [0.8, 8.8, 2.4, 10.4], "texture": "#particle"},
				"west": {"uv": [0, 8, 1.6, 9.6], "texture": "#particle"},
				"up": {"uv": [0, 8.8, 1.6, 10.4], "rotation": 270, "texture": "#particle"},
				"down": {"uv": [0, 8, 1.6, 9.6], "rotation": 90, "texture": "#particle"}
			}
		},
		{
			"from": [4.38312, 14.3658, 7],
			"to": [6.38312, 16.3658, 9],
			"rotation": {"angle": -45, "axis": "x", "origin": [8.88312, 7.11688, 8], "rescale": true},
			"faces": {
				"north": {"uv": [0.8, 8, 2.4, 9.6], "texture": "#particle"},
				"east": {"uv": [0, 8, 1.6, 9.6], "texture": "#particle"},
				"south": {"uv": [0.8, 8.8, 2.4, 10.4], "texture": "#particle"},
				"west": {"uv": [0, 8.8, 1.6, 10.4], "texture": "#particle"},
				"up": {"uv": [0.8, 8, 2.4, 9.6], "rotation": 270, "texture": "#particle"},
				"down": {"uv": [0, 8, 1.6, 9.6], "rotation": 90, "texture": "#particle"}
			}
		}
	],
	"groups": [
		{
			"name": "0",
			"origin": [8, 8, 8],
			"color": 0,
			"children": [0, 1, 2, 3, 4, 5, 6, 7, 8, 9, 10, 11, 12, 13, 14, 15, 16]
		}
	]
}