{
  "elements": [
    {
      "element": {
        "element_type": "paradisemod:improved_element",
        "location": "paradisemod:dungeons/medium_dark_dungeon",
        "post_processor": "dark_dungeon",
        "processors": {
          "processors": [
            {
              "processor_type": "paradisemod:dark_dungeon"
            }
          ]
        },
        "projection": "rigid"
      },
      "weight": 1
    }
  ],
  "fallback": "minecraft:empty"
}