{
	"credit": "Made with Blockbench",
	"texture_size": [20, 20],
	"textures": {
		"particle": "paradisemod:block/redstone_wire/wire",
		"texture": "paradisemod:block/redstone_wire/wire"
	},
	"elements": [
		{
			"from": [6, 6, 6],
			"to": [10, 10, 10],
			"faces": {
				"north": {"uv": [0, 0, 3.2, 3.2], "texture": "#texture", "tintindex": 0 },
				"east": {"uv": [0, 0, 3.2, 3.2], "texture": "#texture", "tintindex": 0 },
				"south": {"uv": [0, 0, 3.2, 3.2], "texture": "#texture", "tintindex": 0 },
				"west": {"uv": [0, 0, 3.2, 3.2], "texture": "#texture", "tintindex": 0 },
				"up": {"uv": [0, 0, 3.2, 3.2], "texture": "#texture", "tintindex": 0 },
				"down": {"uv": [0, 0, 3.2, 3.2], "texture": "#texture", "tintindex": 0 }
			}
		}
	]
}
