{
	"credit": "Made with Blockbench",
	"texture_size": [20, 20],
	"textures": {
		"particle": "paradisemod:block/redstone_wire/wire",
		"texture": "paradisemod:block/redstone_wire/wire"
	},
	"elements": [
		{
			"from": [6, 6, 0],
			"to": [10, 10, 6],
			"rotation": {"angle": 0, "axis": "y", "origin": [8, 8, 8]},
			"faces": {
				"north": {"uv": [0, 0, 3.2, 3.2], "texture": "#texture", "tintindex": 0 },
				"east": {"uv": [0, 3.2, 3.2, 8], "rotation": 90, "texture": "#texture", "tintindex": 0 },
				"west": {"uv": [0, 3.2, 3.2, 8], "rotation": 270, "texture": "#texture", "tintindex": 0 },
				"up": {"uv": [0, 3.2, 3.2, 8], "texture": "#texture", "tintindex": 0 },
				"down": {"uv": [0, 3.2, 3.2, 8], "rotation": 180, "texture": "#texture", "tintindex": 0 }
			}
		}
	]
}
