{
  "values": [
    "paradisemod:black_lantern",
    "paradisemod:blue_lantern",
    "paradisemod:brown_lantern",
    "paradisemod:cyan_lantern",
    "paradisemod:gray_lantern",
    "paradisemod:green_lantern",
    "paradisemod:light_blue_lantern",
    "paradisemod:light_gray_lantern",
    "paradisemod:lime_lantern",
    "paradisemod:magenta_lantern",
    "paradisemod:orange_lantern",
    "paradisemod:pink_lantern",
    "paradisemod:purple_lantern",
    "paradisemod:red_lantern",
    "paradisemod:white_lantern",
    "paradisemod:yellow_lantern",
    "minecraft:lantern",
    "minecraft:soul_lantern",
    {
      "id": "charm:gold_lantern",
      "required": false
    },
    {
      "id": "charm:gold_soul_lantern",
      "required": false
    },
    {
      "id": "byg:therium_lantern",
      "required": false
    },
    {
      "id": "byg:glowstone_lantern",
      "required": false
    }
  ]
}