{
  "values": [
    "paradisemod:diamond_fence",
    "paradisemod:emerald_fence",
    "paradisemod:gold_fence",
    "paradisemod:iron_fence",
    "paradisemod:redstone_fence",
    "paradisemod:ruby_fence",
    "paradisemod:rusted_iron_fence",
    "paradisemod:silver_fence"
  ]
}