{
  "values": [
    "paradisemod:dummy1_chest",
    "paradisemod:trapped_dummy1_chest",
    "paradisemod:dummy2_chest",
    "paradisemod:trapped_dummy2_chest",
    "paradisemod:dummy3_chest",
    "paradisemod:trapped_dummy3_chest",
    "paradisemod:cactus_chest",
    "paradisemod:trapped_cactus_chest",
    "paradisemod:palo_verde_chest",
    "paradisemod:trapped_palo_verde_chest",
    "paradisemod:mesquite_chest",
    "paradisemod:trapped_mesquite_chest",
    "paradisemod:blackened_oak_chest",
    "paradisemod:trapped_blackened_oak_chest",
    "paradisemod:blackened_spruce_chest",
    "paradisemod:trapped_blackened_spruce_chest",
    "paradisemod:glowing_oak_chest",
    "paradisemod:trapped_glowing_oak_chest",
    "paradisemod:glowing_cactus_chest",
    "paradisemod:trapped_glowing_cactus_chest"
  ]
}