{
  "type": "minecraft:blasting",
  "category": "misc",
  "cookingtime": 100,
  "experience": 0.1,
  "ingredient": {
    "item": "paradisemod:darkstone_gold_ore"
  },
  "result": "minecraft:gold_ingot"
}