{
  "values": [
    "paradisemod:cactus_hanging_sign",
    "paradisemod:glowing_cactus_hanging_sign",
    "paradisemod:palo_verde_hanging_sign",
    "paradisemod:mesquite_hanging_sign",
    "paradisemod:blackened_oak_hanging_sign",
    "paradisemod:blackened_spruce_hanging_sign",
    "paradisemod:glowing_oak_hanging_sign"
  ]
}