{
  "values": [
    "paradisemod:potted_black_rose",
    "paradisemod:potted_blue_rose",
    "paradisemod:potted_brown_rose",
    "paradisemod:potted_cyan_rose",
    "paradisemod:potted_ender_rose",
    "paradisemod:potted_gray_rose",
    "paradisemod:potted_green_rose",
    "paradisemod:potted_light_blue_rose",
    "paradisemod:potted_light_gray_rose",
    "paradisemod:potted_magenta_rose",
    "paradisemod:potted_orange_rose",
    "paradisemod:potted_lime_rose",
    "paradisemod:potted_pink_rose",
    "paradisemod:potted_purple_rose",
    "paradisemod:potted_red_rose",
    "paradisemod:potted_white_rose",
    "paradisemod:potted_yellow_rose",
    "paradisemod:potted_glowshroom",
    "paradisemod:potted_blue_autumn_sapling",
    "paradisemod:potted_orange_autumn_sapling",
    "paradisemod:potted_red_autumn_sapling",
    "paradisemod:potted_yellow_autumn_sapling",
    "paradisemod:potted_christmas_tree_sapling",
    "paradisemod:potted_palo_verde_sapling",
    "paradisemod:potted_mesquite_sapling",
    "paradisemod:potted_blackened_oak_sapling",
    "paradisemod:potted_blackened_spruce_sapling",
    "paradisemod:potted_glowing_oak_sapling",
    "paradisemod:potted_emerald_crystal_cluster",
    "paradisemod:potted_diamond_crystal_cluster",
    "paradisemod:potted_honey_crystal_cluster",
    "paradisemod:potted_lapis_crystal_cluster",
    "paradisemod:potted_quartz_crystal_cluster",
    "paradisemod:potted_redstone_crystal_cluster",
    "paradisemod:potted_ruby_crystal_cluster",
    "paradisemod:potted_salt_crystal_cluster",
    "paradisemod:potted_ender_pearl_cluster",
    "paradisemod:potted_soul_pumpkin",
    "paradisemod:potted_glowing_cactus"
  ]
}