{
  "values": [
    "paradisemod:blue_autumn_leaves",
    "paradisemod:orange_autumn_leaves",
    "paradisemod:red_autumn_leaves",
    "paradisemod:yellow_autumn_leaves",
    "paradisemod:palo_verde_leaves",
    "paradisemod:mesquite_leaves",
    "paradisemod:blackened_oak_leaves",
    "paradisemod:blackened_spruce_leaves",
    "paradisemod:glowing_oak_leaves",
    "paradisemod:christmas_tree_leaves"
  ]
}