{
  "values": [
    "paradisemod:silver_ore",
    "paradisemod:deepslate_silver_ore",
    "paradisemod:darkstone_iron_ore",
    "paradisemod:blaze_block",
    "paradisemod:rusted_iron_block",
    "paradisemod:emerald_door",
    "paradisemod:ruby_door",
    "paradisemod:iron_fence",
    "paradisemod:rusted_iron_fence",
    "paradisemod:iron_fence_gate",
    "paradisemod:rusted_iron_fence_gate",
    "paradisemod:emerald_trapdoor",
    "paradisemod:ruby_trapdoor",
    "paradisemod:silver_hopper"
  ]
}