{
  "values": [
    "paradisemod:cactus_sign",
    "paradisemod:glowing_cactus_sign",
    "paradisemod:palo_verde_sign",
    "paradisemod:mesquite_sign",
    "paradisemod:blackened_oak_sign",
    "paradisemod:blackened_spruce_sign",
    "paradisemod:glowing_oak_sign"
  ]
}