{
  "values": [
    "paradisemod:andesite_button",
    "paradisemod:diorite_button",
    "paradisemod:granite_button",
    "paradisemod:cobblestone_button",
    "paradisemod:deepslate_button",
    "paradisemod:polished_deepslate_button",
    "paradisemod:cobbled_deepslate_button",
    "paradisemod:mossy_cobblestone_button",
    "paradisemod:end_stone_button",
    "paradisemod:dripstone_button",
    "paradisemod:calcite_button",
    "paradisemod:tuff_button",
    "paradisemod:darkstone_button",
    "paradisemod:blackstone_button",
    "paradisemod:polished_andesite_button",
    "paradisemod:polished_diorite_button",
    "paradisemod:polished_granite_button",
    "paradisemod:polished_dripstone_button",
    "paradisemod:polished_calcite_button",
    "paradisemod:polished_tuff_button",
    "paradisemod:smooth_stone_button",
    "paradisemod:polished_end_stone_button",
    "paradisemod:polished_darkstone_button",
    "paradisemod:sandstone_button",
    "paradisemod:red_sandstone_button",
    "paradisemod:blackened_sandstone_button",
    "paradisemod:obsidian_button",
    "paradisemod:polished_asphalt_button"
  ]
}