{
  "values": [
    "paradisemod:andesite_trapdoor",
    "paradisemod:bedrock_trapdoor",
    "paradisemod:cobblestone_trapdoor",
    "paradisemod:diorite_trapdoor",
    "paradisemod:end_stone_trapdoor",
    "paradisemod:granite_trapdoor",
    "paradisemod:mossy_cobblestone_trapdoor",
    "paradisemod:obsidian_trapdoor",
    "paradisemod:stone_trapdoor",
    "paradisemod:diamond_trapdoor",
    "paradisemod:gold_trapdoor",
    "paradisemod:emerald_trapdoor",
    "paradisemod:ruby_trapdoor",
    "paradisemod:rusted_iron_trapdoor",
    "paradisemod:silver_trapdoor",
    "paradisemod:redstone_trapdoor",
    "paradisemod:glass_trapdoor",
    "paradisemod:black_glowing_obsidian_trapdoor",
    "paradisemod:blue_glowing_obsidian_trapdoor",
    "paradisemod:green_glowing_obsidian_trapdoor",
    "paradisemod:indigo_glowing_obsidian_trapdoor",
    "paradisemod:orange_glowing_obsidian_trapdoor",
    "paradisemod:red_glowing_obsidian_trapdoor",
    "paradisemod:violet_glowing_obsidian_trapdoor",
    "paradisemod:white_glowing_obsidian_trapdoor",
    "paradisemod:yellow_glowing_obsidian_trapdoor",
    "paradisemod:gold_glowing_obsidian_trapdoor",
    "paradisemod:silver_glowing_obsidian_trapdoor",
    "paradisemod:iron_glowing_obsidian_trapdoor",
    "paradisemod:copper_glowing_obsidian_trapdoor"
  ]
}