{
  "values": [
    "paradisemod:cactus_trapdoor",
    "paradisemod:palo_verde_trapdoor",
    "paradisemod:mesquite_trapdoor",
    "paradisemod:blackened_oak_trapdoor",
    "paradisemod:blackened_spruce_trapdoor",
    "paradisemod:glowing_oak_trapdoor",
    "paradisemod:glowing_cactus_trapdoor"
  ]
}