{
  "type": "minecraft:random_selector",
  "config": {
    "default": "paradisemod:tree/orange_autumn_oak",
    "features": [
      {
        "chance": 0.2,
        "feature": "paradisemod:tree/orange_autumn_oak"
      },
      {
        "chance": 0.2,
        "feature": "paradisemod:tree/orange_autumn_oak_bees"
      },
      {
        "chance": 0.2,
        "feature": "paradisemod:tree/fancy_orange_autumn_oak"
      },
      {
        "chance": 0.2,
        "feature": "paradisemod:tree/fancy_orange_autumn_oak_bees"
      },
      {
        "chance": 0.2,
        "feature": "paradisemod:tree/orange_autumn_birch"
      },
      {
        "chance": 0.2,
        "feature": "paradisemod:tree/orange_autumn_birch_bees"
      },
      {
        "chance": 0.2,
        "feature": "paradisemod:tree/fancy_orange_autumn_birch"
      },
      {
        "chance": 0.2,
        "feature": "paradisemod:tree/fancy_orange_autumn_birch_bees"
      },
      {
        "chance": 0.2,
        "feature": "paradisemod:tree/orange_autumn_spruce"
      },
      {
        "chance": 0.2,
        "feature": "paradisemod:tree/orange_autumn_spruce_bees"
      },
      {
        "chance": 0.2,
        "feature": "paradisemod:tree/fancy_orange_autumn_spruce"
      },
      {
        "chance": 0.2,
        "feature": "paradisemod:tree/fancy_orange_autumn_spruce_bees"
      }
    ]
  }
}