{
  "type": "minecraft:lake",
  "config": {
    "barrier": {
      "type": "minecraft:simple_state_provider",
      "state": {
        "Name": "minecraft:honey_block"
      }
    },
    "fluid": {
      "type": "minecraft:simple_state_provider",
      "state": {
        "Name": "paradisemod:honey",
        "Properties": {
          "level": "0"
        }
      }
    }
  }
}