{
  "parent": "minecraft:block/cube",
  "textures": {
    "down": "minecraft:block/birch_planks",
    "east": "paradisemod:block/crafting_table/birch_side",
    "north": "paradisemod:block/crafting_table/birch_front",
    "particle": "minecraft:block/birch_planks",
    "south": "paradisemod:block/crafting_table/birch_front",
    "up": "paradisemod:block/crafting_table/birch_top",
    "west": "paradisemod:block/crafting_table/birch_side"
  }
}