{
  "parent": "minecraft:block/cube",
  "textures": {
    "down": "paradisemod:block/cactus_block",
    "east": "paradisemod:block/crafting_table/cactus_side",
    "north": "paradisemod:block/crafting_table/cactus_front",
    "particle": "paradisemod:block/cactus_block",
    "south": "paradisemod:block/crafting_table/cactus_front",
    "up": "paradisemod:block/crafting_table/cactus_top",
    "west": "paradisemod:block/crafting_table/cactus_side"
  }
}