{
  "parent": "minecraft:block/cube",
  "textures": {
    "down": "minecraft:block/dark_oak_planks",
    "east": "paradisemod:block/crafting_table/dark_oak_side",
    "north": "paradisemod:block/crafting_table/dark_oak_front",
    "particle": "minecraft:block/dark_oak_planks",
    "south": "paradisemod:block/crafting_table/dark_oak_front",
    "up": "paradisemod:block/crafting_table/dark_oak_top",
    "west": "paradisemod:block/crafting_table/dark_oak_side"
  }
}