{
	"render_type":"cutout",
	"credit": "Made with Blockbench",
	"texture_size": [24, 24],
	"textures": {
		"2": "paradisemod:block/wire_repeater",
		"particle": "paradisemod:block/wire_repeater"
	},
	"elements": [
		{
			"from": [3, 4, 2],
			"to": [13, 12, 14],
			"rotation": {"angle": 0, "axis": "x", "origin": [8, 8, 8]},
			"faces": {
				"north": {"uv": [0, 7.33333, 6.66667, 12.66667], "rotation": 180, "texture": "#2"},
				"east": {"uv": [8, 0.66667, 16, 6], "texture": "#2"},
				"south": {"uv": [0, 7.33333, 6.66667, 12.66667], "rotation": 180, "texture": "#2"},
				"west": {"uv": [8, 0.66667, 16, 6], "rotation": 180, "texture": "#2"}
			}
		},
		{
			"from": [6, 6, 14],
			"to": [10, 10, 16],
			"faces": {
				"east": {"uv": [6.66666, 9.33333, 9.33333, 10.66667], "rotation": 270, "texture": "#2"},
				"south": {"uv": [6.66666, 6.66667, 9.33333, 9.33333], "texture": "#2"},
				"west": {"uv": [6.66666, 9.33333, 9.33333, 10.66667], "rotation": 90, "texture": "#2"},
				"up": {"uv": [6.66666, 9.33333, 9.33333, 10.66667], "rotation": 180, "texture": "#2"},
				"down": {"uv": [6.66666, 9.33333, 9.33333, 10.66667], "texture": "#2"}
			}
		},
		{
			"from": [6, 6, 0],
			"to": [10, 10, 2],
			"rotation": {"angle": 0, "axis": "y", "origin": [8, 8, 8]},
			"faces": {
				"north": {"uv": [6.66666, 6.66667, 9.33333, 9.33333], "texture": "#2"},
				"east": {"uv": [6.66666, 9.33333, 9.33333, 10.66667], "rotation": 90, "texture": "#2"},
				"west": {"uv": [6.66666, 9.33333, 9.33333, 10.66667], "rotation": 270, "texture": "#2"},
				"up": {"uv": [6.66666, 9.33333, 9.33333, 10.66667], "texture": "#2"},
				"down": {"uv": [6.66666, 9.33333, 9.33333, 10.66667], "rotation": 180, "texture": "#2"}
			}
		},
		{
			"from": [3, 12, 2],
			"to": [13, 13, 3],
			"faces": {
				"north": {"uv": [0, 6.66667, 6.66667, 7.33333], "texture": "#2"},
				"east": {"uv": [15.33333, 0, 16, 0.66667], "texture": "#2"},
				"west": {"uv": [15.33333, 0, 16, 0.66667], "texture": "#2"},
				"up": {"uv": [0, 0, 0.66667, 6.66667], "rotation": 90, "texture": "#2"}
			}
		},
		{
			"from": [3, 12, 13],
			"to": [13, 13, 14],
			"faces": {
				"east": {"uv": [8, 0, 8.66667, 0.66667], "texture": "#2"},
				"south": {"uv": [0, 6.66667, 6.66667, 7.33333], "texture": "#2"},
				"west": {"uv": [8, 0, 8.66667, 0.66667], "texture": "#2"},
				"up": {"uv": [8, 0, 7.33333, 6.66667], "rotation": 90, "texture": "#2"}
			}
		},
		{
			"from": [3, 12, 3],
			"to": [7, 13, 13],
			"faces": {
				"east": {"uv": [8.66667, 0, 15.33333, 0.66667], "texture": "#2"},
				"west": {"uv": [8.66667, 0, 15.33333, 0.66667], "texture": "#2"},
				"up": {"uv": [0.66667, 4, 7.33333, 6.66667], "rotation": 90, "texture": "#2"}
			}
		},
		{
			"from": [9, 12, 3],
			"to": [13, 13, 13],
			"faces": {
				"east": {"uv": [8.66667, 0, 15.33333, 0.66667], "texture": "#2"},
				"west": {"uv": [8.66667, 0, 15.33333, 0.66667], "texture": "#2"},
				"up": {"uv": [0.66667, 0, 7.33333, 2.66667], "rotation": 90, "texture": "#2"}
			}
		},
		{
			"from": [3, 3, 2],
			"to": [13, 4, 3],
			"faces": {
				"north": {"uv": [0, 12.66667, 6.66667, 13.33333], "texture": "#2"},
				"east": {"uv": [15.33333, 6, 16, 6.66667], "texture": "#2"},
				"west": {"uv": [15.33333, 6, 16, 6.66667], "texture": "#2"},
				"down": {"uv": [7.33333, 0, 8, 6.66667], "rotation": 90, "texture": "#2"}
			}
		},
		{
			"from": [3, 3, 13],
			"to": [13, 4, 14],
			"faces": {
				"east": {"uv": [8, 6, 8.66667, 6.66667], "texture": "#2"},
				"south": {"uv": [0, 12.66667, 6.66667, 13.33333], "texture": "#2"},
				"west": {"uv": [8, 6, 8.66667, 6.66667], "texture": "#2"},
				"down": {"uv": [0, 0, 0.66667, 6.66667], "rotation": 90, "texture": "#2"}
			}
		},
		{
			"from": [3, 3, 3],
			"to": [7, 4, 13],
			"faces": {
				"east": {"uv": [8.66667, 6, 15.33333, 6.66667], "texture": "#2"},
				"west": {"uv": [8.66667, 6, 15.33333, 6.66667], "texture": "#2"},
				"down": {"uv": [0.66667, 4, 7.33333, 6.66667], "rotation": 90, "texture": "#2"}
			}
		},
		{
			"from": [9, 3, 3],
			"to": [13, 4, 13],
			"faces": {
				"east": {"uv": [8.66667, 6, 15.33333, 6.66667], "texture": "#2"},
				"west": {"uv": [8.66667, 6, 15.33333, 6.66667], "texture": "#2"},
				"down": {"uv": [0.66667, 0, 7.33333, 2.66667], "rotation": 90, "texture": "#2"}
			}
		},
		{
			"from": [7, 15, 3],
			"to": [9, 16, 5],
			"faces": {
				"up": {"uv": [7.33333, 11.33333, 8.66667, 12.66667], "texture": "#2"}
			}
		},
		{
			"from": [6, 12, 3],
			"to": [10, 17, 5],
			"rotation": {"angle": 0, "axis": "y", "origin": [1, 2.5, 2]},
			"faces": {
				"north": {"uv": [6.66667, 10.66667, 9.33333, 14], "texture": "#2"},
				"south": {"uv": [6.66667, 10.66667, 9.33333, 14], "texture": "#2"}
			}
		},
		{
			"from": [7, 12, 2],
			"to": [9, 17, 6],
			"faces": {
				"east": {"uv": [6.66667, 10.66667, 9.33333, 14], "texture": "#2"},
				"west": {"uv": [6.66667, 10.66667, 9.33333, 14], "texture": "#2"}
			}
		},
		{
			"from": [7, 15, 3],
			"to": [9, 16, 5],
			"faces": {
				"up": {"uv": [7.33333, 11.33333, 8.66667, 12.66667], "texture": "#2"}
			}
		},
		{
			"from": [6, 12, 3],
			"to": [10, 17, 5],
			"rotation": {"angle": 0, "axis": "y", "origin": [1, 2.5, 2]},
			"faces": {
				"north": {"uv": [6.66667, 10.66667, 9.33333, 14], "texture": "#2"},
				"south": {"uv": [6.66667, 10.66667, 9.33333, 14], "texture": "#2"}
			}
		},
		{
			"from": [7, 12, 2],
			"to": [9, 17, 6],
			"faces": {
				"east": {"uv": [6.66667, 10.66667, 9.33333, 14], "texture": "#2"},
				"west": {"uv": [6.66667, 10.66667, 9.33333, 14], "texture": "#2"}
			}
		},
		{
			"from": [7, 15, 3],
			"to": [9, 16, 5],
			"faces": {
				"up": {"uv": [7.33333, 11.33333, 8.66667, 12.66667], "texture": "#2"}
			}
		},
		{
			"from": [6, 12, 3],
			"to": [10, 17, 5],
			"rotation": {"angle": 0, "axis": "y", "origin": [1, 2.5, 2]},
			"faces": {
				"north": {"uv": [6.66667, 10.66667, 9.33333, 14], "texture": "#2"},
				"south": {"uv": [6.66667, 10.66667, 9.33333, 14], "texture": "#2"}
			}
		},
		{
			"from": [7, 12, 2],
			"to": [9, 17, 6],
			"faces": {
				"east": {"uv": [6.66667, 10.66667, 9.33333, 14], "texture": "#2"},
				"west": {"uv": [6.66667, 10.66667, 9.33333, 14], "texture": "#2"}
			}
		},
		{
			"from": [7, 15, 3],
			"to": [9, 16, 5],
			"faces": {
				"up": {"uv": [7.33333, 11.33333, 8.66667, 12.66667], "texture": "#2"}
			}
		},
		{
			"from": [6, 12, 3],
			"to": [10, 17, 5],
			"rotation": {"angle": 0, "axis": "y", "origin": [1, 2.5, 2]},
			"faces": {
				"north": {"uv": [6.66667, 10.66667, 9.33333, 14], "texture": "#2"},
				"south": {"uv": [6.66667, 10.66667, 9.33333, 14], "texture": "#2"}
			}
		},
		{
			"from": [7, 12, 2],
			"to": [9, 17, 6],
			"faces": {
				"east": {"uv": [6.66667, 10.66667, 9.33333, 14], "texture": "#2"},
				"west": {"uv": [6.66667, 10.66667, 9.33333, 14], "texture": "#2"}
			}
		},
		{
			"from": [7, 15, 11],
			"to": [9, 16, 13],
			"faces": {
				"up": {"uv": [7.33333, 11.33333, 8.66667, 12.66667], "texture": "#2"}
			}
		},
		{
			"from": [6, 12, 11],
			"to": [10, 17, 13],
			"rotation": {"angle": 0, "axis": "y", "origin": [1, 2.5, 2]},
			"faces": {
				"north": {"uv": [6.66667, 10.66667, 9.33333, 14], "texture": "#2"},
				"south": {"uv": [6.66667, 10.66667, 9.33333, 14], "texture": "#2"}
			}
		},
		{
			"from": [7, 12, 10],
			"to": [9, 17, 14],
			"faces": {
				"east": {"uv": [6.66667, 10.66667, 9.33333, 14], "texture": "#2"},
				"west": {"uv": [6.66667, 10.66667, 9.33333, 14], "texture": "#2"}
			}
		},
		{
			"from": [7, 15, 11],
			"to": [9, 16, 13],
			"faces": {
				"up": {"uv": [7.33333, 11.33333, 8.66667, 12.66667], "texture": "#2"}
			}
		},
		{
			"from": [6, 12, 11],
			"to": [10, 17, 13],
			"rotation": {"angle": 0, "axis": "y", "origin": [1, 2.5, 2]},
			"faces": {
				"north": {"uv": [6.66667, 10.66667, 9.33333, 14], "texture": "#2"},
				"south": {"uv": [6.66667, 10.66667, 9.33333, 14], "texture": "#2"}
			}
		},
		{
			"from": [7, 12, 10],
			"to": [9, 17, 14],
			"faces": {
				"east": {"uv": [6.66667, 10.66667, 9.33333, 14], "texture": "#2"},
				"west": {"uv": [6.66667, 10.66667, 9.33333, 14], "texture": "#2"}
			}
		},
		{
			"from": [7, 15, 11],
			"to": [9, 16, 13],
			"faces": {
				"up": {"uv": [7.33333, 11.33333, 8.66667, 12.66667], "texture": "#2"}
			}
		},
		{
			"from": [6, 12, 11],
			"to": [10, 17, 13],
			"rotation": {"angle": 0, "axis": "y", "origin": [1, 2.5, 2]},
			"faces": {
				"north": {"uv": [6.66667, 10.66667, 9.33333, 14], "texture": "#2"},
				"south": {"uv": [6.66667, 10.66667, 9.33333, 14], "texture": "#2"}
			}
		},
		{
			"from": [7, 12, 10],
			"to": [9, 17, 14],
			"faces": {
				"east": {"uv": [6.66667, 10.66667, 9.33333, 14], "texture": "#2"},
				"west": {"uv": [6.66667, 10.66667, 9.33333, 14], "texture": "#2"}
			}
		},
		{
			"from": [7, -1, 3],
			"to": [9, 0, 5],
			"rotation": {"angle": 0, "axis": "x", "origin": [8, 8, 8]},
			"faces": {
				"down": {"uv": [7.33333, 11.33333, 8.66667, 12.66667], "texture": "#2"}
			}
		},
		{
			"from": [6, -1, 3],
			"to": [10, 4, 5],
			"rotation": {"angle": 0, "axis": "x", "origin": [8, 8, 8]},
			"faces": {
				"north": {"uv": [6.66667, 10.66667, 9.33333, 14], "rotation": 180, "texture": "#2"},
				"south": {"uv": [6.66667, 10.66667, 9.33333, 14], "rotation": 180, "texture": "#2"}
			}
		},
		{
			"from": [7, -1, 2],
			"to": [9, 4, 6],
			"rotation": {"angle": 0, "axis": "x", "origin": [8, 8, 8]},
			"faces": {
				"east": {"uv": [6.66667, 10.66667, 9.33333, 14], "rotation": 180, "texture": "#2"},
				"west": {"uv": [6.66667, 10.66667, 9.33333, 14], "rotation": 180, "texture": "#2"}
			}
		},
		{
			"from": [7, -1, 3],
			"to": [9, 0, 5],
			"rotation": {"angle": 0, "axis": "x", "origin": [8, 8, 8]},
			"faces": {
				"down": {"uv": [7.33333, 11.33333, 8.66667, 12.66667], "texture": "#2"}
			}
		},
		{
			"from": [6, -1, 3],
			"to": [10, 4, 5],
			"rotation": {"angle": 0, "axis": "x", "origin": [8, 8, 8]},
			"faces": {
				"north": {"uv": [6.66667, 10.66667, 9.33333, 14], "rotation": 180, "texture": "#2"},
				"south": {"uv": [6.66667, 10.66667, 9.33333, 14], "rotation": 180, "texture": "#2"}
			}
		},
		{
			"from": [7, -1, 2],
			"to": [9, 4, 6],
			"rotation": {"angle": 0, "axis": "x", "origin": [8, 8, 8]},
			"faces": {
				"east": {"uv": [6.66667, 10.66667, 9.33333, 14], "rotation": 180, "texture": "#2"},
				"west": {"uv": [6.66667, 10.66667, 9.33333, 14], "rotation": 180, "texture": "#2"}
			}
		},
		{
			"from": [7, -1, 3],
			"to": [9, 0, 5],
			"rotation": {"angle": 0, "axis": "x", "origin": [8, 8, 8]},
			"faces": {
				"down": {"uv": [7.33333, 11.33333, 8.66667, 12.66667], "texture": "#2"}
			}
		},
		{
			"from": [6, -1, 3],
			"to": [10, 4, 5],
			"rotation": {"angle": 0, "axis": "x", "origin": [8, 8, 8]},
			"faces": {
				"north": {"uv": [6.66667, 10.66667, 9.33333, 14], "rotation": 180, "texture": "#2"},
				"south": {"uv": [6.66667, 10.66667, 9.33333, 14], "rotation": 180, "texture": "#2"}
			}
		},
		{
			"from": [7, -1, 2],
			"to": [9, 4, 6],
			"rotation": {"angle": 0, "axis": "x", "origin": [8, 8, 8]},
			"faces": {
				"east": {"uv": [6.66667, 10.66667, 9.33333, 14], "rotation": 180, "texture": "#2"},
				"west": {"uv": [6.66667, 10.66667, 9.33333, 14], "rotation": 180, "texture": "#2"}
			}
		},
		{
			"from": [7, -1, 3],
			"to": [9, 0, 5],
			"rotation": {"angle": 0, "axis": "x", "origin": [8, 8, 8]},
			"faces": {
				"down": {"uv": [7.33333, 11.33333, 8.66667, 12.66667], "texture": "#2"}
			}
		},
		{
			"from": [6, -1, 3],
			"to": [10, 4, 5],
			"rotation": {"angle": 0, "axis": "x", "origin": [8, 8, 8]},
			"faces": {
				"north": {"uv": [6.66667, 10.66667, 9.33333, 14], "rotation": 180, "texture": "#2"},
				"south": {"uv": [6.66667, 10.66667, 9.33333, 14], "rotation": 180, "texture": "#2"}
			}
		},
		{
			"from": [7, -1, 2],
			"to": [9, 4, 6],
			"rotation": {"angle": 0, "axis": "x", "origin": [8, 8, 8]},
			"faces": {
				"east": {"uv": [6.66667, 10.66667, 9.33333, 14], "rotation": 180, "texture": "#2"},
				"west": {"uv": [6.66667, 10.66667, 9.33333, 14], "rotation": 180, "texture": "#2"}
			}
		},
		{
			"from": [7, -1, 11],
			"to": [9, 0, 13],
			"rotation": {"angle": 0, "axis": "x", "origin": [8, 8, 8]},
			"faces": {
				"down": {"uv": [7.33333, 11.33333, 8.66667, 12.66667], "texture": "#2"}
			}
		},
		{
			"from": [6, -1, 11],
			"to": [10, 4, 13],
			"rotation": {"angle": 0, "axis": "x", "origin": [8, 8, 8]},
			"faces": {
				"north": {"uv": [6.66667, 10.66667, 9.33333, 14], "rotation": 180, "texture": "#2"},
				"south": {"uv": [6.66667, 10.66667, 9.33333, 14], "rotation": 180, "texture": "#2"}
			}
		},
		{
			"from": [7, -1, 10],
			"to": [9, 4, 14],
			"rotation": {"angle": 0, "axis": "x", "origin": [8, 8, 8]},
			"faces": {
				"east": {"uv": [6.66667, 10.66667, 9.33333, 14], "rotation": 180, "texture": "#2"},
				"west": {"uv": [6.66667, 10.66667, 9.33333, 14], "rotation": 180, "texture": "#2"}
			}
		},
		{
			"from": [7, -1, 11],
			"to": [9, 0, 13],
			"rotation": {"angle": 0, "axis": "x", "origin": [8, 8, 8]},
			"faces": {
				"down": {"uv": [7.33333, 11.33333, 8.66667, 12.66667], "texture": "#2"}
			}
		},
		{
			"from": [6, -1, 11],
			"to": [10, 4, 13],
			"rotation": {"angle": 0, "axis": "x", "origin": [8, 8, 8]},
			"faces": {
				"north": {"uv": [6.66667, 10.66667, 9.33333, 14], "rotation": 180, "texture": "#2"},
				"south": {"uv": [6.66667, 10.66667, 9.33333, 14], "rotation": 180, "texture": "#2"}
			}
		},
		{
			"from": [7, -1, 10],
			"to": [9, 4, 14],
			"rotation": {"angle": 0, "axis": "x", "origin": [8, 8, 8]},
			"faces": {
				"east": {"uv": [6.66667, 10.66667, 9.33333, 14], "rotation": 180, "texture": "#2"},
				"west": {"uv": [6.66667, 10.66667, 9.33333, 14], "rotation": 180, "texture": "#2"}
			}
		},
		{
			"from": [7, -1, 11],
			"to": [9, 0, 13],
			"rotation": {"angle": 0, "axis": "x", "origin": [8, 8, 8]},
			"faces": {
				"down": {"uv": [7.33333, 11.33333, 8.66667, 12.66667], "texture": "#2"}
			}
		},
		{
			"from": [6, -1, 11],
			"to": [10, 4, 13],
			"rotation": {"angle": 0, "axis": "x", "origin": [8, 8, 8]},
			"faces": {
				"north": {"uv": [6.66667, 10.66667, 9.33333, 14], "rotation": 180, "texture": "#2"},
				"south": {"uv": [6.66667, 10.66667, 9.33333, 14], "rotation": 180, "texture": "#2"}
			}
		},
		{
			"from": [7, -1, 10],
			"to": [9, 4, 14],
			"rotation": {"angle": 0, "axis": "x", "origin": [8, 8, 8]},
			"faces": {
				"east": {"uv": [6.66667, 10.66667, 9.33333, 14], "rotation": 180, "texture": "#2"},
				"west": {"uv": [6.66667, 10.66667, 9.33333, 14], "rotation": 180, "texture": "#2"}
			}
		},
		{
			"from": [7, -1, 11],
			"to": [9, 0, 13],
			"rotation": {"angle": 0, "axis": "x", "origin": [8, 8, 8]},
			"faces": {
				"down": {"uv": [7.33333, 11.33333, 8.66667, 12.66667], "texture": "#2"}
			}
		},
		{
			"from": [6, -1, 11],
			"to": [10, 4, 13],
			"rotation": {"angle": 0, "axis": "x", "origin": [8, 8, 8]},
			"faces": {
				"north": {"uv": [6.66667, 10.66667, 9.33333, 14], "rotation": 180, "texture": "#2"},
				"south": {"uv": [6.66667, 10.66667, 9.33333, 14], "rotation": 180, "texture": "#2"}
			}
		},
		{
			"from": [7, -1, 10],
			"to": [9, 4, 14],
			"rotation": {"angle": 0, "axis": "x", "origin": [8, 8, 8]},
			"faces": {
				"east": {"uv": [6.66667, 10.66667, 9.33333, 14], "rotation": 180, "texture": "#2"},
				"west": {"uv": [6.66667, 10.66667, 9.33333, 14], "rotation": 180, "texture": "#2"}
			}
		},
		{
			"from": [7, 12, 9],
			"to": [9, 12, 13],
			"faces": {
				"up": {"uv": [6.66667, 9.33333, 9.33333, 10.66667], "rotation": 90, "texture": "#2"}
			}
		},
		{
			"from": [7, 12, 5],
			"to": [9, 12, 9],
			"faces": {
				"up": {"uv": [6.66667, 9.33333, 9.33333, 10.66667], "rotation": 90, "texture": "#2"}
			}
		},
		{
			"from": [7, 4, 5],
			"to": [9, 4, 9],
			"rotation": {"angle": 0, "axis": "z", "origin": [8, 12, 9]},
			"faces": {
				"down": {"uv": [6.66667, 9.33333, 9.33333, 10.66667], "rotation": 270, "texture": "#2"}
			}
		},
		{
			"from": [7, 4, 9],
			"to": [9, 4, 13],
			"rotation": {"angle": 0, "axis": "z", "origin": [8, 12, 9]},
			"faces": {
				"down": {"uv": [6.66667, 9.33333, 9.33333, 10.66667], "rotation": 270, "texture": "#2"}
			}
		}
	],
	"groups": [
		0,
		1,
		2,
		3,
		4,
		5,
		6,
		7,
		8,
		9,
		10,
		{
			"name": "group",
			"origin": [0, 0, 0],
			"color": 0,
			"children": [11, 12, 13, 14, 15, 16, 17, 18, 19, 20, 21, 22]
		},
		{
			"name": "group",
			"origin": [0, 0, 0],
			"color": 0,
			"children": [23, 24, 25, 26, 27, 28, 29, 30, 31]
		},
		{
			"name": "group",
			"origin": [0, 0, 0],
			"color": 0,
			"children": [32, 33, 34, 35, 36, 37, 38, 39, 40, 41, 42, 43]
		},
		{
			"name": "group",
			"origin": [0, 0, 0],
			"color": 0,
			"children": [44, 45, 46, 47, 48, 49, 50, 51, 52, 53, 54, 55]
		},
		56,
		57,
		58,
		59
	]
}
