{
  "elements": [
    {
      "element": {
        "element_type": "paradisemod:improved_element",
        "location": "paradisemod:dungeons/ender_outpost/middle_inverted",
        "processors": {
          "processors": []
        },
        "projection": "rigid"
      },
      "weight": 2
    },
    {
      "element": {
        "element_type": "paradisemod:improved_element",
        "location": "paradisemod:dungeons/ender_outpost/top_inverted",
        "processors": {
          "processors": []
        },
        "projection": "rigid"
      },
      "weight": 1
    }
  ],
  "fallback": "paradisemod:ender_outpost/top_inverted"
}