{
  "type": "minecraft:smithing_transform",
  "addition": {
    "item": "minecraft:emerald"
  },
  "base": {
    "item": "minecraft:diamond_boots"
  },
  "result": {
    "item": "paradisemod:emerald_boots"
  },
  "template": {
    "item": "paradisemod:smithing_upgrade"
  }
}