{
  "type": "minecraft:smithing_transform",
  "addition": {
    "item": "paradisemod:enderite_ingot"
  },
  "base": {
    "item": "minecraft:netherite_hoe"
  },
  "result": {
    "item": "paradisemod:enderite_hoe"
  },
  "template": {
    "item": "paradisemod:smithing_upgrade"
  }
}