{
  "type": "minecraft:smithing_transform",
  "addition": {
    "item": "minecraft:netherite_ingot"
  },
  "base": [
    {
      "item": "paradisemod:emerald_axe"
    },
    {
      "item": "paradisemod:ruby_axe"
    }
  ],
  "result": {
    "item": "minecraft:netherite_axe"
  },
  "template": {
    "item": "minecraft:netherite_upgrade_smithing_template"
  }
}