{
  "type": "minecraft:smithing_transform",
  "addition": {
    "item": "minecraft:obsidian"
  },
  "base": {
    "item": "minecraft:diamond_chestplate"
  },
  "result": {
    "item": "paradisemod:obsidian_chestplate"
  },
  "template": {
    "item": "paradisemod:smithing_upgrade"
  }
}