{
  "type": "paradisemod:big_structure",
  "biomes": "#minecraft:is_end",
  "config_key": "enderOutpost",
  "gen_type": "ground",
  "size": 12,
  "spawn_overrides": {},
  "start_pool": "paradisemod:ender_outpost/bottom",
  "step": "surface_structures",
  "terrain_adaptation": "beard_box"
}