{
  "feature": "paradisemod:ore/darkstone_silver",
  "placement": [
    {
      "type": "minecraft:in_square"
    },
    {
      "type": "minecraft:count",
      "count": 10
    },
    {
      "type": "minecraft:height_range",
      "height": {
        "type": "minecraft:trapezoid",
        "max_inclusive": {
          "absolute": 256
        },
        "min_inclusive": {
          "absolute": -48
        }
      }
    },
    {
      "type": "minecraft:rarity_filter",
      "chance": 8
    },
    {
      "type": "paradisemod:configured_ore",
      "key": "deepDark"
    }
  ]
}