{
  "parent": "paradisemod:block/template/custom_door_bottom",
  "render_type": "minecraft:solid",
  "textures": {
    "bottom": "minecraft:block/andesite",
    "top": "minecraft:block/andesite"
  }
}