{
  "parent": "paradisemod:block/template/custom_door_bottom_hinge",
  "render_type": "minecraft:solid",
  "textures": {
    "bottom": "minecraft:block/end_stone",
    "top": "minecraft:block/end_stone"
  }
}