{
  "parent": "paradisemod:block/template/custom_door_top_hinge",
  "render_type": "minecraft:solid",
  "textures": {
    "bottom": "paradisemod:block/door/gold_bottom",
    "top": "paradisemod:block/door/gold_top"
  }
}