{
  "parent": "paradisemod:block/template/custom_door_top_hinge",
  "render_type": "minecraft:solid",
  "textures": {
    "bottom": "minecraft:block/granite",
    "top": "minecraft:block/granite"
  }
}