{
  "parent": "paradisemod:block/template/custom_door_bottom_hinge",
  "render_type": "minecraft:solid",
  "textures": {
    "bottom": "paradisemod:block/glowing_obsidian/green",
    "top": "paradisemod:block/glowing_obsidian/green"
  }
}