{
  "parent": "paradisemod:block/template/custom_door_top_hinge",
  "render_type": "minecraft:solid",
  "textures": {
    "bottom": "paradisemod:block/glowing_obsidian/iron",
    "top": "paradisemod:block/glowing_obsidian/iron"
  }
}