{
  "parent": "paradisemod:block/template/custom_door_bottom",
  "render_type": "minecraft:solid",
  "textures": {
    "bottom": "paradisemod:block/ruby_block",
    "top": "paradisemod:block/ruby_block"
  }
}