{
  "parent": "paradisemod:block/template/custom_door_bottom",
  "render_type": "minecraft:solid",
  "textures": {
    "bottom": "paradisemod:block/door/rusted_iron_bottom",
    "top": "paradisemod:block/door/rusted_iron_top"
  }
}