{
  "parent": "paradisemod:block/template/custom_door_bottom_hinge",
  "render_type": "minecraft:solid",
  "textures": {
    "bottom": "paradisemod:block/door/silver_bottom",
    "top": "paradisemod:block/door/silver_top"
  }
}