{
  "parent": "paradisemod:block/template/custom_door_bottom",
  "render_type": "minecraft:solid",
  "textures": {
    "bottom": "paradisemod:block/glowing_obsidian/white",
    "top": "paradisemod:block/glowing_obsidian/white"
  }
}