{
  "type": "minecraft:smelting",
  "category": "misc",
  "cookingtime": 200,
  "experience": 0.1,
  "ingredient": {
    "item": "paradisemod:enderite_ore"
  },
  "result": "paradisemod:enderite_ingot"
}