{
  "type": "minecraft:smelting",
  "category": "misc",
  "cookingtime": 200,
  "experience": 0.1,
  "ingredient": {
    "tag": "paradisemod:silver_recyclables"
  },
  "result": "paradisemod:silver_nugget"
}