{
  "parent": "minecraft:block/template_piston",
  "textures": {
    "bottom": "paradisemod:block/super_piston/bottom",
    "platform": "paradisemod:block/super_piston/top_sticky",
    "side": "paradisemod:block/super_piston/side"
  }
}