{
  "elements": [
    {
      "element": {
        "element_type": "paradisemod:improved_element",
        "location": "paradisemod:dungeons/badlands_pyramid/pyramid",
        "processors": {
          "processors": []
        },
        "projection": "rigid"
      },
      "weight": 1
    }
  ],
  "fallback": "minecraft:empty"
}