{
  "parent": "minecraft:block/template_glass_pane_side_alt",
  "render_type": "minecraft:translucent",
  "textures": {
    "edge": "paradisemod:block/tinted_blastproof_glass/light_blue",
    "pane": "paradisemod:block/tinted_blastproof_glass/light_blue"
  }
}