{
  "parent": "minecraft:block/template_glass_pane_side",
  "render_type": "minecraft:translucent",
  "textures": {
    "edge": "paradisemod:block/tinted_blastproof_glass/orange",
    "pane": "paradisemod:block/tinted_blastproof_glass/orange"
  }
}