{
  "parent": "minecraft:block/template_glass_pane_post",
  "render_type": "minecraft:translucent",
  "textures": {
    "edge": "paradisemod:block/tinted_blastproof_glass/yellow",
    "pane": "paradisemod:block/tinted_blastproof_glass/yellow"
  }
}